2.63564,Tue Nov  5 14:21:51 2019
2.89265,Tue Nov  5 14:21:51 2019
3.48498,Tue Nov  5 14:21:51 2019
2.64763,Tue Nov  5 14:21:51 2019
2.85955,Tue Nov  5 14:21:51 2019
3.27735,Tue Nov  5 14:21:51 2019
3.30548,Tue Nov  5 14:21:51 2019
2.41641,Tue Nov  5 14:21:51 2019
2.66655,Tue Nov  5 14:21:51 2019
2.95429,Tue Nov  5 14:21:51 2019
3.15578,Tue Nov  5 14:21:51 2019
2.74919,Tue Nov  5 14:21:51 2019
2.16727,Tue Nov  5 14:21:51 2019
2.83208,Tue Nov  5 14:21:51 2019
3.11899,Tue Nov  5 14:21:51 2019
2.39889,Tue Nov  5 14:21:51 2019
2.68381,Tue Nov  5 14:21:51 2019
2.70092,Tue Nov  5 14:21:51 2019
2.3345,Tue Nov  5 14:21:51 2019
2.7292,Tue Nov  5 14:21:51 2019
2.40436,Tue Nov  5 14:21:51 2019
1.89039,Tue Nov  5 14:21:51 2019
2.47044,Tue Nov  5 14:21:51 2019
2.57525,Tue Nov  5 14:21:51 2019
2.10729,Tue Nov  5 14:21:51 2019
1.84964,Tue Nov  5 14:21:51 2019
2.28813,Tue Nov  5 14:21:51 2019
1.75079,Tue Nov  5 14:21:51 2019
1.07883,Tue Nov  5 14:21:51 2019
1.60339,Tue Nov  5 14:21:51 2019
0.882127,Tue Nov  5 14:21:51 2019
1.17912,Tue Nov  5 14:21:51 2019
0.629775,Tue Nov  5 14:21:51 2019
0.839565,Tue Nov  5 14:21:51 2019
0.833297,Tue Nov  5 14:21:51 2019
0.554579,Tue Nov  5 14:21:51 2019
0.253291,Tue Nov  5 14:21:51 2019
-0.435761,Tue Nov  5 14:21:51 2019
-0.192594,Tue Nov  5 14:21:51 2019
-0.368859,Tue Nov  5 14:21:51 2019
-0.147174,Tue Nov  5 14:21:51 2019
-0.582713,Tue Nov  5 14:21:51 2019
-0.423805,Tue Nov  5 14:21:51 2019
-0.93587,Tue Nov  5 14:21:51 2019
-0.578938,Tue Nov  5 14:21:51 2019
-1.38279,Tue Nov  5 14:21:51 2019
-1.20895,Tue Nov  5 14:21:51 2019
-1.55846,Tue Nov  5 14:21:51 2019
-1.12578,Tue Nov  5 14:21:51 2019
-1.05373,Tue Nov  5 14:21:51 2019
-1.68634,Tue Nov  5 14:21:51 2019
-2.10098,Tue Nov  5 14:21:51 2019
-1.82389,Tue Nov  5 14:21:51 2019
-1.9774,Tue Nov  5 14:21:51 2019
-2.19438,Tue Nov  5 14:21:51 2019
-2.09504,Tue Nov  5 14:21:51 2019
-2.24529,Tue Nov  5 14:21:51 2019
-2.83992,Tue Nov  5 14:21:51 2019
-2.74327,Tue Nov  5 14:21:51 2019
-2.53354,Tue Nov  5 14:21:51 2019
-2.66898,Tue Nov  5 14:21:51 2019
-2.96229,Tue Nov  5 14:21:51 2019
-3.13089,Tue Nov  5 14:21:51 2019
-2.5081,Tue Nov  5 14:21:51 2019
-2.57472,Tue Nov  5 14:21:51 2019
-2.609,Tue Nov  5 14:21:51 2019
-2.7485,Tue Nov  5 14:21:51 2019
-3.27515,Tue Nov  5 14:21:51 2019
-2.95577,Tue Nov  5 14:21:51 2019
-2.94864,Tue Nov  5 14:21:51 2019
-3.0978,Tue Nov  5 14:21:51 2019
-2.70725,Tue Nov  5 14:21:51 2019
-2.39122,Tue Nov  5 14:21:51 2019
-2.92607,Tue Nov  5 14:21:51 2019
-3.20403,Tue Nov  5 14:21:51 2019
-3.08284,Tue Nov  5 14:21:51 2019
-2.21866,Tue Nov  5 14:21:51 2019
-2.49632,Tue Nov  5 14:21:51 2019
-2.90189,Tue Nov  5 14:21:51 2019
-2.56329,Tue Nov  5 14:21:51 2019
-3.3653,Tue Nov  5 14:21:51 2019
-2.56448,Tue Nov  5 14:21:51 2019
-2.88904,Tue Nov  5 14:21:51 2019
-2.32928,Tue Nov  5 14:21:51 2019
-2.95815,Tue Nov  5 14:21:51 2019
-1.99864,Tue Nov  5 14:21:51 2019
-2.18695,Tue Nov  5 14:21:51 2019
-2.16815,Tue Nov  5 14:21:51 2019
-2.11763,Tue Nov  5 14:21:51 2019
-1.73892,Tue Nov  5 14:21:51 2019
-2.1326,Tue Nov  5 14:21:51 2019
-1.86057,Tue Nov  5 14:21:51 2019
-1.32062,Tue Nov  5 14:21:51 2019
-0.863385,Tue Nov  5 14:21:51 2019
-1.4113,Tue Nov  5 14:21:51 2019
-1.04302,Tue Nov  5 14:21:51 2019
-0.969548,Tue Nov  5 14:21:51 2019
-0.575389,Tue Nov  5 14:21:51 2019
-0.197702,Tue Nov  5 14:21:51 2019
-0.0350741,Tue Nov  5 14:21:51 2019
0.075363,Tue Nov  5 14:21:51 2019
0.231573,Tue Nov  5 14:21:51 2019
-0.000763058,Tue Nov  5 14:21:51 2019
0.0610086,Tue Nov  5 14:21:51 2019
0.712901,Tue Nov  5 14:21:51 2019
0.0049905,Tue Nov  5 14:21:51 2019
0.814385,Tue Nov  5 14:21:51 2019
0.892569,Tue Nov  5 14:21:51 2019
1.80676,Tue Nov  5 14:21:51 2019
1.20699,Tue Nov  5 14:21:51 2019
0.848794,Tue Nov  5 14:21:51 2019
1.79003,Tue Nov  5 14:21:51 2019
0.987768,Tue Nov  5 14:21:51 2019
1.58925,Tue Nov  5 14:21:51 2019
1.47848,Tue Nov  5 14:21:51 2019
1.56599,Tue Nov  5 14:21:51 2019
2.16054,Tue Nov  5 14:21:51 2019
1.70598,Tue Nov  5 14:21:51 2019
2.1797,Tue Nov  5 14:21:51 2019
2.29708,Tue Nov  5 14:21:51 2019
2.36112,Tue Nov  5 14:21:51 2019
2.67945,Tue Nov  5 14:21:51 2019
2.4103,Tue Nov  5 14:21:51 2019
2.66414,Tue Nov  5 14:21:51 2019
2.42496,Tue Nov  5 14:21:51 2019
2.61401,Tue Nov  5 14:21:51 2019
3.08593,Tue Nov  5 14:21:51 2019
3.35242,Tue Nov  5 14:21:51 2019
2.98227,Tue Nov  5 14:21:51 2019
2.99306,Tue Nov  5 14:21:51 2019
3.26261,Tue Nov  5 14:21:51 2019
2.58487,Tue Nov  5 14:21:51 2019
2.74135,Tue Nov  5 14:21:51 2019
2.70859,Tue Nov  5 14:21:51 2019
3.099,Tue Nov  5 14:21:51 2019
2.79887,Tue Nov  5 14:21:51 2019
3.03844,Tue Nov  5 14:21:51 2019
3.00932,Tue Nov  5 14:21:51 2019
2.9824,Tue Nov  5 14:21:51 2019
2.90962,Tue Nov  5 14:21:51 2019
2.96541,Tue Nov  5 14:21:51 2019
2.15124,Tue Nov  5 14:21:51 2019
3.11641,Tue Nov  5 14:21:51 2019
2.46257,Tue Nov  5 14:21:51 2019
2.95633,Tue Nov  5 14:21:51 2019
2.24261,Tue Nov  5 14:21:51 2019
2.46058,Tue Nov  5 14:21:51 2019
2.54132,Tue Nov  5 14:21:51 2019
2.10401,Tue Nov  5 14:21:51 2019
1.38354,Tue Nov  5 14:21:51 2019
2.05601,Tue Nov  5 14:21:51 2019
2.1886,Tue Nov  5 14:21:51 2019
1.74152,Tue Nov  5 14:21:51 2019
1.50918,Tue Nov  5 14:21:51 2019
1.53721,Tue Nov  5 14:21:51 2019
1.21773,Tue Nov  5 14:21:51 2019
0.954085,Tue Nov  5 14:21:51 2019
1.65973,Tue Nov  5 14:21:51 2019
1.61391,Tue Nov  5 14:21:51 2019
0.520391,Tue Nov  5 14:21:51 2019
0.521409,Tue Nov  5 14:21:51 2019
0.315224,Tue Nov  5 14:21:51 2019
-0.115123,Tue Nov  5 14:21:51 2019
0.505942,Tue Nov  5 14:21:51 2019
0.11736,Tue Nov  5 14:21:51 2019
-0.24158,Tue Nov  5 14:21:51 2019
-0.0591524,Tue Nov  5 14:21:51 2019
-0.297286,Tue Nov  5 14:21:51 2019
0.144873,Tue Nov  5 14:21:51 2019
-0.590828,Tue Nov  5 14:21:51 2019
-0.931984,Tue Nov  5 14:21:51 2019
-0.644051,Tue Nov  5 14:21:51 2019
-1.25965,Tue Nov  5 14:21:51 2019
-1.09223,Tue Nov  5 14:21:51 2019
-1.48823,Tue Nov  5 14:21:51 2019
-1.31834,Tue Nov  5 14:21:51 2019
-1.55187,Tue Nov  5 14:21:51 2019
-1.58924,Tue Nov  5 14:21:51 2019
-2.10238,Tue Nov  5 14:21:51 2019
-2.51498,Tue Nov  5 14:21:51 2019
-2.71931,Tue Nov  5 14:21:51 2019
-2.31881,Tue Nov  5 14:21:51 2019
-2.49412,Tue Nov  5 14:21:51 2019
-2.35057,Tue Nov  5 14:21:51 2019
-1.92222,Tue Nov  5 14:21:51 2019
-2.67021,Tue Nov  5 14:21:51 2019
-2.81163,Tue Nov  5 14:21:51 2019
-2.78962,Tue Nov  5 14:21:51 2019
-2.46538,Tue Nov  5 14:21:51 2019
-2.55632,Tue Nov  5 14:21:51 2019
-3.41194,Tue Nov  5 14:21:51 2019
-2.88943,Tue Nov  5 14:21:51 2019
-2.91024,Tue Nov  5 14:21:51 2019
-3.0342,Tue Nov  5 14:21:51 2019
-2.78958,Tue Nov  5 14:21:51 2019
-3.11949,Tue Nov  5 14:21:51 2019
-3.08623,Tue Nov  5 14:21:51 2019
-3.50354,Tue Nov  5 14:21:51 2019
-3.32546,Tue Nov  5 14:21:51 2019
-2.63013,Tue Nov  5 14:21:51 2019
-2.82745,Tue Nov  5 14:21:51 2019
-2.99741,Tue Nov  5 14:21:51 2019
-2.59224,Tue Nov  5 14:21:51 2019
-2.69883,Tue Nov  5 14:21:51 2019
-3.10585,Tue Nov  5 14:21:51 2019
-1.96127,Tue Nov  5 14:21:51 2019
-2.19511,Tue Nov  5 14:21:51 2019
-2.72336,Tue Nov  5 14:21:51 2019
-2.36543,Tue Nov  5 14:21:51 2019
-2.4981,Tue Nov  5 14:21:51 2019
-2.06522,Tue Nov  5 14:21:51 2019
-2.06868,Tue Nov  5 14:21:51 2019
-1.82051,Tue Nov  5 14:21:51 2019
-1.91449,Tue Nov  5 14:21:51 2019
-2.03018,Tue Nov  5 14:21:51 2019
-2.0197,Tue Nov  5 14:21:51 2019
-2.07788,Tue Nov  5 14:21:51 2019
-1.62095,Tue Nov  5 14:21:51 2019
-1.41611,Tue Nov  5 14:21:51 2019
-1.16583,Tue Nov  5 14:21:51 2019
-1.24828,Tue Nov  5 14:21:51 2019
-0.844112,Tue Nov  5 14:21:51 2019
-0.756368,Tue Nov  5 14:21:51 2019
-0.700003,Tue Nov  5 14:21:51 2019
-0.225389,Tue Nov  5 14:21:51 2019
-0.537647,Tue Nov  5 14:21:51 2019
0.28758,Tue Nov  5 14:21:51 2019
-0.490729,Tue Nov  5 14:21:51 2019
0.313464,Tue Nov  5 14:21:51 2019
0.305278,Tue Nov  5 14:21:51 2019
0.205674,Tue Nov  5 14:21:51 2019
0.571405,Tue Nov  5 14:21:51 2019
1.44644,Tue Nov  5 14:21:51 2019
1.12577,Tue Nov  5 14:21:51 2019
1.22625,Tue Nov  5 14:21:51 2019
0.663874,Tue Nov  5 14:21:51 2019
1.12356,Tue Nov  5 14:21:51 2019
0.969971,Tue Nov  5 14:21:51 2019
2.33251,Tue Nov  5 14:21:51 2019
1.8053,Tue Nov  5 14:21:51 2019
1.41169,Tue Nov  5 14:21:51 2019
2.43697,Tue Nov  5 14:21:51 2019
2.0606,Tue Nov  5 14:21:51 2019
2.23458,Tue Nov  5 14:21:51 2019
2.10227,Tue Nov  5 14:21:51 2019
2.42265,Tue Nov  5 14:21:51 2019
1.9346,Tue Nov  5 14:21:51 2019
3.05181,Tue Nov  5 14:21:51 2019
2.40693,Tue Nov  5 14:21:51 2019
2.60486,Tue Nov  5 14:21:51 2019
2.81109,Tue Nov  5 14:21:51 2019
2.5977,Tue Nov  5 14:21:51 2019
2.89877,Tue Nov  5 14:21:51 2019
2.84998,Tue Nov  5 14:21:51 2019
2.52722,Tue Nov  5 14:21:51 2019
2.93353,Tue Nov  5 14:21:51 2019
3.02731,Tue Nov  5 14:21:51 2019
2.9028,Tue Nov  5 14:21:51 2019
3.40601,Tue Nov  5 14:21:51 2019
2.46431,Tue Nov  5 14:21:51 2019
3.20021,Tue Nov  5 14:21:51 2019
2.71003,Tue Nov  5 14:21:51 2019
3.17692,Tue Nov  5 14:21:51 2019
3.37718,Tue Nov  5 14:21:51 2019
2.8676,Tue Nov  5 14:21:51 2019
3.01995,Tue Nov  5 14:21:51 2019
3.19671,Tue Nov  5 14:21:51 2019
2.3825,Tue Nov  5 14:21:51 2019
2.50894,Tue Nov  5 14:21:51 2019
2.63817,Tue Nov  5 14:21:51 2019
2.46463,Tue Nov  5 14:21:51 2019
2.03943,Tue Nov  5 14:21:51 2019
2.46979,Tue Nov  5 14:21:51 2019
2.07198,Tue Nov  5 14:21:51 2019
2.55613,Tue Nov  5 14:21:51 2019
1.32337,Tue Nov  5 14:21:51 2019
1.73051,Tue Nov  5 14:21:51 2019
1.75835,Tue Nov  5 14:21:51 2019
1.53445,Tue Nov  5 14:21:51 2019
1.19984,Tue Nov  5 14:21:51 2019
1.27045,Tue Nov  5 14:21:51 2019
1.38727,Tue Nov  5 14:21:51 2019
0.970612,Tue Nov  5 14:21:51 2019
1.06603,Tue Nov  5 14:21:51 2019
0.707747,Tue Nov  5 14:21:51 2019
0.724854,Tue Nov  5 14:21:51 2019
1.04611,Tue Nov  5 14:21:51 2019
0.603213,Tue Nov  5 14:21:51 2019
0.30629,Tue Nov  5 14:21:51 2019
0.102737,Tue Nov  5 14:21:51 2019
0.431806,Tue Nov  5 14:21:51 2019
-0.106656,Tue Nov  5 14:21:51 2019
-0.316641,Tue Nov  5 14:21:51 2019
-0.515635,Tue Nov  5 14:21:51 2019
-0.855583,Tue Nov  5 14:21:51 2019
-0.870407,Tue Nov  5 14:21:51 2019
-1.03379,Tue Nov  5 14:21:51 2019
-1.29782,Tue Nov  5 14:21:51 2019
-1.082,Tue Nov  5 14:21:51 2019
-1.58769,Tue Nov  5 14:21:51 2019
-1.81704,Tue Nov  5 14:21:51 2019
-1.92532,Tue Nov  5 14:21:51 2019
-2.1323,Tue Nov  5 14:21:51 2019
-1.53862,Tue Nov  5 14:21:51 2019
-2.15363,Tue Nov  5 14:21:51 2019
-2.07245,Tue Nov  5 14:21:51 2019
-2.66219,Tue Nov  5 14:21:51 2019
-2.49271,Tue Nov  5 14:21:51 2019
-2.3063,Tue Nov  5 14:21:51 2019
-2.56603,Tue Nov  5 14:21:51 2019
-2.55424,Tue Nov  5 14:21:51 2019
-2.49144,Tue Nov  5 14:21:51 2019
-2.66501,Tue Nov  5 14:21:51 2019
-2.77674,Tue Nov  5 14:21:51 2019
-2.94335,Tue Nov  5 14:21:51 2019
-3.12044,Tue Nov  5 14:21:51 2019
-2.44247,Tue Nov  5 14:21:51 2019
-3.00262,Tue Nov  5 14:21:51 2019
-2.57774,Tue Nov  5 14:21:51 2019
-2.70042,Tue Nov  5 14:21:51 2019
-2.7666,Tue Nov  5 14:21:51 2019
-2.62227,Tue Nov  5 14:21:51 2019
-3.72279,Tue Nov  5 14:21:51 2019
-2.74954,Tue Nov  5 14:21:51 2019
-2.82088,Tue Nov  5 14:21:51 2019
-3.38815,Tue Nov  5 14:21:51 2019
-2.53256,Tue Nov  5 14:21:51 2019
-3.35607,Tue Nov  5 14:21:51 2019
-2.72166,Tue Nov  5 14:21:51 2019
-2.70834,Tue Nov  5 14:21:51 2019
-2.80434,Tue Nov  5 14:21:51 2019
-2.82624,Tue Nov  5 14:21:51 2019
-2.98919,Tue Nov  5 14:21:51 2019
-2.74655,Tue Nov  5 14:21:51 2019
-2.50548,Tue Nov  5 14:21:51 2019
-2.64077,Tue Nov  5 14:21:51 2019
-2.17737,Tue Nov  5 14:21:51 2019
-1.96251,Tue Nov  5 14:21:51 2019
-1.83391,Tue Nov  5 14:21:51 2019
-1.79935,Tue Nov  5 14:21:51 2019
-0.887628,Tue Nov  5 14:21:51 2019
-1.62578,Tue Nov  5 14:21:51 2019
-1.6576,Tue Nov  5 14:21:51 2019
-1.29785,Tue Nov  5 14:21:51 2019
-1.44359,Tue Nov  5 14:21:51 2019
-1.29328,Tue Nov  5 14:21:51 2019
-0.205671,Tue Nov  5 14:21:51 2019
-0.404571,Tue Nov  5 14:21:51 2019
-0.335935,Tue Nov  5 14:21:51 2019
-0.625537,Tue Nov  5 14:21:51 2019
-0.306704,Tue Nov  5 14:21:51 2019
-0.68714,Tue Nov  5 14:21:51 2019
-0.120224,Tue Nov  5 14:21:51 2019
0.0406654,Tue Nov  5 14:21:51 2019
0.597417,Tue Nov  5 14:21:51 2019
0.235655,Tue Nov  5 14:21:51 2019
0.57034,Tue Nov  5 14:21:51 2019
1.00425,Tue Nov  5 14:21:51 2019
0.7758,Tue Nov  5 14:21:51 2019
0.832851,Tue Nov  5 14:21:51 2019
0.910219,Tue Nov  5 14:21:51 2019
0.92611,Tue Nov  5 14:21:51 2019
1.77821,Tue Nov  5 14:21:51 2019
1.70164,Tue Nov  5 14:21:51 2019
1.93037,Tue Nov  5 14:21:51 2019
1.77308,Tue Nov  5 14:21:51 2019
1.853,Tue Nov  5 14:21:51 2019
2.32777,Tue Nov  5 14:21:51 2019
1.86252,Tue Nov  5 14:21:51 2019
2.38306,Tue Nov  5 14:21:51 2019
2.29551,Tue Nov  5 14:21:51 2019
2.66894,Tue Nov  5 14:21:51 2019
2.36398,Tue Nov  5 14:21:51 2019
2.36262,Tue Nov  5 14:21:51 2019
3.14815,Tue Nov  5 14:21:51 2019
2.81334,Tue Nov  5 14:21:51 2019
2.86896,Tue Nov  5 14:21:51 2019
2.59419,Tue Nov  5 14:21:51 2019
2.65611,Tue Nov  5 14:21:51 2019
3.18482,Tue Nov  5 14:21:51 2019
3.22099,Tue Nov  5 14:21:51 2019
2.94253,Tue Nov  5 14:21:51 2019
3.40163,Tue Nov  5 14:21:51 2019
3.56226,Tue Nov  5 14:21:51 2019
3.80904,Tue Nov  5 14:21:51 2019
3.22427,Tue Nov  5 14:21:51 2019
2.8302,Tue Nov  5 14:21:51 2019
3.29172,Tue Nov  5 14:21:51 2019
3.37314,Tue Nov  5 14:21:51 2019
2.86232,Tue Nov  5 14:21:51 2019
3.16073,Tue Nov  5 14:21:51 2019
3.17671,Tue Nov  5 14:21:51 2019
2.57355,Tue Nov  5 14:21:51 2019
2.9019,Tue Nov  5 14:21:51 2019
2.88268,Tue Nov  5 14:21:51 2019
2.91561,Tue Nov  5 14:21:51 2019
2.22025,Tue Nov  5 14:21:51 2019
3.00527,Tue Nov  5 14:21:51 2019
2.46708,Tue Nov  5 14:21:51 2019
2.4911,Tue Nov  5 14:21:51 2019
2.2813,Tue Nov  5 14:21:51 2019
1.94738,Tue Nov  5 14:21:51 2019
1.83447,Tue Nov  5 14:21:51 2019
1.59662,Tue Nov  5 14:21:51 2019
1.54519,Tue Nov  5 14:21:51 2019
1.60693,Tue Nov  5 14:21:51 2019
1.42836,Tue Nov  5 14:21:51 2019
1.00673,Tue Nov  5 14:21:51 2019
1.33876,Tue Nov  5 14:21:51 2019
0.666483,Tue Nov  5 14:21:51 2019
0.63532,Tue Nov  5 14:21:51 2019
0.473712,Tue Nov  5 14:21:51 2019
-0.0813112,Tue Nov  5 14:21:51 2019
0.828316,Tue Nov  5 14:21:51 2019
-0.0276576,Tue Nov  5 14:21:51 2019
0.135943,Tue Nov  5 14:21:51 2019
-0.117551,Tue Nov  5 14:21:51 2019
-0.116379,Tue Nov  5 14:21:51 2019
-0.440996,Tue Nov  5 14:21:51 2019
-0.158227,Tue Nov  5 14:21:51 2019
-0.975484,Tue Nov  5 14:21:51 2019
-1.0234,Tue Nov  5 14:21:51 2019
-1.42211,Tue Nov  5 14:21:51 2019
-0.836226,Tue Nov  5 14:21:51 2019
-0.819864,Tue Nov  5 14:21:51 2019
-1.13572,Tue Nov  5 14:21:51 2019
-1.43164,Tue Nov  5 14:21:51 2019
-1.73262,Tue Nov  5 14:21:51 2019
-2.1616,Tue Nov  5 14:21:51 2019
-2.46471,Tue Nov  5 14:21:51 2019
-2.16775,Tue Nov  5 14:21:51 2019
-2.19531,Tue Nov  5 14:21:51 2019
-2.67268,Tue Nov  5 14:21:51 2019
-2.27477,Tue Nov  5 14:21:51 2019
-1.92856,Tue Nov  5 14:21:51 2019
-2.50179,Tue Nov  5 14:21:51 2019
-2.92986,Tue Nov  5 14:21:51 2019
-2.56396,Tue Nov  5 14:21:51 2019
-2.77925,Tue Nov  5 14:21:51 2019
-2.471,Tue Nov  5 14:21:51 2019
-2.27043,Tue Nov  5 14:21:51 2019
-2.891,Tue Nov  5 14:21:51 2019
-2.68932,Tue Nov  5 14:21:51 2019
-2.95131,Tue Nov  5 14:21:51 2019
-2.90195,Tue Nov  5 14:21:51 2019
-3.11698,Tue Nov  5 14:21:51 2019
-2.96637,Tue Nov  5 14:21:51 2019
-3.07014,Tue Nov  5 14:21:51 2019
-2.85532,Tue Nov  5 14:21:51 2019
-3.3434,Tue Nov  5 14:21:51 2019
-2.47175,Tue Nov  5 14:21:51 2019
-3.22044,Tue Nov  5 14:21:51 2019
-3.37684,Tue Nov  5 14:21:51 2019
-2.26555,Tue Nov  5 14:21:51 2019
-2.36932,Tue Nov  5 14:21:51 2019
-2.54931,Tue Nov  5 14:21:51 2019
-2.50164,Tue Nov  5 14:21:51 2019
-2.84814,Tue Nov  5 14:21:51 2019
-2.46103,Tue Nov  5 14:21:51 2019
-2.30511,Tue Nov  5 14:21:51 2019
-2.46554,Tue Nov  5 14:21:51 2019
-1.90835,Tue Nov  5 14:21:51 2019
-2.58962,Tue Nov  5 14:21:51 2019
-2.40891,Tue Nov  5 14:21:51 2019
-2.24107,Tue Nov  5 14:21:51 2019
-1.90981,Tue Nov  5 14:21:51 2019
-1.86703,Tue Nov  5 14:21:51 2019
-1.24343,Tue Nov  5 14:21:51 2019
-1.56174,Tue Nov  5 14:21:51 2019
-1.10937,Tue Nov  5 14:21:51 2019
-1.29824,Tue Nov  5 14:21:51 2019
-1.13591,Tue Nov  5 14:21:51 2019
-0.912957,Tue Nov  5 14:21:51 2019
-0.999893,Tue Nov  5 14:21:51 2019
-0.167248,Tue Nov  5 14:21:51 2019
-0.350627,Tue Nov  5 14:21:51 2019
-0.154208,Tue Nov  5 14:21:51 2019
-0.429789,Tue Nov  5 14:21:51 2019
-0.090196,Tue Nov  5 14:21:51 2019
-0.318389,Tue Nov  5 14:21:51 2019
0.488367,Tue Nov  5 14:21:51 2019
0.538959,Tue Nov  5 14:21:51 2019
0.606598,Tue Nov  5 14:21:51 2019
0.705053,Tue Nov  5 14:21:51 2019
0.884954,Tue Nov  5 14:21:51 2019
0.637376,Tue Nov  5 14:21:51 2019
1.25072,Tue Nov  5 14:21:51 2019
1.23376,Tue Nov  5 14:21:51 2019
1.03205,Tue Nov  5 14:21:51 2019
1.10203,Tue Nov  5 14:21:51 2019
1.49751,Tue Nov  5 14:21:51 2019
2.07671,Tue Nov  5 14:21:51 2019
2.05595,Tue Nov  5 14:21:51 2019
1.7466,Tue Nov  5 14:21:51 2019
2.12654,Tue Nov  5 14:21:51 2019
2.47393,Tue Nov  5 14:21:51 2019
2.39453,Tue Nov  5 14:21:51 2019
2.94853,Tue Nov  5 14:21:51 2019
2.63074,Tue Nov  5 14:21:51 2019
3.02985,Tue Nov  5 14:21:51 2019
2.23373,Tue Nov  5 14:21:51 2019
2.21552,Tue Nov  5 14:21:51 2019
3.00291,Tue Nov  5 14:21:51 2019
3.11533,Tue Nov  5 14:21:51 2019
2.4168,Tue Nov  5 14:21:51 2019
2.75057,Tue Nov  5 14:21:51 2019
2.84879,Tue Nov  5 14:21:51 2019
2.79231,Tue Nov  5 14:21:51 2019
2.96472,Tue Nov  5 14:21:51 2019
2.92859,Tue Nov  5 14:21:51 2019
2.38444,Tue Nov  5 14:21:51 2019
2.93501,Tue Nov  5 14:21:51 2019
