42.5857,Tue Nov  5 14:18:20 2019
42.8427,Tue Nov  5 14:18:20 2019
43.435,Tue Nov  5 14:18:20 2019
42.5976,Tue Nov  5 14:18:20 2019
42.8096,Tue Nov  5 14:18:20 2019
43.2274,Tue Nov  5 14:18:20 2019
43.2555,Tue Nov  5 14:18:20 2019
42.3664,Tue Nov  5 14:18:20 2019
42.6166,Tue Nov  5 14:18:20 2019
42.9043,Tue Nov  5 14:18:20 2019
43.1058,Tue Nov  5 14:18:20 2019
42.6992,Tue Nov  5 14:18:20 2019
42.1173,Tue Nov  5 14:18:20 2019
42.7821,Tue Nov  5 14:18:20 2019
43.069,Tue Nov  5 14:18:20 2019
42.3489,Tue Nov  5 14:18:20 2019
42.6338,Tue Nov  5 14:18:20 2019
42.6509,Tue Nov  5 14:18:20 2019
42.2845,Tue Nov  5 14:18:20 2019
42.6792,Tue Nov  5 14:18:20 2019
42.3544,Tue Nov  5 14:18:20 2019
41.8404,Tue Nov  5 14:18:20 2019
42.4205,Tue Nov  5 14:18:20 2019
42.5253,Tue Nov  5 14:18:20 2019
42.0573,Tue Nov  5 14:18:20 2019
41.7996,Tue Nov  5 14:18:20 2019
42.2381,Tue Nov  5 14:18:20 2019
41.7008,Tue Nov  5 14:18:20 2019
41.0288,Tue Nov  5 14:18:20 2019
41.5534,Tue Nov  5 14:18:20 2019
40.8321,Tue Nov  5 14:18:20 2019
41.1291,Tue Nov  5 14:18:20 2019
40.5798,Tue Nov  5 14:18:20 2019
40.7896,Tue Nov  5 14:18:20 2019
40.7833,Tue Nov  5 14:18:20 2019
40.5046,Tue Nov  5 14:18:20 2019
40.2033,Tue Nov  5 14:18:20 2019
39.5143,Tue Nov  5 14:18:20 2019
39.7574,Tue Nov  5 14:18:20 2019
39.5812,Tue Nov  5 14:18:20 2019
39.8028,Tue Nov  5 14:18:20 2019
39.3673,Tue Nov  5 14:18:20 2019
39.5262,Tue Nov  5 14:18:20 2019
39.0141,Tue Nov  5 14:18:20 2019
39.3711,Tue Nov  5 14:18:20 2019
38.5672,Tue Nov  5 14:18:20 2019
38.7411,Tue Nov  5 14:18:20 2019
38.3916,Tue Nov  5 14:18:20 2019
38.8242,Tue Nov  5 14:18:20 2019
38.8963,Tue Nov  5 14:18:20 2019
38.2637,Tue Nov  5 14:18:20 2019
37.849,Tue Nov  5 14:18:20 2019
38.1261,Tue Nov  5 14:18:20 2019
37.9726,Tue Nov  5 14:18:20 2019
37.7556,Tue Nov  5 14:18:20 2019
37.855,Tue Nov  5 14:18:20 2019
37.7047,Tue Nov  5 14:18:20 2019
37.1101,Tue Nov  5 14:18:20 2019
37.2067,Tue Nov  5 14:18:20 2019
37.4165,Tue Nov  5 14:18:20 2019
37.281,Tue Nov  5 14:18:20 2019
36.9877,Tue Nov  5 14:18:20 2019
36.8191,Tue Nov  5 14:18:20 2019
37.4419,Tue Nov  5 14:18:20 2019
37.3753,Tue Nov  5 14:18:20 2019
37.341,Tue Nov  5 14:18:20 2019
37.2015,Tue Nov  5 14:18:20 2019
36.6749,Tue Nov  5 14:18:20 2019
36.9942,Tue Nov  5 14:18:20 2019
37.0014,Tue Nov  5 14:18:20 2019
36.8522,Tue Nov  5 14:18:20 2019
37.2428,Tue Nov  5 14:18:20 2019
37.5588,Tue Nov  5 14:18:20 2019
37.0239,Tue Nov  5 14:18:20 2019
36.746,Tue Nov  5 14:18:20 2019
36.8672,Tue Nov  5 14:18:20 2019
37.7314,Tue Nov  5 14:18:20 2019
37.4537,Tue Nov  5 14:18:20 2019
37.0481,Tue Nov  5 14:18:20 2019
37.3867,Tue Nov  5 14:18:20 2019
36.5847,Tue Nov  5 14:18:20 2019
37.3855,Tue Nov  5 14:18:20 2019
37.061,Tue Nov  5 14:18:20 2019
37.6207,Tue Nov  5 14:18:20 2019
36.9919,Tue Nov  5 14:18:20 2019
37.9514,Tue Nov  5 14:18:20 2019
37.7631,Tue Nov  5 14:18:20 2019
37.7819,Tue Nov  5 14:18:20 2019
37.8324,Tue Nov  5 14:18:20 2019
38.2111,Tue Nov  5 14:18:20 2019
37.8174,Tue Nov  5 14:18:20 2019
38.0894,Tue Nov  5 14:18:20 2019
38.6294,Tue Nov  5 14:18:20 2019
39.0866,Tue Nov  5 14:18:20 2019
38.5387,Tue Nov  5 14:18:20 2019
38.907,Tue Nov  5 14:18:20 2019
38.9805,Tue Nov  5 14:18:20 2019
39.3746,Tue Nov  5 14:18:20 2019
39.7523,Tue Nov  5 14:18:20 2019
39.9149,Tue Nov  5 14:18:20 2019
40.0254,Tue Nov  5 14:18:20 2019
40.1816,Tue Nov  5 14:18:20 2019
39.9492,Tue Nov  5 14:18:20 2019
40.011,Tue Nov  5 14:18:20 2019
40.6629,Tue Nov  5 14:18:20 2019
39.955,Tue Nov  5 14:18:20 2019
40.7644,Tue Nov  5 14:18:20 2019
40.8426,Tue Nov  5 14:18:20 2019
41.7568,Tue Nov  5 14:18:20 2019
41.157,Tue Nov  5 14:18:20 2019
40.7988,Tue Nov  5 14:18:20 2019
41.74,Tue Nov  5 14:18:20 2019
40.9378,Tue Nov  5 14:18:20 2019
41.5393,Tue Nov  5 14:18:20 2019
41.4285,Tue Nov  5 14:18:20 2019
41.516,Tue Nov  5 14:18:20 2019
42.1105,Tue Nov  5 14:18:20 2019
41.656,Tue Nov  5 14:18:20 2019
42.1297,Tue Nov  5 14:18:20 2019
42.2471,Tue Nov  5 14:18:20 2019
42.3111,Tue Nov  5 14:18:20 2019
42.6295,Tue Nov  5 14:18:20 2019
42.3603,Tue Nov  5 14:18:20 2019
42.6142,Tue Nov  5 14:18:20 2019
42.375,Tue Nov  5 14:18:20 2019
42.564,Tue Nov  5 14:18:20 2019
43.0359,Tue Nov  5 14:18:20 2019
43.3024,Tue Nov  5 14:18:20 2019
42.9323,Tue Nov  5 14:18:20 2019
42.9431,Tue Nov  5 14:18:20 2019
43.2126,Tue Nov  5 14:18:20 2019
42.5349,Tue Nov  5 14:18:20 2019
42.6914,Tue Nov  5 14:18:20 2019
42.6586,Tue Nov  5 14:18:20 2019
43.049,Tue Nov  5 14:18:20 2019
42.7489,Tue Nov  5 14:18:20 2019
42.9884,Tue Nov  5 14:18:20 2019
42.9593,Tue Nov  5 14:18:20 2019
42.9324,Tue Nov  5 14:18:20 2019
42.8596,Tue Nov  5 14:18:20 2019
42.9154,Tue Nov  5 14:18:20 2019
42.1012,Tue Nov  5 14:18:20 2019
43.0664,Tue Nov  5 14:18:20 2019
42.4126,Tue Nov  5 14:18:20 2019
42.9063,Tue Nov  5 14:18:20 2019
42.1926,Tue Nov  5 14:18:20 2019
42.4106,Tue Nov  5 14:18:20 2019
42.4913,Tue Nov  5 14:18:20 2019
42.054,Tue Nov  5 14:18:20 2019
41.3335,Tue Nov  5 14:18:20 2019
42.006,Tue Nov  5 14:18:20 2019
42.1386,Tue Nov  5 14:18:20 2019
41.6915,Tue Nov  5 14:18:20 2019
41.4592,Tue Nov  5 14:18:20 2019
41.4872,Tue Nov  5 14:18:20 2019
41.1677,Tue Nov  5 14:18:20 2019
40.9041,Tue Nov  5 14:18:20 2019
41.6097,Tue Nov  5 14:18:20 2019
41.5639,Tue Nov  5 14:18:20 2019
40.4704,Tue Nov  5 14:18:20 2019
40.4714,Tue Nov  5 14:18:20 2019
40.2652,Tue Nov  5 14:18:20 2019
39.8349,Tue Nov  5 14:18:20 2019
40.456,Tue Nov  5 14:18:20 2019
40.0674,Tue Nov  5 14:18:20 2019
39.7084,Tue Nov  5 14:18:20 2019
39.8909,Tue Nov  5 14:18:20 2019
39.6527,Tue Nov  5 14:18:20 2019
40.0949,Tue Nov  5 14:18:20 2019
39.3592,Tue Nov  5 14:18:20 2019
39.018,Tue Nov  5 14:18:20 2019
39.306,Tue Nov  5 14:18:20 2019
38.6904,Tue Nov  5 14:18:20 2019
38.8578,Tue Nov  5 14:18:20 2019
38.4618,Tue Nov  5 14:18:20 2019
38.6317,Tue Nov  5 14:18:20 2019
38.3981,Tue Nov  5 14:18:20 2019
38.3608,Tue Nov  5 14:18:20 2019
37.8476,Tue Nov  5 14:18:20 2019
37.435,Tue Nov  5 14:18:20 2019
37.2307,Tue Nov  5 14:18:20 2019
37.6312,Tue Nov  5 14:18:20 2019
37.4559,Tue Nov  5 14:18:20 2019
37.5994,Tue Nov  5 14:18:20 2019
38.0278,Tue Nov  5 14:18:20 2019
37.2798,Tue Nov  5 14:18:20 2019
37.1384,Tue Nov  5 14:18:20 2019
37.1604,Tue Nov  5 14:18:20 2019
37.4846,Tue Nov  5 14:18:20 2019
37.3937,Tue Nov  5 14:18:20 2019
36.5381,Tue Nov  5 14:18:20 2019
37.0606,Tue Nov  5 14:18:20 2019
37.0398,Tue Nov  5 14:18:20 2019
36.9158,Tue Nov  5 14:18:20 2019
37.1604,Tue Nov  5 14:18:20 2019
36.8305,Tue Nov  5 14:18:20 2019
36.8638,Tue Nov  5 14:18:20 2019
36.4465,Tue Nov  5 14:18:20 2019
36.6245,Tue Nov  5 14:18:20 2019
37.3199,Tue Nov  5 14:18:20 2019
37.1226,Tue Nov  5 14:18:20 2019
36.9526,Tue Nov  5 14:18:20 2019
37.3578,Tue Nov  5 14:18:20 2019
37.2512,Tue Nov  5 14:18:20 2019
36.8442,Tue Nov  5 14:18:20 2019
37.9887,Tue Nov  5 14:18:20 2019
37.7549,Tue Nov  5 14:18:20 2019
37.2267,Tue Nov  5 14:18:20 2019
37.5846,Tue Nov  5 14:18:20 2019
37.4519,Tue Nov  5 14:18:20 2019
37.8848,Tue Nov  5 14:18:20 2019
37.8813,Tue Nov  5 14:18:20 2019
38.1295,Tue Nov  5 14:18:20 2019
38.0355,Tue Nov  5 14:18:20 2019
37.9198,Tue Nov  5 14:18:20 2019
37.9303,Tue Nov  5 14:18:20 2019
37.8721,Tue Nov  5 14:18:20 2019
38.3291,Tue Nov  5 14:18:20 2019
38.5339,Tue Nov  5 14:18:20 2019
38.7842,Tue Nov  5 14:18:20 2019
38.7017,Tue Nov  5 14:18:20 2019
39.1059,Tue Nov  5 14:18:20 2019
39.1936,Tue Nov  5 14:18:20 2019
39.25,Tue Nov  5 14:18:20 2019
39.7246,Tue Nov  5 14:18:20 2019
39.4124,Tue Nov  5 14:18:20 2019
40.2376,Tue Nov  5 14:18:20 2019
39.4593,Tue Nov  5 14:18:20 2019
40.2635,Tue Nov  5 14:18:20 2019
40.2553,Tue Nov  5 14:18:20 2019
40.1557,Tue Nov  5 14:18:20 2019
40.5214,Tue Nov  5 14:18:20 2019
41.3965,Tue Nov  5 14:18:20 2019
41.0758,Tue Nov  5 14:18:20 2019
41.1763,Tue Nov  5 14:18:20 2019
40.6139,Tue Nov  5 14:18:20 2019
41.0736,Tue Nov  5 14:18:20 2019
40.92,Tue Nov  5 14:18:20 2019
42.2825,Tue Nov  5 14:18:20 2019
41.7553,Tue Nov  5 14:18:20 2019
41.3617,Tue Nov  5 14:18:20 2019
42.387,Tue Nov  5 14:18:20 2019
42.0106,Tue Nov  5 14:18:20 2019
42.1846,Tue Nov  5 14:18:20 2019
42.0523,Tue Nov  5 14:18:20 2019
42.3727,Tue Nov  5 14:18:20 2019
41.8846,Tue Nov  5 14:18:20 2019
43.0018,Tue Nov  5 14:18:20 2019
42.3569,Tue Nov  5 14:18:20 2019
42.5549,Tue Nov  5 14:18:20 2019
42.7611,Tue Nov  5 14:18:20 2019
42.5477,Tue Nov  5 14:18:20 2019
42.8488,Tue Nov  5 14:18:20 2019
42.8,Tue Nov  5 14:18:20 2019
42.4772,Tue Nov  5 14:18:20 2019
42.8835,Tue Nov  5 14:18:20 2019
42.9773,Tue Nov  5 14:18:20 2019
42.8528,Tue Nov  5 14:18:20 2019
43.356,Tue Nov  5 14:18:20 2019
42.4143,Tue Nov  5 14:18:20 2019
43.1502,Tue Nov  5 14:18:20 2019
42.66,Tue Nov  5 14:18:20 2019
43.1269,Tue Nov  5 14:18:20 2019
43.3272,Tue Nov  5 14:18:20 2019
42.8176,Tue Nov  5 14:18:20 2019
42.97,Tue Nov  5 14:18:20 2019
43.1467,Tue Nov  5 14:18:20 2019
42.3325,Tue Nov  5 14:18:20 2019
42.4589,Tue Nov  5 14:18:20 2019
42.5882,Tue Nov  5 14:18:20 2019
42.4146,Tue Nov  5 14:18:20 2019
41.9894,Tue Nov  5 14:18:20 2019
42.4198,Tue Nov  5 14:18:20 2019
42.022,Tue Nov  5 14:18:20 2019
42.5061,Tue Nov  5 14:18:20 2019
41.2734,Tue Nov  5 14:18:20 2019
41.6805,Tue Nov  5 14:18:20 2019
41.7084,Tue Nov  5 14:18:20 2019
41.4845,Tue Nov  5 14:18:20 2019
41.1499,Tue Nov  5 14:18:20 2019
41.2205,Tue Nov  5 14:18:20 2019
41.3373,Tue Nov  5 14:18:20 2019
40.9206,Tue Nov  5 14:18:20 2019
41.016,Tue Nov  5 14:18:20 2019
40.6578,Tue Nov  5 14:18:20 2019
40.6749,Tue Nov  5 14:18:20 2019
40.9961,Tue Nov  5 14:18:20 2019
40.5532,Tue Nov  5 14:18:20 2019
40.2563,Tue Nov  5 14:18:20 2019
40.0527,Tue Nov  5 14:18:20 2019
40.3818,Tue Nov  5 14:18:20 2019
39.8434,Tue Nov  5 14:18:20 2019
39.6334,Tue Nov  5 14:18:20 2019
39.4344,Tue Nov  5 14:18:20 2019
39.0944,Tue Nov  5 14:18:20 2019
39.0796,Tue Nov  5 14:18:20 2019
38.9162,Tue Nov  5 14:18:20 2019
38.6522,Tue Nov  5 14:18:20 2019
38.868,Tue Nov  5 14:18:20 2019
38.3623,Tue Nov  5 14:18:20 2019
38.133,Tue Nov  5 14:18:20 2019
38.0247,Tue Nov  5 14:18:20 2019
37.8177,Tue Nov  5 14:18:20 2019
38.4114,Tue Nov  5 14:18:20 2019
37.7964,Tue Nov  5 14:18:20 2019
37.8776,Tue Nov  5 14:18:20 2019
37.2878,Tue Nov  5 14:18:20 2019
37.4573,Tue Nov  5 14:18:20 2019
37.6437,Tue Nov  5 14:18:20 2019
37.384,Tue Nov  5 14:18:20 2019
37.3958,Tue Nov  5 14:18:20 2019
37.4586,Tue Nov  5 14:18:20 2019
37.285,Tue Nov  5 14:18:20 2019
37.1733,Tue Nov  5 14:18:20 2019
37.0067,Tue Nov  5 14:18:20 2019
36.8296,Tue Nov  5 14:18:20 2019
37.5075,Tue Nov  5 14:18:20 2019
36.9474,Tue Nov  5 14:18:20 2019
37.3723,Tue Nov  5 14:18:20 2019
37.2496,Tue Nov  5 14:18:20 2019
37.1834,Tue Nov  5 14:18:20 2019
37.3277,Tue Nov  5 14:18:20 2019
36.2272,Tue Nov  5 14:18:20 2019
37.2005,Tue Nov  5 14:18:20 2019
37.1291,Tue Nov  5 14:18:20 2019
36.5619,Tue Nov  5 14:18:20 2019
37.4174,Tue Nov  5 14:18:20 2019
36.5939,Tue Nov  5 14:18:20 2019
37.2283,Tue Nov  5 14:18:20 2019
37.2417,Tue Nov  5 14:18:20 2019
37.1457,Tue Nov  5 14:18:20 2019
37.1238,Tue Nov  5 14:18:20 2019
36.9608,Tue Nov  5 14:18:20 2019
37.2035,Tue Nov  5 14:18:20 2019
37.4445,Tue Nov  5 14:18:20 2019
37.3092,Tue Nov  5 14:18:20 2019
37.7726,Tue Nov  5 14:18:20 2019
37.9875,Tue Nov  5 14:18:20 2019
38.1161,Tue Nov  5 14:18:20 2019
38.1507,Tue Nov  5 14:18:20 2019
39.0624,Tue Nov  5 14:18:20 2019
38.3242,Tue Nov  5 14:18:20 2019
38.2924,Tue Nov  5 14:18:20 2019
38.6522,Tue Nov  5 14:18:20 2019
38.5064,Tue Nov  5 14:18:20 2019
38.6567,Tue Nov  5 14:18:20 2019
39.7443,Tue Nov  5 14:18:20 2019
39.5454,Tue Nov  5 14:18:20 2019
39.6141,Tue Nov  5 14:18:20 2019
39.3245,Tue Nov  5 14:18:20 2019
39.6433,Tue Nov  5 14:18:20 2019
39.2629,Tue Nov  5 14:18:20 2019
39.8298,Tue Nov  5 14:18:20 2019
39.9907,Tue Nov  5 14:18:20 2019
40.5474,Tue Nov  5 14:18:20 2019
40.1857,Tue Nov  5 14:18:20 2019
40.5204,Tue Nov  5 14:18:20 2019
40.9543,Tue Nov  5 14:18:20 2019
40.7258,Tue Nov  5 14:18:20 2019
40.7829,Tue Nov  5 14:18:20 2019
40.8602,Tue Nov  5 14:18:20 2019
40.8761,Tue Nov  5 14:18:20 2019
41.7282,Tue Nov  5 14:18:20 2019
41.6516,Tue Nov  5 14:18:20 2019
41.8804,Tue Nov  5 14:18:20 2019
41.7231,Tue Nov  5 14:18:20 2019
41.803,Tue Nov  5 14:18:20 2019
42.2778,Tue Nov  5 14:18:20 2019
41.8125,Tue Nov  5 14:18:20 2019
42.3331,Tue Nov  5 14:18:20 2019
42.2455,Tue Nov  5 14:18:20 2019
42.619,Tue Nov  5 14:18:20 2019
42.314,Tue Nov  5 14:18:20 2019
42.3126,Tue Nov  5 14:18:20 2019
43.0982,Tue Nov  5 14:18:20 2019
42.7634,Tue Nov  5 14:18:20 2019
42.819,Tue Nov  5 14:18:20 2019
42.5442,Tue Nov  5 14:18:20 2019
42.6061,Tue Nov  5 14:18:20 2019
43.1348,Tue Nov  5 14:18:20 2019
43.171,Tue Nov  5 14:18:20 2019
42.8925,Tue Nov  5 14:18:20 2019
43.3516,Tue Nov  5 14:18:20 2019
43.5123,Tue Nov  5 14:18:20 2019
43.7591,Tue Nov  5 14:18:20 2019
43.1743,Tue Nov  5 14:18:20 2019
42.7802,Tue Nov  5 14:18:20 2019
43.2417,Tue Nov  5 14:18:20 2019
43.3232,Tue Nov  5 14:18:20 2019
42.8123,Tue Nov  5 14:18:20 2019
43.1107,Tue Nov  5 14:18:20 2019
43.1267,Tue Nov  5 14:18:20 2019
42.5236,Tue Nov  5 14:18:20 2019
42.8519,Tue Nov  5 14:18:20 2019
42.8327,Tue Nov  5 14:18:20 2019
42.8656,Tue Nov  5 14:18:20 2019
42.1703,Tue Nov  5 14:18:20 2019
42.9553,Tue Nov  5 14:18:20 2019
42.4171,Tue Nov  5 14:18:20 2019
42.4411,Tue Nov  5 14:18:20 2019
42.2313,Tue Nov  5 14:18:20 2019
41.8974,Tue Nov  5 14:18:20 2019
41.7845,Tue Nov  5 14:18:20 2019
41.5466,Tue Nov  5 14:18:20 2019
41.4952,Tue Nov  5 14:18:20 2019
41.5569,Tue Nov  5 14:18:20 2019
41.3784,Tue Nov  5 14:18:20 2019
40.9567,Tue Nov  5 14:18:20 2019
41.2888,Tue Nov  5 14:18:20 2019
40.6165,Tue Nov  5 14:18:20 2019
40.5853,Tue Nov  5 14:18:20 2019
40.4237,Tue Nov  5 14:18:20 2019
39.8687,Tue Nov  5 14:18:20 2019
40.7783,Tue Nov  5 14:18:20 2019
39.9224,Tue Nov  5 14:18:20 2019
40.086,Tue Nov  5 14:18:20 2019
39.8325,Tue Nov  5 14:18:20 2019
39.8336,Tue Nov  5 14:18:20 2019
39.509,Tue Nov  5 14:18:20 2019
39.7918,Tue Nov  5 14:18:20 2019
38.9745,Tue Nov  5 14:18:20 2019
38.9266,Tue Nov  5 14:18:20 2019
38.5279,Tue Nov  5 14:18:20 2019
39.1138,Tue Nov  5 14:18:20 2019
39.1301,Tue Nov  5 14:18:20 2019
38.8143,Tue Nov  5 14:18:20 2019
38.5184,Tue Nov  5 14:18:20 2019
38.2174,Tue Nov  5 14:18:20 2019
37.7884,Tue Nov  5 14:18:20 2019
37.4853,Tue Nov  5 14:18:20 2019
37.7823,Tue Nov  5 14:18:20 2019
37.7547,Tue Nov  5 14:18:20 2019
37.2773,Tue Nov  5 14:18:20 2019
37.6752,Tue Nov  5 14:18:20 2019
38.0215,Tue Nov  5 14:18:20 2019
37.4482,Tue Nov  5 14:18:20 2019
37.0202,Tue Nov  5 14:18:20 2019
37.3861,Tue Nov  5 14:18:20 2019
37.1708,Tue Nov  5 14:18:20 2019
37.479,Tue Nov  5 14:18:20 2019
37.6796,Tue Nov  5 14:18:20 2019
37.059,Tue Nov  5 14:18:20 2019
37.2607,Tue Nov  5 14:18:20 2019
36.9987,Tue Nov  5 14:18:20 2019
37.0481,Tue Nov  5 14:18:20 2019
36.833,Tue Nov  5 14:18:20 2019
36.9836,Tue Nov  5 14:18:20 2019
36.8799,Tue Nov  5 14:18:20 2019
37.0947,Tue Nov  5 14:18:20 2019
36.6066,Tue Nov  5 14:18:20 2019
37.4783,Tue Nov  5 14:18:20 2019
36.7296,Tue Nov  5 14:18:20 2019
36.5732,Tue Nov  5 14:18:20 2019
37.6845,Tue Nov  5 14:18:20 2019
37.5807,Tue Nov  5 14:18:20 2019
37.4007,Tue Nov  5 14:18:20 2019
37.4484,Tue Nov  5 14:18:20 2019
37.1019,Tue Nov  5 14:18:20 2019
37.489,Tue Nov  5 14:18:20 2019
37.6449,Tue Nov  5 14:18:20 2019
37.4845,Tue Nov  5 14:18:20 2019
38.0417,Tue Nov  5 14:18:20 2019
37.3604,Tue Nov  5 14:18:20 2019
37.5411,Tue Nov  5 14:18:20 2019
37.7089,Tue Nov  5 14:18:20 2019
38.0402,Tue Nov  5 14:18:20 2019
38.083,Tue Nov  5 14:18:20 2019
38.7066,Tue Nov  5 14:18:20 2019
38.3883,Tue Nov  5 14:18:20 2019
38.8406,Tue Nov  5 14:18:20 2019
38.6518,Tue Nov  5 14:18:20 2019
38.8141,Tue Nov  5 14:18:20 2019
39.0371,Tue Nov  5 14:18:20 2019
38.9501,Tue Nov  5 14:18:20 2019
39.7828,Tue Nov  5 14:18:20 2019
39.5994,Tue Nov  5 14:18:20 2019
39.7958,Tue Nov  5 14:18:20 2019
39.5202,Tue Nov  5 14:18:20 2019
39.8598,Tue Nov  5 14:18:20 2019
39.6316,Tue Nov  5 14:18:20 2019
40.4384,Tue Nov  5 14:18:20 2019
40.489,Tue Nov  5 14:18:20 2019
40.5566,Tue Nov  5 14:18:20 2019
40.6551,Tue Nov  5 14:18:20 2019
40.835,Tue Nov  5 14:18:20 2019
40.5874,Tue Nov  5 14:18:20 2019
41.2007,Tue Nov  5 14:18:20 2019
41.1838,Tue Nov  5 14:18:20 2019
40.9821,Tue Nov  5 14:18:20 2019
41.052,Tue Nov  5 14:18:20 2019
41.4475,Tue Nov  5 14:18:20 2019
42.0267,Tue Nov  5 14:18:20 2019
42.006,Tue Nov  5 14:18:20 2019
41.6966,Tue Nov  5 14:18:20 2019
42.0766,Tue Nov  5 14:18:20 2019
42.4239,Tue Nov  5 14:18:20 2019
42.3445,Tue Nov  5 14:18:20 2019
42.8985,Tue Nov  5 14:18:20 2019
42.5808,Tue Nov  5 14:18:20 2019
42.9799,Tue Nov  5 14:18:20 2019
42.1837,Tue Nov  5 14:18:20 2019
42.1655,Tue Nov  5 14:18:20 2019
42.9529,Tue Nov  5 14:18:20 2019
43.0653,Tue Nov  5 14:18:20 2019
42.3668,Tue Nov  5 14:18:20 2019
42.7006,Tue Nov  5 14:18:20 2019
42.7988,Tue Nov  5 14:18:20 2019
42.7423,Tue Nov  5 14:18:20 2019
42.9147,Tue Nov  5 14:18:20 2019
42.8786,Tue Nov  5 14:18:20 2019
42.3344,Tue Nov  5 14:18:20 2019
42.885,Tue Nov  5 14:18:20 2019
