28.3061,Tue Nov  5 14:30:12 2019
28.5631,Tue Nov  5 14:30:12 2019
29.1554,Tue Nov  5 14:30:12 2019
28.3181,Tue Nov  5 14:30:12 2019
28.53,Tue Nov  5 14:30:12 2019
28.9478,Tue Nov  5 14:30:12 2019
28.9759,Tue Nov  5 14:30:12 2019
28.0869,Tue Nov  5 14:30:12 2019
28.337,Tue Nov  5 14:30:12 2019
28.6248,Tue Nov  5 14:30:12 2019
28.8262,Tue Nov  5 14:30:12 2019
28.4197,Tue Nov  5 14:30:12 2019
27.8377,Tue Nov  5 14:30:12 2019
28.5025,Tue Nov  5 14:30:12 2019
28.7895,Tue Nov  5 14:30:12 2019
28.0694,Tue Nov  5 14:30:12 2019
28.3543,Tue Nov  5 14:30:12 2019
28.3714,Tue Nov  5 14:30:12 2019
28.005,Tue Nov  5 14:30:12 2019
28.3997,Tue Nov  5 14:30:12 2019
28.0748,Tue Nov  5 14:30:12 2019
27.5609,Tue Nov  5 14:30:12 2019
28.1409,Tue Nov  5 14:30:12 2019
28.2457,Tue Nov  5 14:30:12 2019
27.7778,Tue Nov  5 14:30:12 2019
27.5201,Tue Nov  5 14:30:12 2019
27.9586,Tue Nov  5 14:30:12 2019
27.4213,Tue Nov  5 14:30:12 2019
26.7493,Tue Nov  5 14:30:12 2019
27.2739,Tue Nov  5 14:30:12 2019
26.5526,Tue Nov  5 14:30:12 2019
26.8496,Tue Nov  5 14:30:12 2019
26.3002,Tue Nov  5 14:30:12 2019
26.51,Tue Nov  5 14:30:12 2019
26.5038,Tue Nov  5 14:30:12 2019
26.225,Tue Nov  5 14:30:12 2019
25.9238,Tue Nov  5 14:30:12 2019
25.2347,Tue Nov  5 14:30:12 2019
25.4779,Tue Nov  5 14:30:12 2019
25.3016,Tue Nov  5 14:30:12 2019
25.5233,Tue Nov  5 14:30:12 2019
25.0878,Tue Nov  5 14:30:12 2019
25.2467,Tue Nov  5 14:30:12 2019
24.7346,Tue Nov  5 14:30:12 2019
25.0915,Tue Nov  5 14:30:12 2019
24.2877,Tue Nov  5 14:30:12 2019
24.4615,Tue Nov  5 14:30:12 2019
24.112,Tue Nov  5 14:30:12 2019
24.5447,Tue Nov  5 14:30:12 2019
24.6167,Tue Nov  5 14:30:12 2019
23.9841,Tue Nov  5 14:30:12 2019
23.5695,Tue Nov  5 14:30:12 2019
23.8466,Tue Nov  5 14:30:12 2019
23.6931,Tue Nov  5 14:30:12 2019
23.4761,Tue Nov  5 14:30:12 2019
23.5754,Tue Nov  5 14:30:12 2019
23.4252,Tue Nov  5 14:30:12 2019
22.8305,Tue Nov  5 14:30:12 2019
22.9272,Tue Nov  5 14:30:12 2019
23.1369,Tue Nov  5 14:30:12 2019
23.0015,Tue Nov  5 14:30:12 2019
22.7082,Tue Nov  5 14:30:12 2019
22.5396,Tue Nov  5 14:30:12 2019
23.1624,Tue Nov  5 14:30:12 2019
23.0957,Tue Nov  5 14:30:12 2019
23.0615,Tue Nov  5 14:30:12 2019
22.922,Tue Nov  5 14:30:12 2019
22.3953,Tue Nov  5 14:30:12 2019
22.7147,Tue Nov  5 14:30:12 2019
22.7218,Tue Nov  5 14:30:12 2019
22.5727,Tue Nov  5 14:30:12 2019
22.9632,Tue Nov  5 14:30:12 2019
23.2793,Tue Nov  5 14:30:12 2019
22.7444,Tue Nov  5 14:30:12 2019
22.4664,Tue Nov  5 14:30:12 2019
22.5876,Tue Nov  5 14:30:12 2019
23.4518,Tue Nov  5 14:30:12 2019
23.1741,Tue Nov  5 14:30:12 2019
22.7686,Tue Nov  5 14:30:12 2019
23.1072,Tue Nov  5 14:30:12 2019
22.3052,Tue Nov  5 14:30:12 2019
23.106,Tue Nov  5 14:30:12 2019
22.7814,Tue Nov  5 14:30:12 2019
23.3412,Tue Nov  5 14:30:12 2019
22.7123,Tue Nov  5 14:30:12 2019
23.6718,Tue Nov  5 14:30:12 2019
23.4835,Tue Nov  5 14:30:12 2019
23.5023,Tue Nov  5 14:30:12 2019
23.5528,Tue Nov  5 14:30:12 2019
23.9315,Tue Nov  5 14:30:12 2019
23.5379,Tue Nov  5 14:30:12 2019
23.8099,Tue Nov  5 14:30:12 2019
24.3498,Tue Nov  5 14:30:12 2019
24.8071,Tue Nov  5 14:30:12 2019
24.2592,Tue Nov  5 14:30:12 2019
24.6274,Tue Nov  5 14:30:12 2019
24.7009,Tue Nov  5 14:30:12 2019
25.0951,Tue Nov  5 14:30:12 2019
25.4728,Tue Nov  5 14:30:12 2019
25.6354,Tue Nov  5 14:30:12 2019
25.7458,Tue Nov  5 14:30:12 2019
25.902,Tue Nov  5 14:30:12 2019
25.6697,Tue Nov  5 14:30:12 2019
25.7315,Tue Nov  5 14:30:12 2019
26.3834,Tue Nov  5 14:30:12 2019
25.6755,Tue Nov  5 14:30:12 2019
26.4849,Tue Nov  5 14:30:12 2019
26.563,Tue Nov  5 14:30:12 2019
27.4772,Tue Nov  5 14:30:12 2019
26.8775,Tue Nov  5 14:30:12 2019
26.5193,Tue Nov  5 14:30:12 2019
27.4605,Tue Nov  5 14:30:12 2019
26.6582,Tue Nov  5 14:30:12 2019
27.2597,Tue Nov  5 14:30:12 2019
27.149,Tue Nov  5 14:30:12 2019
27.2365,Tue Nov  5 14:30:12 2019
27.831,Tue Nov  5 14:30:12 2019
27.3764,Tue Nov  5 14:30:12 2019
27.8502,Tue Nov  5 14:30:12 2019
27.9676,Tue Nov  5 14:30:12 2019
28.0316,Tue Nov  5 14:30:12 2019
28.3499,Tue Nov  5 14:30:12 2019
28.0808,Tue Nov  5 14:30:12 2019
28.3346,Tue Nov  5 14:30:12 2019
28.0954,Tue Nov  5 14:30:12 2019
28.2845,Tue Nov  5 14:30:12 2019
28.7564,Tue Nov  5 14:30:12 2019
29.0229,Tue Nov  5 14:30:12 2019
28.6527,Tue Nov  5 14:30:12 2019
28.6635,Tue Nov  5 14:30:12 2019
28.9331,Tue Nov  5 14:30:12 2019
28.2553,Tue Nov  5 14:30:12 2019
28.4118,Tue Nov  5 14:30:12 2019
28.3791,Tue Nov  5 14:30:12 2019
28.7695,Tue Nov  5 14:30:12 2019
28.4693,Tue Nov  5 14:30:12 2019
28.7089,Tue Nov  5 14:30:12 2019
28.6798,Tue Nov  5 14:30:12 2019
28.6529,Tue Nov  5 14:30:12 2019
28.5801,Tue Nov  5 14:30:12 2019
28.6359,Tue Nov  5 14:30:12 2019
27.8217,Tue Nov  5 14:30:12 2019
28.7869,Tue Nov  5 14:30:12 2019
28.133,Tue Nov  5 14:30:12 2019
28.6268,Tue Nov  5 14:30:12 2019
27.9131,Tue Nov  5 14:30:12 2019
28.131,Tue Nov  5 14:30:12 2019
28.2118,Tue Nov  5 14:30:12 2019
27.7745,Tue Nov  5 14:30:12 2019
27.054,Tue Nov  5 14:30:12 2019
27.7265,Tue Nov  5 14:30:12 2019
27.8591,Tue Nov  5 14:30:12 2019
27.412,Tue Nov  5 14:30:12 2019
27.1796,Tue Nov  5 14:30:12 2019
27.2077,Tue Nov  5 14:30:12 2019
26.8882,Tue Nov  5 14:30:12 2019
26.6246,Tue Nov  5 14:30:12 2019
27.3302,Tue Nov  5 14:30:12 2019
27.2844,Tue Nov  5 14:30:12 2019
26.1909,Tue Nov  5 14:30:12 2019
26.1919,Tue Nov  5 14:30:12 2019
25.9857,Tue Nov  5 14:30:12 2019
25.5553,Tue Nov  5 14:30:12 2019
26.1764,Tue Nov  5 14:30:12 2019
25.7878,Tue Nov  5 14:30:12 2019
25.4289,Tue Nov  5 14:30:12 2019
25.6113,Tue Nov  5 14:30:12 2019
25.3732,Tue Nov  5 14:30:12 2019
25.8153,Tue Nov  5 14:30:12 2019
25.0796,Tue Nov  5 14:30:12 2019
24.7385,Tue Nov  5 14:30:12 2019
25.0264,Tue Nov  5 14:30:12 2019
24.4108,Tue Nov  5 14:30:12 2019
24.5782,Tue Nov  5 14:30:12 2019
24.1822,Tue Nov  5 14:30:12 2019
24.3521,Tue Nov  5 14:30:12 2019
24.1186,Tue Nov  5 14:30:12 2019
24.0812,Tue Nov  5 14:30:12 2019
23.5681,Tue Nov  5 14:30:12 2019
23.1555,Tue Nov  5 14:30:12 2019
22.9512,Tue Nov  5 14:30:12 2019
23.3517,Tue Nov  5 14:30:12 2019
23.1763,Tue Nov  5 14:30:12 2019
23.3199,Tue Nov  5 14:30:12 2019
23.7482,Tue Nov  5 14:30:12 2019
23.0003,Tue Nov  5 14:30:12 2019
22.8588,Tue Nov  5 14:30:12 2019
22.8808,Tue Nov  5 14:30:12 2019
23.2051,Tue Nov  5 14:30:12 2019
23.1142,Tue Nov  5 14:30:12 2019
22.2585,Tue Nov  5 14:30:12 2019
22.781,Tue Nov  5 14:30:12 2019
22.7602,Tue Nov  5 14:30:12 2019
22.6363,Tue Nov  5 14:30:12 2019
22.8809,Tue Nov  5 14:30:12 2019
22.551,Tue Nov  5 14:30:12 2019
22.5842,Tue Nov  5 14:30:12 2019
22.1669,Tue Nov  5 14:30:12 2019
22.345,Tue Nov  5 14:30:12 2019
23.0403,Tue Nov  5 14:30:12 2019
22.843,Tue Nov  5 14:30:12 2019
22.6731,Tue Nov  5 14:30:12 2019
23.0782,Tue Nov  5 14:30:12 2019
22.9716,Tue Nov  5 14:30:12 2019
22.5646,Tue Nov  5 14:30:12 2019
23.7092,Tue Nov  5 14:30:12 2019
23.4754,Tue Nov  5 14:30:12 2019
22.9471,Tue Nov  5 14:30:12 2019
23.305,Tue Nov  5 14:30:12 2019
23.1724,Tue Nov  5 14:30:12 2019
23.6052,Tue Nov  5 14:30:12 2019
23.6018,Tue Nov  5 14:30:12 2019
23.85,Tue Nov  5 14:30:12 2019
23.756,Tue Nov  5 14:30:12 2019
23.6403,Tue Nov  5 14:30:12 2019
23.6508,Tue Nov  5 14:30:12 2019
23.5926,Tue Nov  5 14:30:12 2019
24.0495,Tue Nov  5 14:30:12 2019
24.2544,Tue Nov  5 14:30:12 2019
24.5046,Tue Nov  5 14:30:12 2019
24.4222,Tue Nov  5 14:30:12 2019
24.8264,Tue Nov  5 14:30:12 2019
24.9141,Tue Nov  5 14:30:12 2019
24.9705,Tue Nov  5 14:30:12 2019
25.4451,Tue Nov  5 14:30:12 2019
25.1328,Tue Nov  5 14:30:12 2019
25.958,Tue Nov  5 14:30:12 2019
25.1797,Tue Nov  5 14:30:12 2019
25.9839,Tue Nov  5 14:30:12 2019
25.9757,Tue Nov  5 14:30:12 2019
25.8761,Tue Nov  5 14:30:12 2019
26.2419,Tue Nov  5 14:30:12 2019
27.1169,Tue Nov  5 14:30:12 2019
26.7962,Tue Nov  5 14:30:12 2019
26.8967,Tue Nov  5 14:30:12 2019
26.3343,Tue Nov  5 14:30:12 2019
26.794,Tue Nov  5 14:30:12 2019
26.6404,Tue Nov  5 14:30:12 2019
28.003,Tue Nov  5 14:30:12 2019
27.4758,Tue Nov  5 14:30:12 2019
27.0822,Tue Nov  5 14:30:12 2019
28.1074,Tue Nov  5 14:30:12 2019
27.7311,Tue Nov  5 14:30:12 2019
27.905,Tue Nov  5 14:30:12 2019
27.7727,Tue Nov  5 14:30:12 2019
28.0931,Tue Nov  5 14:30:12 2019
27.6051,Tue Nov  5 14:30:12 2019
28.7223,Tue Nov  5 14:30:12 2019
28.0774,Tue Nov  5 14:30:12 2019
28.2753,Tue Nov  5 14:30:12 2019
28.4816,Tue Nov  5 14:30:12 2019
28.2682,Tue Nov  5 14:30:12 2019
28.5692,Tue Nov  5 14:30:12 2019
28.5204,Tue Nov  5 14:30:12 2019
28.1977,Tue Nov  5 14:30:12 2019
28.604,Tue Nov  5 14:30:12 2019
28.6978,Tue Nov  5 14:30:12 2019
28.5733,Tue Nov  5 14:30:12 2019
29.0765,Tue Nov  5 14:30:12 2019
28.1348,Tue Nov  5 14:30:12 2019
28.8707,Tue Nov  5 14:30:12 2019
28.3805,Tue Nov  5 14:30:12 2019
28.8474,Tue Nov  5 14:30:12 2019
29.0476,Tue Nov  5 14:30:12 2019
28.5381,Tue Nov  5 14:30:12 2019
28.6904,Tue Nov  5 14:30:12 2019
28.8672,Tue Nov  5 14:30:12 2019
28.053,Tue Nov  5 14:30:12 2019
28.1794,Tue Nov  5 14:30:12 2019
28.3086,Tue Nov  5 14:30:12 2019
28.1351,Tue Nov  5 14:30:12 2019
27.7099,Tue Nov  5 14:30:12 2019
28.1403,Tue Nov  5 14:30:12 2019
27.7424,Tue Nov  5 14:30:12 2019
28.2266,Tue Nov  5 14:30:12 2019
26.9938,Tue Nov  5 14:30:12 2019
27.401,Tue Nov  5 14:30:12 2019
27.4288,Tue Nov  5 14:30:12 2019
27.2049,Tue Nov  5 14:30:12 2019
26.8703,Tue Nov  5 14:30:12 2019
26.9409,Tue Nov  5 14:30:12 2019
27.0577,Tue Nov  5 14:30:12 2019
26.6411,Tue Nov  5 14:30:12 2019
26.7365,Tue Nov  5 14:30:12 2019
26.3782,Tue Nov  5 14:30:12 2019
26.3953,Tue Nov  5 14:30:12 2019
26.7166,Tue Nov  5 14:30:12 2019
26.2737,Tue Nov  5 14:30:12 2019
25.9768,Tue Nov  5 14:30:12 2019
25.7732,Tue Nov  5 14:30:12 2019
26.1023,Tue Nov  5 14:30:12 2019
25.5638,Tue Nov  5 14:30:12 2019
25.3538,Tue Nov  5 14:30:12 2019
25.1548,Tue Nov  5 14:30:12 2019
24.8149,Tue Nov  5 14:30:12 2019
24.8001,Tue Nov  5 14:30:12 2019
24.6367,Tue Nov  5 14:30:12 2019
24.3726,Tue Nov  5 14:30:12 2019
24.5885,Tue Nov  5 14:30:12 2019
24.0828,Tue Nov  5 14:30:12 2019
23.8534,Tue Nov  5 14:30:12 2019
23.7451,Tue Nov  5 14:30:12 2019
23.5382,Tue Nov  5 14:30:12 2019
24.1319,Tue Nov  5 14:30:12 2019
23.5168,Tue Nov  5 14:30:12 2019
23.598,Tue Nov  5 14:30:12 2019
23.0083,Tue Nov  5 14:30:12 2019
23.1778,Tue Nov  5 14:30:12 2019
23.3642,Tue Nov  5 14:30:12 2019
23.1044,Tue Nov  5 14:30:12 2019
23.1162,Tue Nov  5 14:30:12 2019
23.179,Tue Nov  5 14:30:12 2019
23.0055,Tue Nov  5 14:30:12 2019
22.8937,Tue Nov  5 14:30:12 2019
22.7271,Tue Nov  5 14:30:12 2019
22.55,Tue Nov  5 14:30:12 2019
23.228,Tue Nov  5 14:30:12 2019
22.6678,Tue Nov  5 14:30:12 2019
23.0927,Tue Nov  5 14:30:12 2019
22.9701,Tue Nov  5 14:30:12 2019
22.9039,Tue Nov  5 14:30:12 2019
23.0482,Tue Nov  5 14:30:12 2019
21.9477,Tue Nov  5 14:30:12 2019
22.9209,Tue Nov  5 14:30:12 2019
22.8496,Tue Nov  5 14:30:12 2019
22.2823,Tue Nov  5 14:30:12 2019
23.1379,Tue Nov  5 14:30:12 2019
22.3144,Tue Nov  5 14:30:12 2019
22.9488,Tue Nov  5 14:30:12 2019
22.9621,Tue Nov  5 14:30:12 2019
22.8661,Tue Nov  5 14:30:12 2019
22.8442,Tue Nov  5 14:30:12 2019
22.6813,Tue Nov  5 14:30:12 2019
22.9239,Tue Nov  5 14:30:12 2019
23.165,Tue Nov  5 14:30:12 2019
23.0297,Tue Nov  5 14:30:12 2019
23.4931,Tue Nov  5 14:30:12 2019
23.708,Tue Nov  5 14:30:12 2019
23.8366,Tue Nov  5 14:30:12 2019
23.8711,Tue Nov  5 14:30:12 2019
24.7828,Tue Nov  5 14:30:12 2019
24.0447,Tue Nov  5 14:30:12 2019
24.0129,Tue Nov  5 14:30:12 2019
24.3726,Tue Nov  5 14:30:12 2019
24.2269,Tue Nov  5 14:30:12 2019
24.3772,Tue Nov  5 14:30:12 2019
25.4648,Tue Nov  5 14:30:12 2019
25.2659,Tue Nov  5 14:30:12 2019
25.3345,Tue Nov  5 14:30:12 2019
25.0449,Tue Nov  5 14:30:12 2019
25.3638,Tue Nov  5 14:30:12 2019
24.9833,Tue Nov  5 14:30:12 2019
25.5502,Tue Nov  5 14:30:12 2019
25.7111,Tue Nov  5 14:30:12 2019
26.2679,Tue Nov  5 14:30:12 2019
25.9061,Tue Nov  5 14:30:12 2019
26.2408,Tue Nov  5 14:30:12 2019
26.6747,Tue Nov  5 14:30:12 2019
26.4463,Tue Nov  5 14:30:12 2019
26.5033,Tue Nov  5 14:30:12 2019
26.5807,Tue Nov  5 14:30:12 2019
26.5966,Tue Nov  5 14:30:12 2019
27.4487,Tue Nov  5 14:30:12 2019
27.3721,Tue Nov  5 14:30:12 2019
27.6008,Tue Nov  5 14:30:12 2019
27.4435,Tue Nov  5 14:30:12 2019
27.5235,Tue Nov  5 14:30:12 2019
27.9982,Tue Nov  5 14:30:12 2019
27.533,Tue Nov  5 14:30:12 2019
28.0535,Tue Nov  5 14:30:12 2019
27.966,Tue Nov  5 14:30:12 2019
28.3394,Tue Nov  5 14:30:12 2019
28.0344,Tue Nov  5 14:30:12 2019
28.0331,Tue Nov  5 14:30:12 2019
28.8186,Tue Nov  5 14:30:12 2019
28.4838,Tue Nov  5 14:30:12 2019
28.5394,Tue Nov  5 14:30:12 2019
28.2647,Tue Nov  5 14:30:12 2019
28.3266,Tue Nov  5 14:30:12 2019
28.8553,Tue Nov  5 14:30:12 2019
28.8915,Tue Nov  5 14:30:12 2019
28.613,Tue Nov  5 14:30:12 2019
29.0721,Tue Nov  5 14:30:12 2019
29.2327,Tue Nov  5 14:30:12 2019
29.4795,Tue Nov  5 14:30:12 2019
28.8947,Tue Nov  5 14:30:12 2019
28.5007,Tue Nov  5 14:30:12 2019
28.9622,Tue Nov  5 14:30:12 2019
29.0436,Tue Nov  5 14:30:12 2019
28.5328,Tue Nov  5 14:30:12 2019
28.8312,Tue Nov  5 14:30:12 2019
28.8472,Tue Nov  5 14:30:12 2019
28.244,Tue Nov  5 14:30:12 2019
28.5724,Tue Nov  5 14:30:12 2019
28.5532,Tue Nov  5 14:30:12 2019
28.5861,Tue Nov  5 14:30:12 2019
27.8907,Tue Nov  5 14:30:12 2019
28.6757,Tue Nov  5 14:30:12 2019
28.1375,Tue Nov  5 14:30:12 2019
28.1616,Tue Nov  5 14:30:12 2019
27.9518,Tue Nov  5 14:30:12 2019
27.6179,Tue Nov  5 14:30:12 2019
27.5049,Tue Nov  5 14:30:12 2019
27.2671,Tue Nov  5 14:30:12 2019
27.2157,Tue Nov  5 14:30:12 2019
27.2774,Tue Nov  5 14:30:12 2019
27.0988,Tue Nov  5 14:30:12 2019
26.6772,Tue Nov  5 14:30:12 2019
27.0092,Tue Nov  5 14:30:12 2019
26.337,Tue Nov  5 14:30:12 2019
26.3058,Tue Nov  5 14:30:12 2019
26.1442,Tue Nov  5 14:30:12 2019
25.5892,Tue Nov  5 14:30:12 2019
26.4988,Tue Nov  5 14:30:12 2019
25.6428,Tue Nov  5 14:30:12 2019
25.8064,Tue Nov  5 14:30:12 2019
25.5529,Tue Nov  5 14:30:12 2019
25.5541,Tue Nov  5 14:30:12 2019
25.2295,Tue Nov  5 14:30:12 2019
25.5122,Tue Nov  5 14:30:12 2019
24.695,Tue Nov  5 14:30:12 2019
24.6471,Tue Nov  5 14:30:12 2019
24.2484,Tue Nov  5 14:30:12 2019
24.8342,Tue Nov  5 14:30:12 2019
24.8506,Tue Nov  5 14:30:12 2019
24.5347,Tue Nov  5 14:30:12 2019
24.2388,Tue Nov  5 14:30:12 2019
23.9378,Tue Nov  5 14:30:12 2019
23.5089,Tue Nov  5 14:30:12 2019
23.2058,Tue Nov  5 14:30:12 2019
23.5027,Tue Nov  5 14:30:12 2019
23.4752,Tue Nov  5 14:30:12 2019
22.9978,Tue Nov  5 14:30:12 2019
23.3957,Tue Nov  5 14:30:12 2019
23.7419,Tue Nov  5 14:30:12 2019
23.1687,Tue Nov  5 14:30:12 2019
22.7406,Tue Nov  5 14:30:12 2019
23.1065,Tue Nov  5 14:30:12 2019
22.8912,Tue Nov  5 14:30:12 2019
23.1995,Tue Nov  5 14:30:12 2019
23.4,Tue Nov  5 14:30:12 2019
22.7795,Tue Nov  5 14:30:12 2019
22.9811,Tue Nov  5 14:30:12 2019
22.7192,Tue Nov  5 14:30:12 2019
22.7685,Tue Nov  5 14:30:12 2019
22.5535,Tue Nov  5 14:30:12 2019
22.7041,Tue Nov  5 14:30:12 2019
22.6003,Tue Nov  5 14:30:12 2019
22.8151,Tue Nov  5 14:30:12 2019
22.3271,Tue Nov  5 14:30:12 2019
23.1987,Tue Nov  5 14:30:12 2019
22.45,Tue Nov  5 14:30:12 2019
22.2936,Tue Nov  5 14:30:12 2019
23.4049,Tue Nov  5 14:30:12 2019
23.3011,Tue Nov  5 14:30:12 2019
23.1212,Tue Nov  5 14:30:12 2019
23.1688,Tue Nov  5 14:30:12 2019
22.8223,Tue Nov  5 14:30:12 2019
23.2094,Tue Nov  5 14:30:12 2019
23.3654,Tue Nov  5 14:30:12 2019
23.2049,Tue Nov  5 14:30:12 2019
23.7621,Tue Nov  5 14:30:12 2019
23.0808,Tue Nov  5 14:30:12 2019
23.2616,Tue Nov  5 14:30:12 2019
23.4294,Tue Nov  5 14:30:12 2019
23.7607,Tue Nov  5 14:30:12 2019
23.8034,Tue Nov  5 14:30:12 2019
24.427,Tue Nov  5 14:30:12 2019
24.1087,Tue Nov  5 14:30:12 2019
24.5611,Tue Nov  5 14:30:12 2019
24.3722,Tue Nov  5 14:30:12 2019
24.5346,Tue Nov  5 14:30:12 2019
24.7575,Tue Nov  5 14:30:12 2019
24.6706,Tue Nov  5 14:30:12 2019
25.5032,Tue Nov  5 14:30:12 2019
25.3198,Tue Nov  5 14:30:12 2019
25.5163,Tue Nov  5 14:30:12 2019
25.2407,Tue Nov  5 14:30:12 2019
25.5803,Tue Nov  5 14:30:12 2019
25.3521,Tue Nov  5 14:30:12 2019
26.1588,Tue Nov  5 14:30:12 2019
26.2094,Tue Nov  5 14:30:12 2019
26.2771,Tue Nov  5 14:30:12 2019
26.3755,Tue Nov  5 14:30:12 2019
26.5554,Tue Nov  5 14:30:12 2019
26.3078,Tue Nov  5 14:30:12 2019
26.9212,Tue Nov  5 14:30:12 2019
26.9042,Tue Nov  5 14:30:12 2019
26.7025,Tue Nov  5 14:30:12 2019
26.7725,Tue Nov  5 14:30:12 2019
27.168,Tue Nov  5 14:30:12 2019
27.7472,Tue Nov  5 14:30:12 2019
27.7264,Tue Nov  5 14:30:12 2019
27.4171,Tue Nov  5 14:30:12 2019
27.797,Tue Nov  5 14:30:12 2019
28.1444,Tue Nov  5 14:30:12 2019
28.065,Tue Nov  5 14:30:12 2019
28.619,Tue Nov  5 14:30:12 2019
28.3012,Tue Nov  5 14:30:12 2019
28.7003,Tue Nov  5 14:30:12 2019
27.9042,Tue Nov  5 14:30:12 2019
27.886,Tue Nov  5 14:30:12 2019
28.6734,Tue Nov  5 14:30:12 2019
28.7858,Tue Nov  5 14:30:12 2019
28.0873,Tue Nov  5 14:30:12 2019
28.421,Tue Nov  5 14:30:12 2019
28.5193,Tue Nov  5 14:30:12 2019
28.4628,Tue Nov  5 14:30:12 2019
28.6352,Tue Nov  5 14:30:12 2019
28.5991,Tue Nov  5 14:30:12 2019
28.0549,Tue Nov  5 14:30:12 2019
28.6055,Tue Nov  5 14:30:12 2019
