-0.73283,1
8.1996,2
25.991,3
19.898,4
12.104,5
7.027,6
17.084,7
37.746,8
37.487,9
23.061,10
14.793,11
27.447,12
42.461,13
48.907,14
34.736,15
23.422,16
37.786,17
46.745,18
55.154,19
48.175,20
35.543,21
46.938,22
52.382,23
57.888,24
57.343,25
50.688,26
55.757,27
58.632,28
60.723,29
61.774,30
62.595,31
62.985,32
63.287,33
63.446,34
63.544,35
63.63,36
63.634,37
63.712,38
63.652,39
63.77,40
63.602,41
63.922,42
62.815,43
59.997,44
61.919,45
62.071,46
63.546,47
60.534,48
47.482,49
53.031,50
56.93,51
60.125,52
57.064,53
36.074,54
39.849,55
49.641,56
55.435,57
50.158,58
28.594,59
25.175,60
38.595,61
49.337,62
40.105,63
23.767,64
15,65
24.88,66
40.589,67
29.204,68
18.028,69
10.383,70
10.995,71
18.682,72
13.152,73
8.028,74
4.9926,75
1.8,76
-9.1383,77
-9.6479,78
-5.3702,79
-3.2144,80
-6.5925,81
-29.627,82
-32.267,83
-19.894,84
-11.441,85
-16.032,86
-35.535,87
-44.275,88
-33.503,89
-18.387,90
-26.701,91
-41.258,92
-50.608,93
-47.391,94
-29.269,95
-37.827,96
-48.173,97
-54.184,98
-56.499,99
-43.184,100
-47.868,101
-54.702,102
-57.706,103
-60.434,104
-58.496,105
-59.571,106
-61.403,107
-62.165,108
-62.841,109
-63.126,110
-63.393,111
-63.492,112
-63.596,113
-63.635,114
-63.664,115
-63.697,116
-63.677,117
-63.746,118
-63.668,119
-63.774,120
-63.651,121
-63.593,122
-54.404,123
-55.528,124
-59.642,125
-60.375,126
-61.987,127
-43.671,128
-41.741,129
-51.899,130
-55.575,131
-57.318,132
-36.85,133
-27.874,134
-40.035,135
-50.278,136
-48.858,137
-30.519,138
-18.691,139
-25.121,140
-42.739,141
-38.501,142
-23.329,143
-14.157,144
-12.319,145
-26.829,146
-23.278,147
-13.663,148
-8.6473,149
-5.3371,150
-2.5026,151
0.58494,152
-0.2658,153
0.4085,154
0.44139,155
19.925,156
29.636,157
18.255,158
11.144,159
9.8146,160
28.287,161
41.862,162
33.932,163
18.487,164
19.527,165
36.038,166
47.191,167
48.165,168
29.001,169
30.247,170
44.526,171
50.696,172
56.876,173
43.538,174
42.941,175
52.814,176
55.699,177
60.119,178
57.096,179
56.623,180
59.978,181
61.076,182
62.307,183
62.702,184
63.198,185
63.332,186
63.517,187
63.584,188
63.618,189
63.702,190
63.626,191
63.795,192
63.577,193
63.906,194
63.405,195
64.31,196
58.107,197
56.048,198
60.62,199
60.242,200
63.707,201
49.9,202
41.443,203
52.055,204
55.001,205
59.564,206
43.952,207
28.458,208
38.844,209
49.058,210
52.451,211
36.502,212
20.904,213
23.355,214
40.745,215
42.511,216
26.567,217
16.503,218
11.303,219
25.91,220
28.858,221
16.996,222
10.998,223
6.4455,224
3.954,225
-0.15809,226
0.45415,227
-0.53748,228
0.95746,229
-13.045,230
-28.969,231
-19.098,232
-11.905,233
-7.8666,234
-22.722,235
-40.489,236
-37.071,237
-21.444,238
-16.927,239
-32.406,240
-44.939,241
-50.098,242
-33.354,243
-27.089,244
-42.281,245
-48.908,246
-56.874,247
-47.286,248
-40.673,249
-51.482,250
-54.791,251
-59.568,252
-58.182,253
-55.989,254
-59.444,255
-60.811,256
-62.108,257
-62.599,258
-63.123,259
-63.294,260
-63.488,261
-63.571,262
-63.604,263
-63.704,264
-63.609,265
-63.812,266
-63.543,267
-63.961,268
-63.31,269
-64.508,270
-59.737,271
-54.092,272
-59.417,273
-59.593,274
-63.201,275
-54.603,276
-39.57,277
-49.012,278
-53.789,279
-58.773,280
-48.36,281
-28.08,282
-33.924,283
-46.051,284
-52.227,285
-39.695,286
-22.388,287
-19.444,288
-35.37,289
-43.991,290
-29.505,291
-18.366,292
-10.585,293
-18.351,294
-25.933,295
-16.133,296
-10.225,297
-6.1697,298
-2.3803,299
4.1864,300
2.9128,301
2.1893,302
0.35967,303
9.4193,304
31.337,305
25.798,306
15.429,307
9.5467,308
20.911,309
39.838,310
41.891,311
26.659,312
17.569,313
31.548,314
43.869,315
52.26,316
41.185,317
28.76,318
42.48,319
49.284,320
56.774,321
52.678,322
43.242,323
51.967,324
55.762,325
59.418,326
60.173,327
58.494,328
60.382,329
61.675,330
62.465,331
62.933,332
63.252,333
63.421,334
63.539,335
63.618,336
63.63,337
63.711,338
63.632,339
63.794,340
63.582,341
63.919,342
63.378,343
64.392,344
60.737,345
49.606,346
55.388,347
57.878,348
61.239,349
56.064,350
35.961,351
42.16,352
50.688,353
56.266,354
49.109,355
27.669,356
25.916,357
39.71,358
49.495,359
38.871,360
22.931,361
14.851,362
26.404,363
40.591,364
28.117,365
17.479,366
10.05,367
10.405,368
15.642,369
10.512,370
6.3914,371
4.1824,372
-0.10973,373
-13.96,374
-12.668,375
-7.3964,376
-4.1691,377
-9.5397,378
-32.412,379
-34.362,380
-21.512,381
-12.484,382
-21.727,383
-39.139,384
-47.444,385
-36.6,386
-21.557,387
-33.316,388
-44.741,389
-53.278,390
-49.826,391
-34.412,392
-44.202,393
-51.526,394
-56.529,395
-58.333,396
-50.871,397
-54.65,398
-58.39,399
-60.318,400
-61.689,401
-62.434,402
-62.957,403
-63.228,404
-63.433,405
-63.526,406
-63.618,407
-63.634,408
-63.698,409
-63.666,410
-63.755,411
-63.619,412
-63.899,413
-62.945,414
-56.797,415
-59.051,416
-60.92,417
-62.035,418
-61.343,419
-43.945,420
-46.634,421
-54.162,422
-57.604,423
-56.452,424
-34.199,425
-31.315,426
-43.719,427
-52.257,428
-46.631,429
-27.516,430
-18.478,431
-28.646,432
-44.294,433
-35.382,434
-21.441,435
-12.606,436
-14.386,437
-26.964,438
-20.232,439
-12.194,440
-7.5232,441
-4.3183,442
2.2896,443
4.0175,444
1.944,445
1.2983,446
3.8184,447
26.846,448
30.694,449
18.72,450
10.833,451
14.752,452
34.442,453
44.076,454
34.164,455
18.563,456
25.9,457
40.791,458
50.213,459
48.955,460
31.056,461
38.751,462
49.023,463
54.29,464
57.844,465
46.853,466
49.958,467
56.091,468
58.543,469
60.889,470
60.816,471
61.648,472
62.485,473
62.939,474
63.252,475
63.419,476
63.547,477
63.603,478
63.657,479
63.682,480
63.676,481
63.745,482
63.517,483
60.452,484
61.088,485
62.477,486
62.529,487
63.16,488
48.074,489
48.452,490
55.799,491
57.958,492
59.239,493
38.125,494
32.914,495
45.103,496
52.657,497
51.324,498
31.713,499
20.675,500
29.855,501
45.449,502
39.709,503
24.046,504
14.418,505
14.493,506
31.362,507
26.012,508
15.37,509
9.6358,510
6.0436,511
2.6139,512
