-1.4097,1
-4.4777,2
-6.6776,3
-6.8248,4
-5.2796,5
-4.1745,6
-4.4856,7
-7.0164,8
-6.8803,9
-6.3623,10
-6.0382,11
-5.9627,12
-5.4142,13
-5.2659,14
-5.8122,15
-6.3724,16
-6.6165,17
-3.6771,18
-2.5173,19
-3.9153,20
-5.5402,21
-5.6269,22
-3.3749,23
-1.6495,24
-2.4685,25
-5.0924,26
-4.7406,27
-3.2685,28
-1.9587,29
-1.6995,30
-4.1015,31
-3.6671,32
-2.7117,33
-2.0151,34
-1.3573,35
-1.9796,36
-1.7184,37
-1.1665,38
-0.78492,39
-0.39034,40
-0.073664,41
0.24114,42
0.51983,43
0.80061,44
1.0749,45
1.3633,46
1.6626,47
1.9757,48
2.3165,49
2.6914,50
3.118,51
3.5921,52
3.9907,53
2.6362,54
2.9978,55
3.9605,56
4.7854,57
5.5183,58
3.0247,59
2.5537,60
4.1758,61
5.7315,62
6.2816,63
4.012,64
2.6861,65
4.1976,66
6.7623,67
6.689,68
5.2673,69
4.0866,70
4.4656,71
6.9622,72
6.8266,73
6.3053,74
5.9855,75
5.9113,76
5.3594,77
5.2197,78
5.7657,79
6.3306,80
6.5605,81
3.6109,82
2.478,83
3.8816,84
5.5075,85
5.5764,86
3.321,87
1.6069,88
2.4488,89
5.0687,90
4.6976,91
3.232,92
1.9206,93
1.6852,94
4.0873,95
3.6362,96
2.69,97
1.9915,98
1.3441,99
1.9708,100
1.7043,101
1.1575,102
0.77752,103
0.38654,104
0.072004,105
-0.2398,106
-0.51621,107
-0.79445,108
-1.0663,109
-1.3526,110
-1.6494,111
-1.9608,112
-2.2987,113
-2.6729,114
-3.0956,115
-3.5714,116
-3.958,117
-2.5992,118
-2.9742,119
-3.9291,120
-4.7586,121
-5.4742,122
-2.9688,123
-2.5223,124
-4.1424,125
-5.6989,126
-6.2294,127
-3.9503,128
-2.6402,129
-4.1669,130
-6.7246,131
-6.6309,132
-5.2108,133
-4.0297,134
-4.4301,135
-6.921,136
-6.7706,137
-6.2537,138
-5.9339,139
-5.861,140
-5.3055,141
-5.1747,142
-5.7201,143
-6.2898,144
-6.5052,145
-3.5457,146
-2.4398,147
-3.8488,148
-5.4755,149
-5.5266,150
-3.2679,151
-1.5651,152
-2.43,153
-5.0455,154
-4.6552,155
-3.1961,156
-1.8829,157
-1.6716,158
-4.0734,159
-3.6056,160
-2.6687,161
-1.9683,162
-1.3313,163
-1.9621,164
-1.6904,165
-1.1487,166
-0.77014,167
-0.38271,168
-0.070254,169
0.23861,170
0.51277,171
0.78853,172
1.0581,173
1.3423,174
1.6365,175
1.9464,176
2.2813,177
2.655,178
3.0737,179
3.5513,180
3.9259,181
2.563,182
2.9512,183
3.8986,184
4.7327,185
5.4307,186
2.9139,187
2.4918,188
4.1099,189
5.6672,190
6.178,191
3.8897,192
2.5954,193
4.1373,194
6.6878,195
6.5737,196
5.1552,197
3.974,198
4.3957,199
6.8808,200
6.7157,201
6.203,202
5.8834,203
5.8116,204
5.2527,205
5.1306,206
5.6755,207
6.2499,208
6.4507,209
3.4816,210
2.4026,211
3.8168,212
5.4444,213
5.4774,214
3.2156,215
1.5241,216
2.4119,217
5.0227,218
4.6134,219
3.1607,220
1.8458,221
1.6586,222
4.0596,223
3.5754,224
2.6477,225
1.9452,226
1.3188,227
1.9535,228
1.6766,229
1.1399,230
0.76276,231
0.37884,232
0.068421,233
-0.23754,234
-0.50952,235
-0.78284,236
-1.0501,237
-1.3323,238
-1.6239,239
-1.9323,240
-2.2644,241
-2.6376,242
-3.0524,243
-3.5318,244
-3.8943,245
-2.5276,246
-2.929,247
-3.8688,248
-4.7076,249
-5.3879,250
-2.86,251
-2.4622,252
-4.0783,253
-5.6363,254
-6.1275,255
-3.8301,256
-2.5517,257
-4.1087,258
-6.6519,259
-6.5175,260
-5.1007,261
-3.9193,262
-4.3625,263
-6.8414,264
-6.6619,265
-6.1534,266
-5.8339,267
-5.7632,268
-5.2009,269
-5.0875,270
-5.6318,271
-6.211,272
-6.397,273
-3.4184,274
-2.3663,275
-3.7856,276
-5.4139,277
-5.4289,278
-3.1641,279
-1.484,280
-2.3945,281
-5.0004,282
-4.5721,283
-3.1259,284
-1.8092,285
-1.6462,286
-4.0462,287
-3.5456,288
-2.6271,289
-1.9224,290
-1.3065,291
-1.9451,292
-1.6629,293
-1.1312,294
-0.75541,295
-0.37495,296
-0.06651,297
0.23661,298
0.50644,299
0.77738,300
1.0424,301
1.3226,302
1.6118,303
1.9187,304
2.248,305
2.6207,306
3.0316,307
3.5129,308
3.8632,309
2.4929,310
2.9075,311
3.8396,312
4.6832,313
5.3456,314
2.807,315
2.4336,316
4.0476,317
5.6064,318
6.0776,319
3.7715,320
2.5091,321
4.0812,322
6.6168,323
6.4622,324
5.0472,325
3.8657,326
4.3304,327
6.8029,328
6.609,329
6.1047,330
5.7853,331
5.7158,332
5.1501,333
5.0454,334
5.589,335
6.173,336
6.3439,337
3.3562,338
2.3309,339
3.7552,340
5.3842,341
5.381,342
3.1133,343
1.4446,344
2.378,345
4.9786,346
4.5313,347
3.0916,348
1.7732,349
1.6344,350
4.0329,351
3.5161,352
2.6067,353
1.8999,354
1.2946,355
1.9367,356
1.6493,357
1.1226,358
0.74807,359
0.37104,360
0.064524,361
-0.2358,362
-0.50354,363
-0.77214,364
-1.035,365
-1.3132,366
-1.6,367
-1.9054,368
-2.2319,369
-2.6043,370
-3.0113,371
-3.4946,372
-3.8327,373
-2.459,374
-2.8866,375
-3.8112,376
-4.6597,377
-5.304,378
-2.755,379
-2.4059,380
-4.0177,381
-5.5773,382
-6.0286,383
-3.7138,384
-2.4675,385
-4.0546,386
-6.5825,387
-6.4079,388
-4.9947,389
-3.8131,390
-4.2994,391
-6.7651,392
-6.5571,393
-6.0571,394
-5.7378,395
-5.6692,396
-5.1002,397
-5.0043,398
-5.5471,399
-6.1359,400
-6.2915,401
-3.2949,402
-2.2965,403
-3.7257,404
-5.3551,405
-5.3337,406
-3.0632,407
-1.406,408
-2.3621,409
-4.9571,410
-4.4911,411
-3.0579,412
-1.7376,413
-1.6233,414
-4.0198,415
-3.487,416
-2.5867,417
-1.8776,418
-1.2829,419
-1.9285,420
-1.6359,421
-1.114,422
-0.74076,423
-0.3671,424
-0.062466,425
0.23511,426
0.5008,427
0.76711,428
1.0278,429
1.3041,430
1.5885,431
1.8926,432
2.2164,433
2.5883,434
2.9915,435
3.4768,436
3.8025,437
2.4258,438
2.8665,439
3.7835,440
4.6369,441
5.2629,442
2.7039,443
2.3791,444
3.9886,445
5.549,446
5.9802,447
3.6571,448
2.427,449
4.0291,450
6.549,451
6.3544,452
4.9432,453
3.7616,454
4.2695,455
6.7282,456
6.5062,457
6.0103,458
5.6912,459
5.6236,460
5.0513,461
4.9641,462
5.5061,463
6.0997,464
6.2398,465
3.2346,466
2.263,467
3.6969,468
5.3267,469
5.2871,470
3.0138,471
1.3682,472
2.3469,473
4.9361,474
4.4514,475
3.0247,476
1.7026,477
1.6127,478
4.007,479
3.4583,480
2.567,481
1.8556,482
1.2716,483
1.9203,484
1.6225,485
1.1055,486
0.73348,487
0.36314,488
0.06034,489
-0.23453,490
-0.49822,491
-0.76228,492
-1.0209,493
-1.2953,494
-1.5774,495
-1.8801,496
-2.2012,497
-2.5728,498
-2.9723,499
-3.4597,500
-3.7729,501
-2.3934,502
-2.847,503
-3.7604,504
-4.6123,505
-5.2335,506
-2.6393,507
-2.3803,508
-3.9204,509
-5.5905,510
-5.8235,511
-3.8235,512
