3.4636,1
-6.0337,2
-22.24,3
-14.571,4
-2.3382,5
4.9039,6
-1.047,7
-17.353,8
-11.148,9
-5.1607,10
-2.2894,11
-1.9025,12
1.712,13
1.2518,14
-2.9048,15
-5.8599,16
-5.097,17
15.714,18
16.884,19
2.4969,20
-8.2002,21
-4.7207,22
11.971,23
19.275,24
7.6052,25
-10.447,26
-2.5972,27
8.7556,28
15.605,29
12.39,30
-5.7541,31
1.5363,32
8.7961,33
12.305,34
13.686,35
6.5371,36
8.287,37
11.13,38
11.985,39
12.365,40
12.083,41
11.943,42
11.74,43
11.645,44
11.612,45
11.747,46
11.85,47
11.938,48
12.169,49
12.927,50
13.725,51
14.686,52
14.079,53
2.6671,54
7.2665,55
13.398,56
16.892,57
17.548,58
-2.6941,59
-1.686,60
11.183,61
19.25,62
17.306,63
-1.6652,64
-7.3507,65
6.7849,66
21.944,67
14.648,68
2.1419,69
-4.8549,70
1.0889,71
17.406,72
11.04,73
5.1392,74
2.2643,75
1.8851,76
-1.7524,77
-1.2313,78
2.9039,79
5.8817,80
5.0025,81
-15.842,82
-16.81,83
-2.4304,84
8.2356,85
4.6152,86
-12.071,87
-19.281,88
-7.4785,89
10.479,90
2.4841,91
-8.8021,92
-15.662,93
-12.285,94
5.7917,95
-1.6304,96
-8.8147,97
-12.346,98
-13.658,99
-6.5149,100
-8.3238,101
-11.139,102
-11.997,103
-12.365,104
-12.086,105
-11.942,106
-11.742,107
-11.646,108
-11.613,109
-11.748,110
-11.848,111
-11.94,112
-12.167,113
-12.936,114
-13.717,115
-14.704,116
-14.019,117
-2.6215,118
-7.3309,119
-13.4,120
-16.932,121
-17.461,122
2.8071,123
1.5992,124
-11.229,125
-19.29,126
-17.207,127
1.7802,128
7.322,129
-6.8997,130
-21.969,131
-14.538,132
-2.0812,133
4.8982,134
-1.1964,135
-17.427,136
-10.963,137
-5.1102,138
-2.2408,139
-1.8688,140
1.7911,141
1.2094,142
-2.9041,143
-5.9048,144
-4.9081,145
15.968,146
16.734,147
2.3628,148
-8.2715,149
-4.5102,150
12.169,151
19.286,152
7.3504,153
-10.51,154
-2.372,155
8.8477,156
15.719,157
12.178,158
-5.8284,159
1.7236,160
8.8328,161
12.387,162
13.629,163
6.4929,164
8.3603,165
11.147,166
12.009,167
12.364,168
12.089,169
11.942,170
11.743,171
11.647,172
11.614,173
11.751,174
11.847,175
11.943,176
12.165,177
12.947,178
13.71,179
14.723,180
13.96,181
2.5776,182
7.3961,183
13.402,184
16.974,185
17.374,186
-2.9178,187
-1.5109,188
11.276,189
19.33,190
17.108,191
-1.8934,192
-7.2912,193
7.0158,194
21.994,195
14.43,196
2.022,197
-4.9398,198
1.3058,199
17.448,200
10.887,201
5.0826,202
2.2187,203
1.8535,204
-1.8284,205
-1.186,206
2.9054,207
5.9292,208
4.8136,209
-16.091,210
-16.656,211
-2.2943,212
8.3078,213
4.4056,214
-12.266,215
-19.289,216
-7.221,217
10.54,218
2.2608,219
-8.8922,220
-15.774,221
-12.069,222
5.8642,223
-1.816,224
-8.8502,225
-12.428,226
-13.6,227
-6.4712,228
-8.3965,229
-11.154,230
-12.02,231
-12.364,232
-12.092,233
-11.942,234
-11.745,235
-11.648,236
-11.615,237
-11.753,238
-11.845,239
-11.945,240
-12.163,241
-12.957,242
-13.703,243
-14.743,244
-13.9,245
-2.5354,246
-7.4619,247
-13.404,248
-17.016,249
-17.286,250
3.0263,251
1.4214,252
-11.324,253
-19.372,254
-17.009,255
2.0049,256
7.2586,257
-7.1331,258
-22.019,259
-14.322,260
-1.9642,261
4.9798,262
-1.417,263
-17.469,264
-10.813,265
-5.0561,266
-2.1979,267
-1.8391,268
1.8643,269
1.1614,270
-2.9077,271
-5.9546,272
-4.7189,273
16.212,274
16.577,275
2.225,276
-8.3445,277
-4.3013,278
12.361,279
19.29,280
7.0903,281
-10.57,282
-2.1503,283
8.9359,284
15.829,285
11.959,286
-5.8989,287
1.9076,288
8.8671,289
12.468,290
13.569,291
6.4497,292
8.4324,293
11.162,294
12.031,295
12.364,296
12.095,297
11.942,298
11.747,299
11.649,300
11.617,301
11.755,302
11.845,303
11.949,304
12.162,305
12.968,306
13.697,307
14.763,308
13.84,309
2.4948,310
7.5283,311
13.408,312
17.058,313
17.198,314
-3.1327,315
-1.3306,316
11.372,317
19.413,318
16.909,319
-2.1147,320
-7.2241,321
7.2513,322
22.044,323
14.215,324
1.9075,325
-5.0183,326
1.5299,327
17.489,328
10.74,329
5.0306,330
2.1783,331
1.8254,332
-1.8989,333
-1.1356,334
2.9108,335
5.981,336
4.6238,337
-16.332,338
-16.496,339
-2.1549,340
8.3814,341
4.1972,342
-12.455,343
-19.29,344
-6.9585,345
10.6,346
2.0406,347
-8.9789,348
-15.882,349
-11.848,350
5.9326,351
-1.9985,352
-8.8835,353
-12.507,354
-13.538,355
-6.4287,356
-8.4681,357
-11.169,358
-12.043,359
-12.363,360
-12.098,361
-11.942,362
-11.749,363
-11.65,364
-11.618,365
-11.758,366
-11.844,367
-11.952,368
-12.161,369
-12.98,370
-13.691,371
-14.784,372
-13.779,373
-2.4558,374
-7.5951,375
-13.411,376
-17.102,377
-17.109,378
3.2371,379
1.2388,380
-11.421,381
-19.455,382
-16.81,383
2.223,384
7.188,385
-7.3705,386
-22.068,387
-14.109,388
-1.852,389
5.0553,390
-1.6443,391
-17.509,392
-10.668,393
-5.006,394
-2.1598,395
-1.8124,396
1.9324,397
1.1088,398
-2.9147,399
-6.0082,400
-4.5284,401
16.449,402
16.414,403
2.0843,404
-8.4184,405
-4.0932,406
12.547,407
19.288,408
6.8257,409
-10.628,410
-1.9315,411
9.0211,412
15.935,413
11.735,414
-5.9652,415
2.0886,416
8.8995,417
12.547,418
13.506,419
6.408,420
8.5035,421
11.176,422
12.054,423
12.363,424
12.101,425
11.942,426
11.751,427
11.651,428
11.62,429
11.761,430
11.843,431
11.956,432
12.16,433
12.991,434
13.686,435
14.805,436
13.719,437
2.4183,438
7.6623,439
13.416,440
17.146,441
17.02,442
-3.3395,443
-1.146,444
11.47,445
19.498,446
16.711,447
-2.3298,448
-7.1502,449
7.4905,450
22.092,451
14.003,452
1.7974,453
-5.091,454
1.7601,455
17.528,456
10.598,457
4.9822,458
2.1423,459
1.7999,460
-1.9649,461
-1.0811,462
2.9192,463
6.0361,464
4.4324,465
-16.564,466
-16.331,467
-2.0131,468
8.4554,469
3.9892,470
-12.639,471
-19.285,472
-6.6919,473
10.656,474
1.823,475
-9.0627,476
-15.987,477
-11.621,478
5.9967,479
-2.1781,480
-8.9152,481
-12.586,482
-13.474,483
-6.3877,484
-8.5388,485
-11.183,486
-12.064,487
-12.362,488
-12.104,489
-11.942,490
-11.753,491
-11.652,492
-11.621,493
-11.764,494
-11.843,495
-11.96,496
-12.16,497
-13.003,498
-13.681,499
-14.827,500
-13.658,501
-2.3822,502
-7.7299,503
-13.418,504
-17.214,505
-16.905,506
3.3961,507
1.1223,508
-11.62,509
-19.405,510
-16.832,511
2.8486,512
