-22.492,1
-47.229,2
-42.891,3
-44.885,4
-40.625,5
-39.581,6
-37.824,7
-39.118,8
-37.297,9
-35.445,10
-33.502,11
-31.764,12
-29.543,13
-27.611,14
-26.241,15
-24.837,16
-23.116,17
-18.546,18
-15.488,19
-14.653,20
-14.001,21
-11.984,22
-7.8859,23
-4.2234,24
-2.783,25
-2.9393,26
-0.49559,27
2.9297,28
6.2084,29
8.5602,30
8.5458,31
10.976,32
13.826,33
16.41,34
18.924,35
20.269,36
22.323,37
24.566,38
26.594,39
28.569,40
30.407,41
32.171,42
33.826,43
35.404,44
36.892,45
38.306,46
39.644,47
40.911,48
42.115,49
43.25,50
44.33,51
45.356,52
46.227,53
45.457,54
46.074,55
47.109,56
47.92,57
48.553,58
46.241,59
45.584,60
46.664,61
47.591,62
47.541,63
44.905,64
42.984,65
43.46,66
44.783,67
43.7,68
41.332,69
39.079,70
38.108,71
38.927,72
37.36,73
35.374,74
33.49,75
31.752,76
29.527,77
27.603,78
26.231,79
24.831,80
23.095,81
18.515,82
15.48,83
14.648,84
13.996,85
11.962,86
7.8592,87
4.205,88
2.7832,89
2.9344,90
0.47226,91
-2.9491,92
-6.231,93
-8.5636,94
-8.5508,95
-10.997,96
-13.841,97
-16.429,98
-18.935,99
-20.278,100
-22.339,101
-24.579,102
-26.607,103
-28.581,104
-30.419,105
-32.181,106
-33.836,107
-35.414,108
-36.902,109
-38.315,110
-39.652,111
-40.919,112
-42.122,113
-43.258,114
-44.336,115
-45.365,116
-46.226,117
-45.453,118
-46.083,119
-47.113,120
-47.929,121
-48.547,122
-46.226,123
-45.59,124
-46.669,125
-47.598,126
-47.531,127
-44.887,128
-42.979,129
-43.47,130
-44.786,131
-43.685,132
-41.318,133
-39.065,134
-38.112,135
-38.926,136
-37.346,137
-35.363,138
-33.478,139
-31.741,140
-29.512,141
-27.594,142
-26.221,143
-24.824,144
-23.075,145
-18.485,146
-15.472,147
-14.643,148
-13.991,149
-11.94,150
-7.8325,151
-4.1866,152
-2.7836,153
-2.9295,154
-0.44889,155
2.9685,156
6.2537,157
8.5669,158
8.556,159
11.019,160
13.856,161
16.447,162
18.947,163
20.287,164
22.354,165
24.592,166
26.621,167
28.593,168
30.431,169
32.192,170
33.847,171
35.424,172
36.911,173
38.324,174
39.66,175
40.928,176
42.129,177
43.265,178
44.341,179
45.373,180
46.225,181
45.45,182
46.092,183
47.116,184
47.937,185
48.541,186
46.21,187
45.597,188
46.674,189
47.604,190
47.521,191
44.868,192
42.975,193
43.479,194
44.789,195
43.67,196
41.304,197
39.05,198
38.116,199
38.925,200
37.331,201
35.351,202
33.466,203
31.729,204
29.496,205
27.585,206
26.211,207
24.817,208
23.054,209
18.454,210
15.464,211
14.639,212
13.986,213
11.917,214
7.8058,215
4.1684,216
2.784,217
2.9244,218
0.42549,219
-2.9879,220
-6.2762,221
-8.57,222
-8.5613,223
-11.04,224
-13.871,225
-16.466,226
-18.958,227
-20.297,228
-22.37,229
-24.604,230
-26.634,231
-28.605,232
-30.442,233
-32.203,234
-33.857,235
-35.433,236
-36.92,237
-38.333,238
-39.669,239
-40.936,240
-42.136,241
-43.273,242
-44.347,243
-45.381,244
-46.224,245
-45.446,246
-46.101,247
-47.12,248
-47.945,249
-48.535,250
-46.195,251
-45.603,252
-46.68,253
-47.611,254
-47.51,255
-44.85,256
-42.971,257
-43.488,258
-44.791,259
-43.655,260
-41.291,261
-39.036,262
-38.12,263
-38.923,264
-37.317,265
-35.34,266
-33.454,267
-31.717,268
-29.481,269
-27.577,270
-26.2,271
-24.81,272
-23.033,273
-18.424,274
-15.456,275
-14.634,276
-13.98,277
-11.895,278
-7.7792,279
-4.1502,280
-2.7845,281
-2.9192,282
-0.40206,283
3.0072,284
6.2988,285
8.573,286
8.5668,287
11.062,288
13.886,289
16.484,290
18.969,291
20.306,292
22.385,293
24.617,294
26.647,295
28.616,296
30.454,297
32.214,298
33.867,299
35.443,300
36.929,301
38.342,302
39.677,303
40.944,304
42.143,305
43.281,306
44.352,307
45.39,308
46.223,309
45.443,310
46.11,311
47.123,312
47.954,313
48.528,314
46.179,315
45.61,316
46.685,317
47.617,318
47.499,319
44.831,320
42.967,321
43.497,322
44.794,323
43.64,324
41.277,325
39.022,326
38.125,327
38.922,328
37.302,329
35.328,330
33.442,331
31.706,332
29.465,333
27.568,334
26.19,335
24.803,336
23.012,337
18.393,338
15.448,339
14.629,340
13.975,341
11.872,342
7.7526,343
4.1322,344
2.7851,345
2.9138,346
0.37859,347
-3.0265,348
-6.3214,349
-8.5759,350
-8.5725,351
-11.083,352
-13.901,353
-16.503,354
-18.98,355
-20.315,356
-22.401,357
-24.63,358
-26.66,359
-28.628,360
-30.466,361
-32.224,362
-33.878,363
-35.453,364
-36.939,365
-38.351,366
-39.685,367
-40.952,368
-42.15,369
-43.289,370
-44.358,371
-45.398,372
-46.222,373
-45.44,374
-46.119,375
-47.126,376
-47.962,377
-48.521,378
-46.164,379
-45.616,380
-46.69,381
-47.623,382
-47.488,383
-44.813,384
-42.963,385
-43.506,386
-44.797,387
-43.625,388
-41.263,389
-39.008,390
-38.129,391
-38.92,392
-37.287,393
-35.317,394
-33.43,395
-31.694,396
-29.45,397
-27.559,398
-26.18,399
-24.796,400
-22.991,401
-18.363,402
-15.44,403
-14.624,404
-13.97,405
-11.849,406
-7.726,407
-4.1143,408
-2.7857,409
-2.9083,410
-0.35509,411
3.0459,412
6.3439,413
8.5786,414
8.5783,415
11.105,416
13.916,417
16.521,418
18.991,419
20.325,420
22.417,421
24.643,422
26.674,423
28.64,424
30.478,425
32.235,426
33.888,427
35.463,428
36.948,429
38.36,430
39.693,431
40.96,432
42.157,433
43.296,434
44.363,435
45.407,436
46.221,437
45.437,438
46.128,439
47.13,440
47.971,441
48.515,442
46.149,443
45.623,444
46.695,445
47.63,446
47.477,447
44.795,448
42.959,449
43.516,450
44.799,451
43.61,452
41.249,453
38.994,454
38.134,455
38.918,456
37.273,457
35.305,458
33.419,459
31.682,460
29.434,461
27.551,462
26.17,463
24.789,464
22.969,465
18.333,466
15.432,467
14.62,468
13.964,469
11.827,470
7.6994,471
4.0964,472
2.7865,473
2.9026,474
0.33158,475
-3.0652,476
-6.3664,477
-8.5812,478
-8.5842,479
-11.126,480
-13.931,481
-16.54,482
-19.002,483
-20.335,484
-22.432,485
-24.656,486
-26.687,487
-28.652,488
-30.489,489
-32.246,490
-33.899,491
-35.472,492
-36.957,493
-38.369,494
-39.701,495
-40.969,496
-42.164,497
-43.304,498
-44.369,499
-45.415,500
-46.219,501
-45.434,502
-46.138,503
-47.191,504
-47.9,505
-48.696,506
-45.853,507
-46.114,508
-45.978,509
-48.799,510
-45.581,511
-48.53,512
