-22.757,1
-47.79,2
-43.42,3
-45.368,4
-40.94,5
-39.782,6
-37.955,7
-39.288,8
-37.378,9
-35.424,10
-33.388,11
-31.57,12
-29.249,13
-27.237,14
-25.819,15
-24.369,16
-22.591,17
-17.825,18
-14.65,19
-13.818,20
-13.18,21
-11.113,22
-6.861,23
-3.0705,24
-1.6161,25
-1.8464,26
0.65134,27
4.1849,28
7.5556,29
9.9577,30
9.8646,31
12.335,32
15.254,33
17.886,34
20.447,35
21.775,36
23.845,37
26.116,38
28.159,39
30.146,40
31.988,41
33.752,42
35.402,43
36.972,44
38.448,45
39.846,46
41.166,47
42.411,48
43.593,49
44.701,50
45.756,51
46.752,52
47.596,53
46.714,54
47.282,55
48.307,56
49.088,57
49.7,58
47.219,59
46.455,60
47.541,61
48.465,62
48.38,63
45.575,64
43.508,65
43.966,66
45.331,67
44.183,68
41.67,69
39.288,70
38.237,71
39.095,72
37.457,73
35.364,74
33.388,75
31.57,76
29.249,77
27.237,78
25.819,79
24.369,80
22.591,81
17.825,82
14.65,83
13.818,84
13.18,85
11.113,86
6.861,87
3.0705,88
1.6161,89
1.8464,90
-0.65134,91
-4.1849,92
-7.5556,93
-9.9577,94
-9.8646,95
-12.335,96
-15.254,97
-17.886,98
-20.447,99
-21.775,100
-23.845,101
-26.116,102
-28.159,103
-30.146,104
-31.988,105
-33.752,106
-35.402,107
-36.972,108
-38.448,109
-39.846,110
-41.166,111
-42.411,112
-43.593,113
-44.701,114
-45.756,115
-46.752,116
-47.596,117
-46.714,118
-47.282,119
-48.307,120
-49.088,121
-49.7,122
-47.219,123
-46.455,124
-47.541,125
-48.465,126
-48.38,127
-45.575,128
-43.508,129
-43.966,130
-45.331,131
-44.183,132
-41.67,133
-39.288,134
-38.237,135
-39.095,136
-37.457,137
-35.364,138
-33.388,139
-31.57,140
-29.249,141
-27.237,142
-25.819,143
-24.369,144
-22.591,145
-17.825,146
-14.65,147
-13.818,148
-13.18,149
-11.113,150
-6.861,151
-3.0705,152
-1.6161,153
-1.8464,154
0.65134,155
4.1849,156
7.5556,157
9.9577,158
9.8646,159
12.335,160
15.254,161
17.886,162
20.447,163
21.775,164
23.845,165
26.116,166
28.159,167
30.146,168
31.988,169
33.752,170
35.402,171
36.972,172
38.448,173
39.846,174
41.166,175
42.411,176
43.593,177
44.701,178
45.756,179
46.752,180
47.596,181
46.714,182
47.282,183
48.307,184
49.088,185
49.7,186
47.219,187
46.455,188
47.541,189
48.465,190
48.38,191
45.575,192
43.508,193
43.966,194
45.331,195
44.183,196
41.67,197
39.288,198
38.237,199
39.095,200
37.457,201
35.364,202
33.388,203
31.57,204
29.249,205
27.237,206
25.819,207
24.369,208
22.591,209
17.825,210
14.65,211
13.818,212
13.18,213
11.113,214
6.861,215
3.0705,216
1.6161,217
1.8464,218
-0.65134,219
-4.1849,220
-7.5556,221
-9.9577,222
-9.8646,223
-12.335,224
-15.254,225
-17.886,226
-20.447,227
-21.775,228
-23.845,229
-26.116,230
-28.159,231
-30.146,232
-31.988,233
-33.752,234
-35.402,235
-36.972,236
-38.448,237
-39.846,238
-41.166,239
-42.411,240
-43.593,241
-44.701,242
-45.756,243
-46.752,244
-47.596,245
-46.714,246
-47.282,247
-48.307,248
-49.088,249
-49.7,250
-47.219,251
-46.455,252
-47.541,253
-48.465,254
-48.38,255
-45.575,256
-43.508,257
-43.966,258
-45.331,259
-44.183,260
-41.67,261
-39.288,262
-38.237,263
-39.095,264
-37.457,265
-35.364,266
-33.388,267
-31.57,268
-29.249,269
-27.237,270
-25.819,271
-24.369,272
-22.591,273
-17.825,274
-14.65,275
-13.818,276
-13.18,277
-11.113,278
-6.861,279
-3.0705,280
-1.6161,281
-1.8464,282
0.65134,283
4.1849,284
7.5556,285
9.9577,286
9.8646,287
12.335,288
15.254,289
17.886,290
20.447,291
21.775,292
23.845,293
26.116,294
28.159,295
30.146,296
31.988,297
33.752,298
35.402,299
36.972,300
38.448,301
39.846,302
41.166,303
42.411,304
43.593,305
44.701,306
45.756,307
46.752,308
47.596,309
46.714,310
47.282,311
48.307,312
49.088,313
49.7,314
47.219,315
46.455,316
47.541,317
48.465,318
48.38,319
45.575,320
43.508,321
43.966,322
45.331,323
44.183,324
41.67,325
39.288,326
38.237,327
39.095,328
37.457,329
35.364,330
33.388,331
31.57,332
29.249,333
27.237,334
25.819,335
24.369,336
22.591,337
17.825,338
14.65,339
13.818,340
13.18,341
11.113,342
6.861,343
3.0705,344
1.6161,345
1.8464,346
-0.65134,347
-4.1849,348
-7.5556,349
-9.9577,350
-9.8646,351
-12.335,352
-15.254,353
-17.886,354
-20.447,355
-21.775,356
-23.845,357
-26.116,358
-28.159,359
-30.146,360
-31.988,361
-33.752,362
-35.402,363
-36.972,364
-38.448,365
-39.846,366
-41.166,367
-42.411,368
-43.593,369
-44.701,370
-45.756,371
-46.752,372
-47.596,373
-46.714,374
-47.282,375
-48.307,376
-49.088,377
-49.7,378
-47.219,379
-46.455,380
-47.541,381
-48.465,382
-48.38,383
-45.575,384
-43.508,385
-43.966,386
-45.331,387
-44.183,388
-41.67,389
-39.288,390
-38.237,391
-39.095,392
-37.457,393
-35.364,394
-33.388,395
-31.57,396
-29.249,397
-27.237,398
-25.819,399
-24.369,400
-22.591,401
-17.825,402
-14.65,403
-13.818,404
-13.18,405
-11.113,406
-6.861,407
-3.0705,408
-1.6161,409
-1.8464,410
0.65134,411
4.1849,412
7.5556,413
9.9577,414
9.8646,415
12.335,416
15.254,417
17.886,418
20.447,419
21.775,420
23.845,421
26.116,422
28.159,423
30.146,424
31.988,425
33.752,426
35.402,427
36.972,428
38.448,429
39.846,430
41.166,431
42.411,432
43.593,433
44.701,434
45.756,435
46.752,436
47.596,437
46.714,438
47.282,439
48.307,440
49.088,441
49.7,442
47.219,443
46.455,444
47.541,445
48.465,446
48.38,447
45.575,448
43.508,449
43.966,450
45.331,451
44.183,452
41.67,453
39.288,454
38.237,455
39.095,456
37.457,457
35.364,458
33.388,459
31.57,460
29.249,461
27.237,462
25.819,463
24.369,464
22.591,465
17.825,466
14.65,467
13.818,468
13.18,469
11.113,470
6.861,471
3.0705,472
1.6161,473
1.8464,474
-0.65134,475
-4.1849,476
-7.5556,477
-9.9577,478
-9.8646,479
-12.335,480
-15.254,481
-17.886,482
-20.447,483
-21.775,484
-23.845,485
-26.116,486
-28.159,487
-30.146,488
-31.988,489
-33.752,490
-35.402,491
-36.972,492
-38.448,493
-39.846,494
-41.166,495
-42.411,496
-43.593,497
-44.701,498
-45.756,499
-46.752,500
-47.596,501
-46.714,502
-47.282,503
-48.366,504
-49.008,505
-49.89,506
-46.935,507
-46.945,508
-46.811,509
-49.641,510
-46.474,511
-49.369,512
