3.7885,1
7.3639,2
6.2121,3
4.3278,4
0.287,5
-3.0193,6
-5.2584,7
-4.9844,8
-7.6258,9
-10.655,10
-13.5,11
-16.092,12
-16.904,13
-19.095,14
-21.559,15
-23.778,16
-25.938,17
-27.947,18
-29.872,19
-31.677,20
-33.397,21
-35.017,22
-36.556,23
-38.009,24
-39.387,25
-40.688,26
-41.925,27
-43.083,28
-44.209,29
-45.155,30
-45.112,31
-45.978,32
-46.979,33
-47.838,34
-48.536,35
-46.485,36
-46.3,37
-47.397,38
-48.253,39
-48.385,40
-45.649,41
-44.057,42
-44.829,43
-46.054,44
-45.281,45
-42.768,46
-40.444,47
-39.94,48
-41.401,49
-39.952,50
-37.777,51
-35.716,52
-34.054,53
-32.877,54
-31.107,55
-29.484,56
-27.881,57
-26.152,58
-22.035,59
-19.367,60
-18.426,61
-17.486,62
-15.626,63
-11.248,64
-7.6822,65
-6.6468,66
-6.5508,67
-4.0821,68
-0.39253,69
3.1349,70
5.2121,71
5.0274,72
7.6371,73
10.683,74
13.52,75
16.101,76
16.911,77
19.113,78
21.572,79
23.793,80
25.951,81
27.96,82
29.884,83
31.689,84
33.408,85
35.028,86
36.566,87
38.018,88
39.396,89
40.696,90
41.934,91
43.089,92
44.217,93
45.157,94
45.113,95
45.987,96
46.983,97
47.846,98
48.531,99
46.472,100
46.308,101
47.401,102
48.26,103
48.375,104
45.63,105
44.056,106
44.838,107
46.059,108
45.267,109
42.752,110
40.431,111
39.948,112
41.403,113
39.937,114
37.765,115
35.702,116
34.047,117
32.867,118
31.097,119
29.473,120
27.873,121
26.133,122
22.007,123
19.359,124
18.419,125
17.48,126
15.604,127
11.219,128
7.6678,129
6.6464,130
6.5451,131
4.0582,132
0.37074,133
-3.1574,134
-5.2131,135
-5.0329,136
-7.66,137
-10.7,138
-13.541,139
-16.11,140
-16.918,141
-19.131,142
-21.586,143
-23.807,144
-25.964,145
-27.973,146
-29.896,147
-31.7,148
-33.418,149
-35.038,150
-36.576,151
-38.026,152
-39.405,153
-40.703,154
-41.942,155
-43.096,156
-44.226,157
-45.159,158
-45.114,159
-45.995,160
-46.986,161
-47.855,162
-48.525,163
-46.46,164
-46.317,165
-47.405,166
-48.267,167
-48.365,168
-45.611,169
-44.056,170
-44.846,171
-46.063,172
-45.253,173
-42.737,174
-40.418,175
-39.957,176
-41.405,177
-39.921,178
-37.753,179
-35.688,180
-34.04,181
-32.857,182
-31.086,183
-29.462,184
-27.864,185
-26.115,186
-21.98,187
-19.352,188
-18.412,189
-17.475,190
-15.582,191
-11.189,192
-7.6535,193
-6.6462,194
-6.5393,195
-4.0343,196
-0.34894,197
3.18,198
5.214,199
5.0385,200
7.6829,201
10.716,202
13.562,203
16.118,204
16.926,205
19.149,206
21.6,207
23.822,208
25.977,209
27.986,210
29.907,211
31.712,212
33.429,213
35.048,214
36.585,215
38.035,216
39.414,217
40.711,218
41.95,219
43.102,220
44.234,221
45.16,222
45.115,223
46.004,224
46.99,225
47.863,226
48.52,227
46.447,228
46.325,229
47.41,230
48.274,231
48.355,232
45.592,233
44.056,234
44.854,235
46.067,236
45.239,237
42.721,238
40.405,239
39.965,240
41.406,241
39.905,242
37.741,243
35.674,244
34.033,245
32.846,246
31.075,247
29.451,248
27.856,249
26.096,250
21.953,251
19.345,252
18.405,253
17.469,254
15.56,255
11.16,256
7.6393,257
6.646,258
6.5333,259
4.0103,260
0.32716,261
-3.2025,262
-5.2147,263
-5.0443,264
-7.7058,265
-10.732,266
-13.583,267
-16.127,268
-16.933,269
-19.167,270
-21.613,271
-23.837,272
-25.989,273
-27.999,274
-29.919,275
-31.723,276
-33.44,277
-35.058,278
-36.595,279
-38.044,280
-39.422,281
-40.719,282
-41.958,283
-43.109,284
-44.242,285
-45.162,286
-45.116,287
-46.012,288
-46.994,289
-47.872,290
-48.514,291
-46.435,292
-46.333,293
-47.414,294
-48.281,295
-48.345,296
-45.573,297
-44.056,298
-44.862,299
-46.071,300
-45.225,301
-42.706,302
-40.392,303
-39.974,304
-41.408,305
-39.889,306
-37.729,307
-35.661,308
-34.026,309
-32.836,310
-31.064,311
-29.44,312
-27.848,313
-26.076,314
-21.925,315
-19.338,316
-18.398,317
-17.464,318
-15.538,319
-11.13,320
-7.6252,321
-6.6458,322
-6.5272,323
-3.9863,324
-0.3054,325
3.2249,326
5.2153,327
5.0503,328
7.7287,329
10.748,330
13.603,331
16.135,332
16.941,333
19.185,334
21.627,335
23.852,336
26.002,337
28.012,338
29.931,339
31.734,340
33.45,341
35.068,342
36.604,343
38.053,344
39.431,345
40.727,346
41.966,347
43.115,348
44.25,349
45.164,350
45.117,351
46.021,352
46.997,353
47.881,354
48.508,355
46.423,356
46.342,357
47.418,358
48.288,359
48.335,360
45.555,361
44.056,362
44.87,363
46.075,364
45.21,365
42.69,366
40.38,367
39.983,368
41.409,369
39.873,370
37.717,371
35.647,372
34.02,373
32.826,374
31.053,375
29.429,376
27.839,377
26.057,378
21.898,379
19.331,380
18.391,381
17.458,382
15.516,383
11.101,384
7.6112,385
6.6457,386
6.5211,387
3.9622,388
0.28366,389
-3.2473,390
-5.2157,391
-5.0565,392
-7.7515,393
-10.764,394
-13.624,395
-16.144,396
-16.949,397
-19.203,398
-21.64,399
-23.867,400
-26.015,401
-28.024,402
-29.942,403
-31.746,404
-33.461,405
-35.078,406
-36.614,407
-38.062,408
-39.44,409
-40.735,410
-41.974,411
-43.122,412
-44.258,413
-45.166,414
-45.118,415
-46.03,416
-47.001,417
-47.89,418
-48.502,419
-46.41,420
-46.35,421
-47.422,422
-48.295,423
-48.324,424
-45.536,425
-44.056,426
-44.879,427
-46.079,428
-45.196,429
-42.675,430
-40.367,431
-39.992,432
-41.41,433
-39.858,434
-37.705,435
-35.633,436
-34.013,437
-32.816,438
-31.043,439
-29.418,440
-27.831,441
-26.038,442
-21.871,443
-19.324,444
-18.384,445
-17.453,446
-15.494,447
-11.072,448
-7.5973,449
-6.6456,450
-6.5148,451
-3.9381,452
-0.26192,453
3.2696,454
5.216,455
5.0628,456
7.7743,457
10.78,458
13.645,459
16.152,460
16.956,461
19.22,462
21.654,463
23.881,464
26.028,465
28.037,466
29.954,467
31.757,468
33.472,469
35.088,470
36.624,471
38.071,472
39.449,473
40.742,474
41.982,475
43.128,476
44.267,477
45.167,478
45.12,479
46.038,480
47.005,481
47.898,482
48.495,483
46.398,484
46.359,485
47.426,486
48.302,487
48.313,488
45.517,489
44.056,490
44.887,491
46.083,492
45.181,493
42.66,494
40.354,495
40.001,496
41.411,497
39.842,498
37.693,499
35.619,500
34.006,501
32.805,502
31.032,503
29.417,504
27.809,505
26.049,506
21.794,507
19.397,508
18.248,509
17.645,510
15.139,511
11.682,512
