4.3038,1
-4.2236,2
-18.051,3
-8.6436,4
1.6475,5
6.2706,6
-1.4419,7
-15.842,8
-8.3738,9
-3.4269,10
-1.9124,11
-2.6851,12
-0.1825,13
-1.6525,14
-5.6717,15
-8.2535,16
-7.0651,17
11.122,18
8.7129,19
-5.3647,20
-13.774,21
-8.7028,22
6.0711,23
10.124,24
-2.4913,25
-17.593,26
-7.8748,27
1.8374,28
6.3817,29
1.3238,30
-14.814,31
-5.7824,32
0.36077,33
2.5121,34
2.4126,35
-4.5517,36
-1.9824,37
0.65794,38
1.1066,39
1.0282,40
0.57614,41
0.55443,42
0.60926,43
0.68941,44
0.74206,45
0.9408,46
1.1327,47
1.3907,48
1.7723,49
2.6392,50
3.3081,51
4.219,52
3.4021,53
-6.3292,54
-0.085723,55
5.4531,56
8.1521,57
7.7474,58
-10.311,59
-6.0256,60
6.4472,61
12.721,62
9.3317,63
-7.5302,64
-9.5585,65
5.2039,66
17.645,67
8.8003,68
-1.8512,69
-6.166,70
1.4804,71
15.901,72
8.2763,73
3.4301,74
1.9069,75
2.6844,76
0.16101,77
1.6854,78
5.6782,79
8.2808,80
6.9829,81
-11.213,82
-8.6197,83
5.4283,84
13.801,85
8.6052,86
-6.1429,87
-10.107,88
2.6161,89
17.608,90
7.7694,91
-1.8649,92
-6.4186,93
-1.2134,94
14.835,95
5.6929,96
-0.36781,97
-2.5411,98
-2.3768,99
4.5691,100
1.9457,101
-0.66245,102
-1.1144,103
-1.0251,104
-0.57844,105
-0.55541,106
-0.61223,107
-0.69094,108
-0.7435,109
-0.94344,110
-1.1325,111
-1.395,112
-1.772,113
-2.6499,114
-3.3016,115
-4.2377,116
-3.3469,117
6.3562,118
0.017454,119
-5.4521,120
-8.188,121
-7.6629,122
10.395,123
5.9268,124
-6.4873,125
-12.751,126
-9.2358,127
7.6173,128
9.5092,129
-5.3132,130
-17.654,131
-8.6977,132
1.891,133
6.1876,134
-1.5917,135
-15.91,136
-8.2062,137
-3.4144,138
-1.8971,139
-2.6794,140
-0.13588,141
-1.715,142
-5.6815,143
-8.3055,144
-6.8972,145
11.306,146
8.5278,147
-5.4901,148
-13.826,149
-8.5063,150
6.2148,151
10.089,152
-2.7412,153
-17.621,154
-7.6648,155
1.8914,156
6.4544,157
1.1013,158
-14.856,159
-5.6051,160
0.37337,161
2.5688,162
2.3394,163
-4.5869,164
-1.9102,165
0.66569,166
1.1211,167
1.0212,168
0.58041,169
0.55619,170
0.61504,171
0.69257,172
0.74552,173
0.94714,174
1.1338,175
1.4009,176
1.7737,177
2.6631,178
3.2982,179
4.26,180
3.2953,181
-6.3777,182
0.055375,183
5.4559,184
8.2293,185
7.5833,186
-10.471,187
-5.821,188
6.5342,189
12.788,190
9.147,191
-7.6953,192
-9.4504,193
5.4314,194
17.672,195
8.6046,196
-1.9209,197
-6.1988,198
1.7137,199
15.927,200
8.1469,201
3.4091,202
1.8977,203
2.6845,204
0.12145,205
1.7549,206
5.6947,207
8.34,208
6.8201,209
-11.388,210
-8.4261,211
5.5611,212
13.86,213
8.4157,214
-6.278,215
-10.063,216
2.8743,217
17.641,218
7.5671,219
-1.9117,220
-6.4841,221
-0.98312,222
14.88,223
5.522,224
-0.3752,225
-2.5933,226
-2.2988,227
4.6066,228
1.8769,229
-0.66702,230
-1.1263,231
-1.0163,232
-0.5818,233
-0.55653,234
-0.61745,235
-0.69408,236
-0.74794,237
-0.95172,238
-1.1361,239
-1.4078,240
-1.7766,241
-2.6779,242
-3.2966,243
-4.2844,244
-3.2448,245
6.3963,246
-0.13002,247
-5.4617,248
-8.2727,249
-7.5045,250
10.544,251
5.7135,252
-6.5821,253
-12.826,254
-9.0585,255
7.7717,256
9.3904,257
-5.5497,258
-17.688,259
-8.5113,260
1.951,261
6.2102,262
-1.8351,263
-15.943,264
-8.0863,265
-3.4019,266
-1.8964,267
-2.6869,268
-0.10452,269
-1.7919,270
-5.7047,271
-8.3711,272
-6.7384,273
11.472,274
8.328,275
-5.6277,276
-13.888,277
-8.3203,278
6.3448,279
10.04,280
-3.0031,281
-17.655,282
-7.4653,283
1.9359,284
6.5175,285
0.86802,286
-14.899,287
-5.4359,288
0.3802,289
2.6207,290
2.2603,291
-4.6234,292
-1.8416,293
0.67037,294
1.1332,295
1.0126,296
0.58383,297
0.55731,298
0.62021,299
0.69557,300
0.74964,301
0.95491,302
1.1366,303
1.4128,304
1.7772,305
2.6897,306
3.2913,307
4.3046,308
3.1892,309
-6.4189,310
0.19926,311
5.462,312
8.3103,313
7.4183,314
-10.622,315
-5.6124,316
6.623,317
12.856,318
8.962,319
-7.8549,320
-9.3373,321
5.6603,322
17.695,323
8.4103,324
-1.9888,325
-6.2291,326
1.949,327
15.948,328
8.0183,329
3.3871,330
1.8878,331
2.6816,332
0.0806,333
1.8221,334
5.7079,335
8.3959,336
6.6494,337
-11.561,338
-8.2352,339
5.6885,340
13.911,341
8.2196,342
-6.4157,343
-10.021,344
3.1281,345
17.664,346
7.3605,347
-1.9627,348
-6.553,349
-0.75449,350
14.914,351
5.3486,352
-0.38632,353
-2.6489,354
-2.2223,355
4.6388,356
1.8058,357
-0.674,358
-1.1403,359
-1.009,360
-0.58602,361
-0.55823,362
-0.6231,363
-0.69718,364
-0.75141,365
-0.95817,366
-1.1372,367
-1.4181,368
-1.7781,369
-2.7018,370
-3.2865,371
-4.3256,372
-3.134,373
6.4392,374
-0.26956,375
-5.4635,376
-8.3496,377
-7.333,378
10.696,379
5.5086,380
-6.6665,381
-12.889,382
-8.8681,383
7.9335,384
9.2795,385
-5.775,386
-17.706,387
-8.314,388
2.0214,389
6.2423,390
-2.0689,391
-15.959,392
-7.9566,393
-3.3783,394
-1.8855,395
-2.6825,396
-0.063434,397
-1.8589,398
-5.7174,399
-8.4271,400
-6.566,401
11.642,402
8.1355,403
-5.7559,404
-13.94,405
-8.1248,406
6.4798,407
9.9947,408
-3.2594,409
-17.677,410
-7.2614,411
1.9843,412
6.5833,413
0.63563,414
-14.932,415
-5.2656,416
0.38894,417
2.674,418
2.1812,419
-4.6561,420
-1.7723,421
0.67562,422
1.1457,423
1.0044,424
0.5876,425
0.55871,426
0.62561,427
0.69874,428
0.75378,429
0.96258,430
1.1393,431
1.4249,432
1.7808,433
2.7164,434
3.2846,435
4.3497,436
3.0815,437
-6.455,438
0.34327,439
5.4687,440
8.3928,441
7.2506,442
-10.765,443
-5.4005,444
6.7137,445
12.926,446
8.7777,447
-8.0072,448
-9.2169,449
5.8937,450
17.72,451
8.2217,452
-2.0499,453
-6.2512,454
2.1927,455
15.971,456
7.8985,457
3.3725,458
1.8862,459
2.6856,460
0.048914,461
1.8979,462
5.7288,463
8.46,464
6.4829,465
-11.721,466
-8.0344,467
5.8237,468
13.969,469
8.0301,470
-6.5432,471
-9.9679,472
3.3907,473
17.689,474
7.1621,475
-2.0063,476
-6.614,477
-0.51677,478
14.948,479
5.1822,480
-0.39247,481
-2.7,482
-2.1405,483
4.672,484
1.7381,485
-0.67801,486
-1.1519,487
-1.0002,488
-0.58943,489
-0.55935,490
-0.62822,491
-0.70025,492
-0.75574,493
-0.96627,494
-1.1404,495
-1.4305,496
-1.7822,497
-2.7292,498
-3.2805,499
-4.3714,500
-3.0255,501
6.4729,502
-0.41354,503
-5.467,504
-8.4563,505
-7.1319,506
10.785,507
5.3816,508
-6.8805,509
-12.784,510
-8.9638,511
8.6175,512
