-3.6473,1
-4.1897,2
0.043211,3
1.2959,4
2.8474,5
2.1218,6
2.0654,7
2.3854,8
2.4106,9
2.5097,10
2.6924,11
3.0915,12
3.4476,13
3.6574,14
3.763,15
4.1002,16
4.9906,17
6.2685,18
7.6481,19
8.5419,20
9.3986,21
8.8803,22
9.7859,23
11.569,24
13.764,25
14.644,26
17.114,27
12.669,28
2.2862,29
8.7343,30
13.658,31
17.78,32
21.441,33
19.593,34
3.3665,35
-0.93535,36
10.168,37
17.183,38
24.926,39
22.585,40
9.8291,41
0.37676,42
1.6995,43
15.876,44
26.985,45
28.086,46
16.372,47
10.65,48
5.3189,49
10.883,50
27.497,51
29.396,52
21.481,53
17.389,54
14.667,55
13.803,56
14.61,57
13.202,58
13.966,59
15.804,60
16.953,61
19.546,62
13.843,63
-1.5541,64
-1.6204,65
9.5173,66
15.896,67
23.284,68
17.142,69
4.3893,70
-4.3315,71
0.57851,72
14.758,73
24.097,74
19.609,75
7.2363,76
1.4671,77
-3.997,78
3.9942,79
20.424,80
17.25,81
8.4662,82
2.8323,83
-0.085813,84
-2.7625,85
8.5522,86
11.377,87
4.6431,88
2.0382,89
-0.77407,90
-1.796,91
-2.134,92
-1.2267,93
-1.7386,94
-1.7261,95
-1.8106,96
-1.8428,97
-2.0697,98
-2.3427,99
-2.5416,100
-2.6287,101
-2.7723,102
-3.4164,103
-4.4096,104
-5.7819,105
-6.5924,106
-7.667,107
-6.8293,108
-4.8724,109
-7.7369,110
-9.8061,111
-12.156,112
-13.408,113
-14.243,114
-0.90805,115
-1.5164,116
-9.2662,117
-13.496,118
-17.894,119
-19.545,120
-7.1218,121
5.2409,122
-2.0705,123
-12.022,124
-19.237,125
-22.9,126
-11.078,127
-0.95622,128
4.2438,129
-6.677,130
-20.348,131
-26.556,132
-17.426,133
-9.4214,134
-4.8704,135
-3.2447,136
-16.072,137
-24.716,138
-19.089,139
-14.716,140
-12.488,141
-11.397,142
-11.351,143
-8.3501,144
-8.2006,145
-11.726,146
-13.529,147
-16.779,148
-14.971,149
0.21154,150
8.2682,151
-1.9529,152
-11.098,153
-19.123,154
-19.609,155
-6.8113,156
2.7554,157
5.3028,158
-7.7419,159
-20.295,160
-21.766,161
-9.8356,162
-2.5313,163
2.8254,164
2.6895,165
-14.169,166
-18.998,167
-9.7833,168
-3.7747,169
-0.23783,170
2.9697,171
-0.88677,172
-9.5939,173
-4.4623,174
-1.9803,175
0.42686,176
1.2767,177
1.8361,178
1.7368,179
1.6293,180
1.376,181
1.1618,182
1.0382,183
1.1145,184
1.3588,185
1.6159,186
1.7513,187
1.8859,188
2.2615,189
3.235,190
4.3398,191
5.5957,192
6.1445,193
7.0018,194
1.2543,195
2.6881,196
6.3313,197
9.3977,198
10.917,199
13.929,200
3.2724,201
-5.935,202
3.1431,203
8.9228,204
14.055,205
17.964,206
10.046,207
-5.2102,208
-6.4655,209
5.7157,210
13.991,211
21.427,212
13.146,213
2.2986,214
-4.9511,215
-2.1007,216
13.613,217
23.498,218
17.88,219
8.9172,220
5.2325,221
1.5095,222
6.9505,223
15.377,224
14.155,225
11.197,226
10.035,227
9.8827,228
9.5653,229
2.3452,230
-2.2742,231
3.857,232
8.4969,233
12.945,234
15.017,235
3.6226,236
-9.4769,237
-7.2132,238
5.6294,239
14.454,240
19.596,241
8.0453,242
-1.1144,243
-7.8543,244
-3.3847,245
13.215,246
19.436,247
10.647,248
2.4051,249
-1.2738,250
-5.473,251
3.0942,252
15.813,253
8.7149,254
3.9095,255
0.043611,256
-1.6221,257
-2.4593,258
3.7671,259
2.9453,260
0.63697,261
-0.36082,262
-1.1355,263
-1.2052,264
-1.158,265
-0.93986,266
-0.76776,267
-0.59049,268
-0.55069,269
-0.73012,270
-1.1224,271
-1.5542,272
-1.8095,273
-2.0191,274
-2.0896,275
-3.0062,276
-3.7196,277
-5.4063,278
-5.3505,279
-7.6846,280
-0.21487,281
5.7439,282
-1.3037,283
-5.1334,284
-8.8383,285
-12.035,286
-7.0128,287
9.4817,288
7.0438,289
-3.3045,290
-8.9638,291
-15.772,292
-9.8336,293
3.3373,294
12.106,295
5.9024,296
-7.6783,297
-17.144,298
-13.788,299
-2.3177,300
2.739,301
7.2777,302
-2.3059,303
-17.763,304
-16.653,305
-9.0877,306
-5.6682,307
-3.1995,308
-3.0084,309
-3.7246,310
-3.4515,311
-4.8111,312
-6.4296,313
-8.0779,314
-10.026,315
-0.010559,316
13.305,317
8.5047,318
-2.1604,319
-8.7551,320
-15.015,321
-5.7897,322
5.7024,323
12.289,324
3.2556,325
-10.551,326
-18.134,327
-10.475,328
-0.061263,329
4.7356,330
8.9024,331
-2.9296,332
-16.314,333
-9.6353,334
-3.0095,335
1.1513,336
3.4299,337
3.6448,338
-7.946,339
-6.6497,340
-2.1398,341
-0.061968,342
1.5978,343
1.9337,344
1.9151,345
1.5525,346
1.3419,347
1.0515,348
0.73141,349
0.38417,350
0.10866,351
-0.04868,352
-0.1826,353
-0.2064,354
-0.24891,355
0.2936,356
0.72741,357
1.8843,358
1.8105,359
3.3971,360
-1.5131,361
-4.5353,362
0.17737,363
2.7838,364
5.2002,365
7.5345,366
4.1385,367
-11.464,368
-7.5987,369
0.82262,370
5.5374,371
11.135,372
7.6182,373
-7.1193,374
-15.783,375
-6.6694,376
4.1716,377
12.777,378
10.825,379
-1.9188,380
-8.8866,381
-13.064,382
-1.3086,383
13.65,384
13.195,385
3.8482,386
-0.55545,387
-4.083,388
-3.8081,389
2.8625,390
4.9339,391
3.0254,392
2.7675,393
2.7996,394
4.1733,395
-2.4094,396
-12.301,397
-7.9579,398
-0.1965,399
4.4465,400
9.8769,401
1.7208,402
-11.33,403
-17.582,404
-7.2448,405
4.8715,406
13.083,407
6.4208,408
-4.466,409
-10.068,410
-12.806,411
1.0719,412
14.034,413
8.4217,414
0.51878,415
-3.6277,416
-6.4653,417
-5.7754,418
8.6028,419
7.3224,420
1.6651,421
-1.0503,422
-3.0301,423
-3.6786,424
-2.8943,425
-1.931,426
-2.3031,427
-2.1463,428
-1.9379,429
-1.3498,430
-0.71097,431
-0.13393,432
0.24654,433
0.44413,434
0.58308,435
0.44308,436
0.31416,437
-0.20251,438
-0.14335,439
-0.8659,440
1.393,441
2.4898,442
0.21159,443
-1.443,444
-2.5355,445
-4.2878,446
-0.61678,447
13.781,448
8.9742,449
1.8686,450
-2.5986,451
-7.216,452
-5.2969,453
10.143,454
18.47,455
8.5046,456
-0.68259,457
-8.6449,458
-7.516,459
5.6644,460
14.225,461
17.578,462
4.8794,463
-8.7943,464
-9.7597,465
0.71063,466
5.8579,467
10.273,468
9.2327,469
-0.16399,470
-2.4597,471
0.8694,472
2.1703,473
2.7819,474
2.0023,475
7.2729,476
15.331,477
11.552,478
4.9327,479
0.97727,480
-3.9955,481
3.4551,482
17.381,483
22.499,484
11.046,485
0.29918,486
-8.0076,487
-1.6587,488
9.4311,489
15.486,490
17.521,491
3.1849,492
-9.5683,493
-4.665,494
3.769,495
7.7662,496
10.942,497
9.3862,498
-5.5668,499
-3.7194,500
1.6363,501
4.3888,502
5.8998,503
6.7104,504
4.1262,505
2.0045,506
3.4023,507
3.5545,508
3.7404,509
3.1859,510
2.3903,511
1.72,512
