-4.2435,1
2.616,2
16.131,3
9.5584,4
-2.5489,5
-8.6343,6
0.030729,7
16.713,8
9.8897,9
-0.27375,10
-5.4349,11
-1.8444,12
15.704,13
9.5617,14
0.3725,15
-2.9048,16
-3.542,17
10.065,18
7.0765,19
-0.36882,20
-1.9435,21
-3.2507,22
3.9525,23
3.9082,24
-0.11651,25
-0.97261,26
-1.1332,27
-0.041139,28
0.2309,29
0.17845,30
0.094196,31
0.3112,32
0.49305,33
0.44694,34
0.24917,35
-0.037042,36
-0.5338,37
-1.1087,38
-1.3824,39
-1.1093,40
-0.94996,41
-1.5226,42
-2.7215,43
-3.1092,44
-3.1068,45
-0.34725,46
-0.65296,47
-4.4687,48
-4.9597,49
-6.9576,50
1.3503,51
4.319,52
-4.8837,53
-6.6903,54
-10.885,55
0.45198,56
8.8553,57
-3.1054,58
-7.7188,59
-12.644,60
-1.432,61
11.785,62
1.1954,63
-8.397,64
-13.667,65
-3.4556,66
10.044,67
3.5576,68
-10.606,69
-16.806,70
-6.3254,71
4.6777,72
4.9663,73
-10.945,74
-18.653,75
-7.2507,76
-0.52043,77
3.4288,78
-8.1585,79
-16.812,80
-8.1199,81
-4.3704,82
-1.593,83
-4.7194,84
-8.1469,85
-6.4239,86
-5.7373,87
-6.4393,88
-4.1222,89
2.6243,90
-1.8412,91
-6.0431,92
-9.8912,93
-5.568,94
10.898,95
4.3286,96
-6.5178,97
-13.241,98
-8.5137,99
7.5098,100
6.6862,101
-6.8436,102
-16.408,103
-9.3463,104
3.8459,105
7.9173,106
-4.3921,107
-17.906,108
-8.3246,109
1.1366,110
6.4968,111
-1.0903,112
-17.18,113
-7.899,114
-0.19674,115
3.9089,116
1.6511,117
-12.502,118
-6.1953,119
0.21385,120
2.4412,121
2.474,122
-5.5622,123
-3.2032,124
0.53888,125
1.5157,126
1.3566,127
0.29024,128
0.0057923,129
0.054427,130
-0.0025969,131
-0.33731,132
-0.59114,133
-0.5385,134
-0.29984,135
0.020912,136
0.50132,137
0.99641,138
1.1719,139
0.90961,140
0.84691,141
1.5567,142
2.5861,143
2.9328,144
2.6257,145
-0.23391,146
1.0978,147
4.4113,148
4.9876,149
6.3191,150
-3.2904,151
-3.1261,152
5.3199,153
6.9895,154
10.417,155
-3.5232,156
-7.7402,157
4.0913,158
8.0129,159
12.161,160
-2.1733,161
-11.43,162
0.67615,163
9.6142,164
12.895,165
-0.31755,166
-10.876,167
-2.5925,168
12.08,169
15.183,170
3.0618,171
-5.9233,172
-4.4192,173
13.012,174
16.423,175
4.713,176
-0.43841,177
-3.5984,178
8.6033,179
13.398,180
5.736,181
3.3576,182
1.5938,183
3.8477,184
3.9429,185
4.3974,186
4.6994,187
6.592,188
1.2634,189
-6.6627,190
0.95959,191
5.7597,192
10.504,193
2.5023,194
-12.175,195
-3.6178,196
7.4921,197
13.466,198
4.3346,199
-9.3802,200
-6.6359,201
8.1948,202
15.971,203
5.2069,204
-5.1131,205
-8.518,206
5.5591,207
16.424,208
4.4511,209
-1.759,210
-6.7629,211
2.6571,212
15.087,213
4.0938,214
-0.61601,215
-4.6801,216
-0.15404,217
10.032,218
2.6878,219
-1.09,220
-3.0942,221
-1.8013,222
2.4252,223
0.64127,224
-0.7845,225
-1.034,226
-0.40669,227
0.2905,228
0.36796,229
0.12216,230
0.012553,231
0.036975,232
0.015038,233
-0.048646,234
-0.092329,235
-0.32644,236
-0.91575,237
-1.4763,238
-1.5633,239
-1.2187,240
-1.1655,241
-2.1232,242
-3.0553,243
-3.5568,244
-2.6564,245
4.2581,246
0.16291,247
-4.4834,248
-6.3756,249
-6.6761,250
7.3568,251
3.8909,252
-4.9877,253
-8.1115,254
-9.5753,255
7.8387,256
9.0126,257
-3.1526,258
-9.4254,259
-9.994,260
6.441,261
11.507,262
-0.94059,263
-12.776,264
-11.069,265
2.414,266
9.49,267
2.3296,268
-14.775,269
-12.516,270
-1.3715,271
4.1384,272
3.0771,273
-14.114,274
-12.513,275
-4.0698,276
-1.3162,277
0.002384,278
-5.2082,279
-5.6259,280
-4.3529,281
-4.1737,282
-5.0949,283
1.3646,284
4.3261,285
-2.8897,286
-5.8559,287
-9.6075,288
3.5728,289
12.44,290
0.25998,291
-8.6668,292
-12.262,293
0.5605,294
11.203,295
3.9253,296
-11.129,297
-13.37,298
-0.72685,299
7.8016,300
6.7544,301
-10.969,302
-14.595,303
-1.949,304
3.2656,305
6.7528,306
-8.5151,307
-13.308,308
-1.4808,309
1.1978,310
5.3564,311
-3.7245,312
-9.1211,313
-0.66035,314
1.2825,315
3.5789,316
0.14821,317
-3.2253,318
-0.15714,319
0.89148,320
1.252,321
0.45689,322
-0.0055593,323
-0.10131,324
0.045481,325
0.014134,326
-0.018615,327
0.026438,328
0.078603,329
0.14679,330
0.52389,331
1.1939,332
1.7604,333
1.6866,334
1.506,335
1.5132,336
2.9237,337
3.2452,338
4.5104,339
0.73284,340
-4.8752,341
2.1858,342
4.6944,343
8.1925,344
3.3816,345
-9.7401,346
-0.57172,347
5.8469,348
10.549,349
6.3231,350
-11.046,351
-5.0469,352
5.7938,353
12.229,354
7.0247,355
-9.1169,356
-9.0022,357
4.8959,358
15.203,359
7.8939,360
-3.9406,361
-8.1355,362
3.8268,363
17.712,364
8.8445,365
0.92036,366
-3.6607,367
1.1557,368
13.002,369
8.164,370
3.8191,371
2.0511,372
2.3319,373
3.5546,374
3.9428,375
4.8643,376
6.1815,377
5.5154,378
-6.3392,379
-4.2784,380
4.2636,381
9.0047,382
9.0928,383
-7.6991,384
-9.3452,385
3.5864,386
13,387
10.762,388
-3.8131,389
-9.674,390
0.71716,391
15.652,392
10.602,393
-1.2184,394
-7.2245,395
-3.1251,396
15.196,397
10.897,398
0.82567,399
-2.9857,400
-3.6549,401
11.794,402
8.8956,403
0.366,404
-1.6283,405
-3.7043,406
4.6395,407
4.5554,408
-0.2446,409
-1.2637,410
-1.7001,411
-0.66952,412
-0.40101,413
-0.28092,414
-0.19063,415
0.20585,416
0.53548,417
0.58369,418
0.40759,419
0.1225,420
-0.34153,421
-0.88265,422
-1.2441,423
-1.132,424
-1.1556,425
-1.6424,426
-2.8083,427
-3.0856,428
-3.5324,429
0.53752,430
0.3926,431
-4.4065,432
-5.0078,433
-7.8354,434
2.4139,435
6.3595,436
-4.1489,437
-6.7216,438
-11.459,439
0.65755,440
10.514,441
-1.5357,442
-8.0621,443
-12.735,444
-0.70105,445
11.639,446
2.1154,447
-10.394,448
-14.758,449
-3.1224,450
7.6623,451
5.1515,452
-11.562,453
-16.819,454
-4.9814,455
1.4617,456
4.7609,457
-9.9173,458
-16.662,459
-6.726,460
-3.4685,461
-0.79135,462
-4.7238,463
-6.5315,464
-5.4135,465
-5.1495,466
-6.4278,467
-2.57,468
5.255,469
-1.26,470
-6.0227,471
-10.558,472
-3.3758,473
11.911,474
3.9115,475
-7.5029,476
-13.986,477
-5.5375,478
8.3012,479
7.0746,480
-7.8452,481
-16.436,482
-5.5963,483
4.0797,484
8.1892,485
-4.9526,486
-16.721,487
-5.0581,488
0.7084,489
5.6465,490
-2.3523,491
-14.908,492
-4.7774,493
-0.083553,494
3.5069,495
0.847,496
-7.1006,497
-1.9765,498
0.87362,499
2.1197,500
1.521,501
-0.090594,502
0.037815,503
0.38428,504
0.25693,505
-0.10644,506
-0.41245,507
-0.38009,508
-0.24003,509
0.086856,510
0.44684,511
1.0315,512
