-7.9988,1
-27.007,2
-40.766,3
-32.103,4
-21.624,5
-15.423,6
-17.056,7
-27.431,8
-21.92,9
-15.796,10
-12.346,11
-10.154,12
-8.9266,13
-8.0994,14
-7.6791,15
-7.4983,16
-5.7993,17
7.3258,18
8.6486,19
1.4911,20
-1.4487,21
-1.971,22
19.232,23
24.196,24
11.325,25
4.0062,26
2.8924,27
22.554,28
32.349,29
20.53,30
7.8532,31
8.7598,32
26.29,33
37.952,34
31.062,35
13.39,36
14.425,37
30.175,38
40.809,39
40.685,40
21.063,41
21.443,42
36.079,43
43.287,44
48.3,45
31.045,46
28.396,47
41.653,48
45.943,49
52.544,50
40.446,51
36.054,52
46.704,53
49.381,54
54.741,55
49.979,56
46.225,57
52.175,58
53.907,59
56.493,60
56.166,61
55.661,62
57.186,63
57.915,64
58.596,65
58.996,66
59.391,67
59.6,68
59.82,69
60.026,70
60.267,71
60.494,72
60.687,73
60.869,74
61.082,75
61.304,76
61.554,77
61.728,78
61.994,79
62.124,80
62.481,81
62.501,82
63.088,83
61.996,84
59.558,85
61.752,86
62.066,87
63.697,88
61.391,89
52.252,90
57.205,91
59.754,92
62.546,93
60.635,94
44.828,95
50.253,96
56.717,97
60.399,98
59.742,99
39.193,100
41.165,101
52.154,102
57.881,103
56.742,104
35.254,105
31.99,106
45.458,107
55.087,108
53.084,109
33.777,110
25.487,111
37.215,112
51.906,113
47.616,114
31.242,115
21.349,116
27.841,117
46.768,118
41.536,119
27.603,120
19.305,121
19.387,122
38.322,123
35.208,124
23.431,125
17.52,126
14.476,127
22.669,128
21.575,129
15.689,130
12.672,131
10.617,132
6.1848,133
3.4676,134
5.836,135
5.9698,136
7.268,137
-5.5311,138
-13.973,139
-4.8236,140
-0.56488,141
3.334,142
-12.588,143
-27.827,144
-16.93,145
-6.5721,146
-2.3112,147
-17.483,148
-33.578,149
-27.847,150
-12.112,151
-7.9108,152
-22.889,153
-36.782,154
-37.759,155
-19.921,156
-13.362,157
-28.371,158
-38.723,159
-45.012,160
-29.462,161
-20.703,162
-35.396,163
-41.931,164
-49.779,165
-39.871,166
-29.272,167
-41.417,168
-45.957,169
-52.195,170
-48.667,171
-39.862,172
-47.456,173
-50.763,174
-54.24,175
-54.324,176
-50.708,177
-53.623,178
-55.423,179
-56.722,180
-57.518,181
-58.161,182
-58.522,183
-58.819,184
-59.076,185
-59.355,186
-59.621,187
-59.836,188
-60.028,189
-60.248,190
-60.504,191
-60.769,192
-61.002,193
-61.235,194
-61.466,195
-61.745,196
-61.981,197
-62.288,198
-62.339,199
-61.555,200
-62.278,201
-62.727,202
-63.325,203
-62.87,204
-53.968,205
-56.588,206
-60.268,207
-61.683,208
-62.869,209
-46.928,210
-47.939,211
-56.493,212
-59.135,213
-61.949,214
-42.781,215
-39.951,216
-51.95,217
-57.196,218
-59.486,219
-39.547,220
-31.533,221
-44.573,222
-54.563,223
-55.994,224
-38.162,225
-25.863,226
-34.664,227
-50.639,228
-50.715,229
-34.644,230
-23.037,231
-25.376,232
-44.905,233
-45.052,234
-30.148,235
-21.554,236
-18.151,237
-35.101,238
-36.293,239
-24.179,240
-18.655,241
-14.106,242
-19.875,243
-20.19,244
-15.319,245
-12.65,246
-11.148,247
-6.5795,248
-1.7304,249
-4.9567,250
-5.6177,251
-7.9733,252
3.6096,253
17.661,254
8.5538,255
2.0328,256
-2.7155,257
9.9419,258
28.922,259
22.275,260
9.2296,261
2.6662,262
14.485,263
32.308,264
32.23,265
16.252,266
7.6851,267
20.916,268
34.826,269
40.483,270
25.547,271
14.084,272
28.239,273
37.869,274
46.056,275
35.863,276
22.652,277
35.645,278
42.213,279
49.382,280
45.318,281
32.804,282
41.975,283
47.087,284
51.555,285
51.974,286
44.574,287
48.879,288
52.25,289
54.318,290
55.659,291
55.522,292
56.366,293
57.136,294
57.635,295
58.096,296
58.47,297
58.762,298
58.988,299
59.243,300
59.535,301
59.839,302
60.109,303
60.354,304
60.62,305
60.919,306
61.222,307
61.521,308
61.779,309
62.1,310
62.349,311
62.696,312
62.93,313
63.082,314
56.139,315
57.522,316
60.927,317
61.738,318
63.568,319
50.077,320
50.095,321
57.939,322
59.647,323
63.338,324
45.835,325
41.04,326
52.901,327
57.374,328
61.094,329
42.643,330
31.858,331
44.342,332
54.37,333
56.96,334
39.84,335
26.576,336
35.106,337
50.813,338
52.299,339
36.385,340
24.129,341
25.009,342
44.278,343
46.56,344
31.448,345
22.811,346
18.161,347
35.3,348
38.876,349
25.9,350
20.173,351
14.963,352
20.286,353
21.289,354
16.364,355
13.515,356
12.076,357
6.5929,358
-0.65184,359
3.4144,360
5.1464,361
7.947,362
-1.6724,363
-17.652,364
-9.7485,365
-2.1173,366
3.0877,367
-7.6874,368
-27.668,369
-22.47,370
-9.1294,371
-2.0682,372
-13.58,373
-31.273,374
-33.498,375
-17.884,376
-7.7834,377
-20.73,378
-34.065,379
-41.034,380
-27.78,381
-14.621,382
-28.259,383
-37.578,384
-45.886,385
-39.138,386
-24.78,387
-36.226,388
-42.78,389
-48.923,390
-47.671,391
-35.883,392
-42.948,393
-47.945,394
-51.476,395
-52.733,396
-47.883,397
-50.804,398
-53.333,399
-54.821,400
-55.92,401
-56.664,402
-57.171,403
-57.507,404
-57.834,405
-58.17,406
-58.512,407
-58.79,408
-59.034,409
-59.309,410
-59.635,411
-59.977,412
-60.29,413
-60.581,414
-60.889,415
-61.227,416
-61.553,417
-61.923,418
-62.04,419
-59.254,420
-60.248,421
-61.865,422
-62.362,423
-63.326,424
-52.885,425
-53.801,426
-59.533,427
-60.633,428
-63.724,429
-47.682,430
-44.933,431
-55.4,432
-58.414,433
-62.369,434
-43.76,435
-35.935,436
-48.881,437
-56.18,438
-59.238,439
-41.349,440
-28.755,441
-39.341,442
-52.915,443
-54.654,444
-38.366,445
-25.25,446
-28.965,447
-47.514,448
-49.325,449
-33.965,450
-23.879,451
-21.096,452
-40.303,453
-43.355,454
-29.088,455
-22.182,456
-16.616,457
-24.446,458
-26.115,459
-19.244,460
-15.738,461
-13.361,462
-9.6957,463
-5.5835,464
-7.8566,465
-8.0035,466
-10.073,467
0.20652,468
15.117,469
6.5229,470
0.18739,471
-4.8315,472
6.5553,473
26.041,474
19.081,475
6.6982,476
0.22761,477
12.025,478
30.12,479
30.602,480
14.667,481
6.3095,482
20.148,483
33.377,484
39.863,485
25.588,486
13.777,487
28.032,488
36.916,489
45.235,490
37.167,491
23.872,492
35.971,493
42.006,494
48.44,495
46.152,496
34.948,497
42.623,498
47.262,499
50.911,500
52.045,501
48.325,502
51.02,503
53.254,504
54.412,505
55.765,506
55.843,507
57.364,508
56.067,509
58.978,510
55.206,511
63.259,512
