33.312,1
69.049,2
60.793,3
65.385,4
62.546,5
64.52,6
62.838,7
60.517,8
61.297,9
62.438,10
62.866,11
62.245,12
46.166,13
48.63,14
55.284,15
58.302,16
56.896,17
34.616,18
31.58,19
43.776,20
52.298,21
46.618,22
27.794,23
18.199,24
27.532,25
43.314,26
33.773,27
20.578,28
12.18,29
12.262,30
21.238,31
15.262,32
9.3145,33
5.8311,34
2.075,35
-12.077,36
-13.101,37
-7.4765,38
-4.3925,39
-8.4713,40
-30.964,41
-36.722,42
-24.325,43
-13.642,44
-21.437,45
-38.308,46
-48.216,47
-41.432,48
-24.496,49
-34.76,50
-45.874,51
-53.275,52
-54.146,53
-40.948,54
-47.8,55
-54.142,56
-57.664,57
-60.073,58
-58.274,59
-59.648,60
-61.394,61
-62.184,62
-62.824,63
-63.139,64
-63.374,65
-63.508,66
-63.574,67
-63.669,68
-63.609,69
-63.808,70
-63.237,71
-60.227,72
-61.435,73
-62.341,74
-62.892,75
-62.175,76
-46.092,77
-48.704,78
-55.291,79
-58.341,80
-56.802,81
-34.492,82
-31.65,83
-43.841,84
-52.331,85
-46.51,86
-27.692,87
-18.187,88
-27.656,89
-43.34,90
-33.663,91
-20.523,92
-12.129,93
-12.323,94
-21.248,95
-15.207,96
-9.2866,97
-5.8197,98
-2.0127,99
12.153,100
13.054,101
7.4612,102
4.3681,103
8.575,104
31.092,105
36.672,106
24.238,107
13.615,108
21.551,109
38.392,110
48.251,111
41.307,112
24.468,113
34.871,114
45.908,115
53.337,116
54.071,117
40.918,118
47.875,119
54.156,120
57.696,121
60.067,122
58.269,123
59.665,124
61.399,125
62.19,126
62.826,127
63.142,128
63.374,129
63.51,130
63.573,131
63.67,132
63.607,133
63.812,134
63.221,135
60.215,136
61.455,137
62.331,138
62.918,139
62.105,140
46.02,141
48.777,142
55.297,143
58.379,144
56.707,145
34.369,146
31.721,147
43.906,148
52.362,149
46.401,150
27.59,151
18.176,152
27.78,153
43.365,154
33.553,155
20.468,156
12.079,157
12.385,158
21.258,159
15.153,160
9.2588,161
5.8085,162
1.9498,163
-12.229,164
-13.007,165
-7.446,166
-4.3439,167
-8.6798,168
-31.219,169
-36.622,170
-24.15,171
-13.59,172
-21.664,173
-38.475,174
-48.285,175
-41.181,176
-24.441,177
-34.981,178
-45.943,179
-53.398,180
-53.995,181
-40.888,182
-47.949,183
-54.17,184
-57.727,185
-60.061,186
-58.265,187
-59.681,188
-61.405,189
-62.196,190
-62.828,191
-63.145,192
-63.374,193
-63.511,194
-63.572,195
-63.672,196
-63.605,197
-63.816,198
-63.205,199
-60.204,200
-61.475,201
-62.321,202
-62.943,203
-62.033,204
-45.948,205
-48.85,206
-55.304,207
-58.418,208
-56.61,209
-34.248,210
-31.793,211
-43.971,212
-52.393,213
-46.292,214
-27.489,215
-18.166,216
-27.905,217
-43.389,218
-33.444,219
-20.414,220
-12.03,221
-12.447,222
-21.266,223
-15.098,224
-9.2309,225
-5.7974,226
-1.8861,227
12.304,228
12.959,229
7.431,230
4.3199,231
8.7857,232
31.346,233
36.57,234
24.063,235
13.565,236
21.778,237
38.557,238
48.319,239
41.055,240
24.416,241
35.091,242
45.977,243
53.459,244
53.918,245
40.86,246
48.023,247
54.183,248
57.758,249
60.054,250
58.26,251
59.697,252
61.41,253
62.202,254
62.829,255
63.147,256
63.374,257
63.513,258
63.571,259
63.674,260
63.604,261
63.82,262
63.189,263
60.193,264
61.495,265
62.31,266
62.969,267
61.961,268
45.878,269
48.923,270
55.31,271
58.456,272
56.512,273
34.127,274
31.865,275
44.036,276
52.424,277
46.182,278
27.388,279
18.156,280
28.03,281
43.411,282
33.334,283
20.359,284
11.981,285
12.51,286
21.274,287
15.044,288
9.2031,289
5.7865,290
1.8218,291
-12.378,292
-12.911,293
-7.416,294
-4.296,295
-8.8927,296
-31.471,297
-36.518,298
-23.976,299
-13.541,300
-21.893,301
-38.64,302
-48.352,303
-40.928,304
-24.393,305
-35.201,306
-46.011,307
-53.519,308
-53.84,309
-40.833,310
-48.097,311
-54.197,312
-57.789,313
-60.047,314
-58.256,315
-59.714,316
-61.415,317
-62.208,318
-62.831,319
-63.15,320
-63.374,321
-63.515,322
-63.571,323
-63.676,324
-63.602,325
-63.824,326
-63.173,327
-60.182,328
-61.515,329
-62.299,330
-62.995,331
-61.887,332
-45.809,333
-48.996,334
-55.316,335
-58.494,336
-56.413,337
-34.007,338
-31.938,339
-44.101,340
-52.454,341
-46.072,342
-27.288,343
-18.147,344
-28.155,345
-43.432,346
-33.224,347
-20.305,348
-11.932,349
-12.574,350
-21.281,351
-14.99,352
-9.1752,353
-5.7756,354
-1.7567,355
12.451,356
12.863,357
7.4012,358
4.2724,359
9.0007,360
31.595,361
36.465,362
23.889,363
13.518,364
22.008,365
38.722,366
48.384,367
40.8,368
24.371,369
35.31,370
46.044,371
53.58,372
53.762,373
40.807,374
48.171,375
54.21,376
57.821,377
60.04,378
58.252,379
59.73,380
61.42,381
62.214,382
62.832,383
63.153,384
63.374,385
63.517,386
63.57,387
63.677,388
63.6,389
63.828,390
63.156,391
60.171,392
61.535,393
62.289,394
63.021,395
61.812,396
45.741,397
49.069,398
55.322,399
58.532,400
56.312,401
33.889,402
32.012,403
44.165,404
52.483,405
45.96,406
27.188,407
18.14,408
28.281,409
43.452,410
33.114,411
20.251,412
11.883,413
12.638,414
21.286,415
14.936,416
9.1475,417
5.7649,418
1.691,419
-12.524,420
-12.814,421
-7.3866,422
-4.249,423
-9.1098,424
-31.719,425
-36.411,426
-23.801,427
-13.497,428
-22.123,429
-38.803,430
-48.415,431
-40.672,432
-24.351,433
-35.419,434
-46.078,435
-53.64,436
-53.682,437
-40.783,438
-48.244,439
-54.224,440
-57.852,441
-60.032,442
-58.249,443
-59.746,444
-61.425,445
-62.221,446
-62.834,447
-63.156,448
-63.374,449
-63.519,450
-63.569,451
-63.679,452
-63.598,453
-63.832,454
-63.14,455
-60.161,456
-61.555,457
-62.278,458
-63.048,459
-61.737,460
-45.675,461
-49.142,462
-55.328,463
-58.571,464
-56.211,465
-33.772,466
-32.086,467
-44.23,468
-52.511,469
-45.849,470
-27.089,471
-18.133,472
-28.407,473
-43.47,474
-33.004,475
-20.198,476
-11.835,477
-12.703,478
-21.291,479
-14.883,480
-9.1197,481
-5.7543,482
-1.6246,483
12.595,484
12.766,485
7.372,486
4.2258,487
9.2199,488
31.841,489
36.357,490
23.714,491
13.475,492
22.238,493
38.885,494
48.446,495
40.543,496
24.332,497
35.529,498
46.112,499
53.7,500
53.602,501
40.76,502
48.317,503
54.324,504
57.765,505
60.304,506
57.832,507
60.48,508
60.366,509
63.941,510
60.063,511
68.693,512
