-13.696,1
-17.882,2
-2.2553,3
-12.99,4
-26.193,5
-36.543,6
-32.965,7
-17.546,8
-26.818,9
-36.294,10
-42.434,11
-45.304,12
-36.492,13
-41.14,14
-46.383,15
-49.362,16
-51.745,17
-53.306,18
-54.582,19
-55.497,20
-56.363,21
-57.119,22
-57.881,23
-58.549,24
-59.248,25
-59.88,26
-60.636,27
-61.199,28
-62.135,29
-61.889,30
-55.78,31
-58.587,32
-61.409,33
-63.194,34
-63.169,35
-45.153,36
-46.797,37
-55.866,38
-60.916,39
-59.074,40
-38.909,41
-33.961,42
-46.202,43
-57.208,44
-50.759,45
-35.262,46
-26.022,47
-32.494,48
-49.073,49
-40.142,50
-29.76,51
-23.042,52
-21.151,53
-22.421,54
-18.938,55
-17.137,56
-15.686,57
-12.984,58
5.5389,59
8.0079,60
-0.60166,61
-5.8474,62
-2.0082,63
18.016,64
26.172,65
15.482,66
3.2649,67
12.158,68
26.508,69
36.105,70
33.016,71
17.298,72
26.748,73
36.13,74
42.305,75
45.178,76
36.369,77
41.02,78
46.265,79
49.248,80
51.635,81
53.201,82
54.48,83
55.4,84
56.269,85
57.031,86
57.798,87
58.472,88
59.176,89
59.814,90
60.577,91
61.146,92
62.089,93
61.849,94
55.747,95
58.561,96
61.389,97
63.181,98
63.162,99
45.152,100
46.804,101
55.88,102
60.936,103
59.101,104
38.942,105
34.001,106
46.249,107
57.262,108
50.819,109
35.327,110
26.094,111
32.572,112
49.157,113
40.232,114
29.853,115
23.139,116
21.253,117
22.528,118
19.049,119
17.251,120
15.803,121
13.104,122
-5.4165,123
-7.8822,124
0.73101,125
5.9797,126
2.142,127
-17.881,128
-26.035,129
-15.344,130
-3.1247,131
-12.018,132
-26.37,133
-35.967,134
-32.879,135
-17.161,136
-26.613,137
-35.998,138
-42.176,139
-45.051,140
-36.246,141
-40.899,142
-46.148,143
-49.134,144
-51.526,145
-53.096,146
-54.379,147
-55.301,148
-56.175,149
-56.942,150
-57.715,151
-58.394,152
-59.103,153
-59.747,154
-60.516,155
-61.092,156
-62.042,157
-61.808,158
-55.713,159
-58.533,160
-61.369,161
-63.167,162
-63.155,163
-45.152,164
-46.81,165
-55.893,166
-60.956,167
-59.127,168
-38.974,169
-34.04,170
-46.296,171
-57.316,172
-50.878,173
-35.392,174
-26.165,175
-32.65,176
-49.242,177
-40.321,178
-29.946,179
-23.236,180
-21.355,181
-22.634,182
-19.159,183
-17.365,184
-15.92,185
-13.224,186
5.2945,187
7.7568,188
-0.8601,189
-6.1117,190
-2.2756,191
17.747,192
25.899,193
15.205,194
2.9846,195
11.878,196
26.231,197
35.83,198
32.741,199
17.024,200
26.478,201
35.866,202
42.048,203
44.925,204
36.122,205
40.778,206
46.03,207
49.02,208
51.416,209
52.99,210
54.277,211
55.203,212
56.081,213
56.853,214
57.632,215
58.316,216
59.03,217
59.68,218
60.456,219
61.038,220
61.994,221
61.767,222
55.679,223
58.506,224
61.348,225
63.152,226
63.147,227
45.15,228
46.815,229
55.905,230
60.975,231
59.152,232
39.006,233
34.079,234
46.342,235
57.369,236
50.937,237
35.457,238
26.235,239
32.727,240
49.325,241
40.409,242
30.039,243
23.333,244
21.456,245
22.74,246
19.269,247
17.478,248
16.036,249
13.343,250
-5.1728,251
-7.6318,252
0.98892,253
6.2435,254
2.409,255
-17.612,256
-25.764,257
-15.067,258
-2.8446,259
-11.739,260
-26.093,261
-35.693,262
-32.604,263
-16.887,264
-26.344,265
-35.734,266
-41.918,267
-44.799,268
-35.998,269
-40.657,270
-45.912,271
-48.906,272
-51.305,273
-52.884,274
-54.174,275
-55.104,276
-55.986,277
-56.763,278
-57.548,279
-58.238,280
-58.957,281
-59.612,282
-60.394,283
-60.983,284
-61.946,285
-61.725,286
-55.644,287
-58.477,288
-61.326,289
-63.137,290
-63.139,291
-45.149,292
-46.82,293
-55.916,294
-60.993,295
-59.177,296
-39.037,297
-34.117,298
-46.387,299
-57.421,300
-50.996,301
-35.521,302
-26.305,303
-32.803,304
-49.408,305
-40.497,306
-30.131,307
-23.429,308
-21.557,309
-22.846,310
-19.379,311
-17.591,312
-16.152,313
-13.461,314
5.0515,315
7.507,316
-1.1175,317
-6.3751,318
-2.5422,319
17.478,320
25.628,321
14.928,322
2.7046,323
11.599,324
25.955,325
35.555,326
32.467,327
16.75,328
26.209,329
35.602,330
41.789,331
44.672,332
35.874,333
40.536,334
45.794,335
48.791,336
51.195,337
52.778,338
54.072,339
55.005,340
55.891,341
56.673,342
57.463,343
58.158,344
58.883,345
59.544,346
60.332,347
60.928,348
61.897,349
61.683,350
55.608,351
58.448,352
61.304,353
63.122,354
63.129,355
45.146,356
46.824,357
55.927,358
61.011,359
59.201,360
39.068,361
34.154,362
46.432,363
57.473,364
51.053,365
35.584,366
26.374,367
32.88,368
49.491,369
40.584,370
30.222,371
23.525,372
21.657,373
22.951,374
19.488,375
17.703,376
16.268,377
13.58,378
-4.9305,379
-7.3826,380
1.2457,381
6.5064,382
2.6751,383
-17.345,384
-25.492,385
-14.79,386
-2.5648,387
-11.46,388
-25.817,389
-35.418,390
-32.329,391
-16.613,392
-26.074,393
-35.47,394
-41.66,395
-44.545,396
-35.75,397
-40.414,398
-45.676,399
-48.676,400
-51.084,401
-52.671,402
-53.969,403
-54.905,404
-55.795,405
-56.582,406
-57.378,407
-58.079,408
-58.809,409
-59.475,410
-60.27,411
-60.872,412
-61.848,413
-61.64,414
-55.572,415
-58.419,416
-61.281,417
-63.105,418
-63.12,419
-45.143,420
-46.828,421
-55.938,422
-61.028,423
-59.225,424
-39.097,425
-34.191,426
-46.476,427
-57.524,428
-51.111,429
-35.647,430
-26.443,431
-32.955,432
-49.573,433
-40.671,434
-30.314,435
-23.62,436
-21.757,437
-23.056,438
-19.596,439
-17.815,440
-16.383,441
-13.698,442
4.8098,443
7.2584,444
-1.3737,445
-6.6375,446
-2.8079,447
17.211,448
25.357,449
14.652,450
2.425,451
11.32,452
25.679,453
35.281,454
32.192,455
16.476,456
25.939,457
35.338,458
41.53,459
44.418,460
35.625,461
40.293,462
45.557,463
48.561,464
50.973,465
52.564,466
53.865,467
54.805,468
55.699,469
56.492,470
57.293,471
57.999,472
58.734,473
59.406,474
60.207,475
60.816,476
61.798,477
61.597,478
55.535,479
58.389,480
61.258,481
63.089,482
63.11,483
45.139,484
46.831,485
55.948,486
61.045,487
59.248,488
39.127,489
34.227,490
46.519,491
57.575,492
51.167,493
35.709,494
26.511,495
33.03,496
49.654,497
40.758,498
30.404,499
23.715,500
21.857,501
23.16,502
19.704,503
17.897,504
16.555,505
13.705,506
-4.5244,507
-7.4236,508
1.9148,509
6.1148,510
3.9889,511
-19.176,512
