-1.0859,1
-1.9235,2
-1.3989,3
-1.6543,4
-1.6802,5
-1.7958,6
-1.791,7
-2.0841,8
-2.1464,9
-2.6921,10
-2.8609,11
-4.1824,12
-3.9003,13
-6.0443,14
0.047458,15
4.8512,16
-4.7167,17
-6.3979,18
-10.709,19
-1.2481,20
11.577,21
-1.4525,22
-9.7146,23
-14.114,24
-2.6457,25
10.428,26
3.8859,27
-12.656,28
-16.439,29
-2.9539,30
3.5759,31
5.3619,32
-9.5542,33
-14.375,34
-4.7418,35
-2.5368,36
-1.8837,37
-2.1039,38
0.47302,39
-3.7613,40
-5.9025,41
-9.283,42
0.39869,43
14.122,44
2.0964,45
-9.0404,46
-13.411,47
-1.1783,48
9.9308,49
7.424,50
-10.178,51
-15.046,52
-0.90147,53
4.1916,54
7.9197,55
-6.1639,56
-12.347,57
-0.13602,58
1.7011,59
4.597,60
0.084956,61
-3.683,62
0.91028,63
1.7361,64
2.2566,65
1.6305,66
1.5693,67
1.5588,68
1.7409,69
1.7619,70
1.8107,71
2.0797,72
2.1537,73
2.694,74
2.8655,75
4.1903,76
3.9022,77
6.0537,78
-0.12107,79
-4.8112,80
4.7598,81
6.4069,82
10.727,83
1.1191,84
-11.557,85
1.5433,86
9.7514,87
14.107,88
2.5286,89
-10.45,90
-3.792,91
12.748,92
16.384,93
2.8782,94
-3.6013,95
-5.3281,96
9.6679,97
14.319,98
4.7081,99
2.5264,100
1.8911,101
2.0872,102
-0.46916,103
3.7911,104
5.9122,105
9.2927,106
-0.52813,107
-14.117,108
-1.9997,109
9.0935,110
13.387,111
1.0742,112
-9.9628,113
-7.3524,114
10.29,115
14.981,116
0.8307,117
-4.2164,118
-7.9075,119
6.2887,120
12.282,121
0.090273,122
-1.7107,123
-4.6067,124
-0.033539,125
3.6642,126
-0.93165,127
-1.7389,128
-2.2584,129
-1.6283,130
-1.5713,131
-1.5608,132
-1.7431,133
-1.7635,134
-1.813,135
-2.0829,136
-2.1562,137
-2.6987,138
-2.8702,139
-4.1979,140
-3.9043,141
-6.0627,142
0.19477,143
4.7705,144
-4.8022,145
-6.4161,146
-10.745,147
-0.98965,148
11.536,149
-1.6334,150
-9.788,151
-14.1,152
-2.4113,153
10.47,154
3.6979,155
-12.84,156
-16.328,157
-2.8029,158
3.6269,159
5.2934,160
-9.781,161
-14.263,162
-4.6748,163
-2.5159,164
-1.8987,165
-2.0702,166
0.46489,167
-3.8206,168
-5.922,169
-9.3017,170
0.6579,171
14.11,172
1.9033,173
-9.1465,174
-13.362,175
-0.97026,176
9.9942,177
7.2799,178
-10.403,179
-14.915,180
-0.76067,181
4.2413,182
7.8943,183
-6.413,184
-12.216,185
-0.045307,186
1.7205,187
4.6159,188
-0.017876,189
-3.6449,190
0.95269,191
1.7417,192
2.2601,193
1.6261,194
1.5734,195
1.5629,196
1.7453,197
1.7652,198
1.8153,199
2.086,200
2.1587,201
2.7035,202
2.8751,203
4.2055,204
3.9067,205
6.0713,206
-0.26833,207
-4.7288,208
4.8441,209
6.4258,210
10.763,211
0.86012,212
-11.514,213
1.7231,214
9.825,215
14.092,216
2.2942,217
-10.49,218
-3.6031,219
12.932,220
16.271,221
2.7284,222
-3.6522,223
-5.2574,224
9.8936,225
14.206,226
4.6422,227
2.5057,228
1.9066,229
2.0531,230
-0.45995,231
3.8501,232
5.9323,233
9.3103,234
-0.7878,235
-14.102,236
-1.807,237
9.1995,238
13.337,239
0.8667,240
-10.025,241
-7.2065,242
10.515,243
14.848,244
0.69144,245
-4.2664,246
-7.8798,247
6.537,248
12.15,249
0.001139,250
-1.7305,251
-4.6246,252
0.069287,253
3.6253,254
-0.97341,255
-1.7445,256
-2.2617,257
-1.624,258
-1.5754,259
-1.565,260
-1.7475,261
-1.7668,262
-1.8176,263
-2.0891,264
-2.1613,265
-2.7081,266
-2.88,267
-4.213,268
-3.9093,269
-6.0794,270
0.34188,271
4.6864,272
-4.8854,273
-6.4359,274
-10.779,275
-0.7303,276
11.49,277
-1.8122,278
-9.8619,279
-14.083,280
-2.177,281
10.509,282
3.5079,283
-13.023,284
-16.214,285
-2.6544,286
3.6777,287
5.2206,288
-10.006,289
-14.148,290
-4.61,291
-2.4952,292
-1.9144,293
-2.0357,294
0.45471,295
-3.8792,296
-5.9426,297
-9.3181,298
0.91817,299
14.093,300
1.7112,301
-9.2523,302
-13.31,303
-0.76317,304
10.055,305
7.1325,306
-10.626,307
-14.78,308
-0.62275,309
4.2918,310
7.8644,311
-6.6604,312
-12.082,313
0.042408,314
1.7409,315
4.6329,316
-0.12056,317
-3.6051,318
0.9939,319
1.7474,320
2.2632,321
1.622,322
1.5775,323
1.5671,324
1.7497,325
1.7685,326
1.8199,327
2.0922,328
2.1639,329
2.7127,330
2.885,331
4.2202,332
3.9121,333
6.087,334
-0.41547,335
-4.6432,336
4.9259,337
6.4462,338
10.795,339
0.60011,340
-11.465,341
1.9007,342
9.8988,343
14.073,344
2.0597,345
-10.527,346
-3.4124,347
13.113,348
16.155,349
2.5807,350
-3.7033,351
-5.1828,352
10.117,353
14.089,354
4.5781,355
2.4847,356
1.9223,357
2.018,358
-0.44909,359
3.9079,360
5.953,361
9.3252,362
-1.0489,363
-14.082,364
-1.6157,365
9.3049,366
13.283,367
0.6598,368
-10.085,369
-7.0576,370
10.736,371
14.711,372
0.55475,373
-4.3175,374
-7.848,375
6.7834,376
12.013,377
-0.085218,378
-1.7515,379
-4.6407,380
0.17178,381
3.5844,382
-1.0141,383
-1.7504,384
-2.2647,385
-1.62,386
-1.5795,387
-1.5693,388
-1.7518,389
-1.7701,390
-1.8222,391
-2.0952,392
-2.1665,393
-2.7173,394
-2.8902,395
-4.2273,396
-3.9151,397
-6.0941,398
0.48893,399
4.5991,400
-4.966,401
-6.457,402
-10.81,403
-0.46982,404
11.438,405
-1.9887,406
-9.9359,407
-14.062,408
-1.9425,409
10.544,410
3.3163,411
-13.203,412
-16.096,413
-2.5078,414
3.7288,415
5.1439,416
-10.228,417
-14.03,418
-4.547,419
-2.4743,420
-1.9305,421
-2.0002,422
0.44284,423
-3.9367,424
-5.9639,425
-9.3318,426
1.1797,427
14.07,428
1.5204,429
-9.3576,430
-13.254,431
-0.55679,432
10.114,433
6.9818,434
-10.846,435
-14.642,436
-0.48755,437
4.3433,438
7.8304,439
-6.9059,440
-11.944,441
0.12723,442
1.7623,443
4.6481,444
-0.22298,445
-3.5634,446
1.034,447
1.7534,448
2.266,449
1.6181,450
1.5814,451
1.5714,452
1.754,453
1.7718,454
1.8245,455
2.0983,456
2.1692,457
2.7218,458
2.8954,459
4.2343,460
3.9184,461
6.1008,462
-0.5623,463
-4.5542,464
5.0054,465
6.4681,466
10.824,467
0.33934,468
-11.409,469
2.0761,470
9.9731,471
14.05,472
1.8253,473
-10.56,474
-3.2199,475
13.292,476
16.036,477
2.4355,478
-3.7543,479
-5.1041,480
10.338,481
13.97,482
4.5162,483
2.4638,484
1.9387,485
1.982,486
-0.43621,487
3.9651,488
5.9748,489
9.3375,490
-1.3108,491
-14.056,492
-1.4256,493
9.41,494
13.225,495
0.45389,496
-10.143,497
-6.9054,498
10.955,499
14.571,500
0.42095,501
-4.3694,502
-7.8118,503
7.0251,504
11.877,505
-0.17777,506
-1.7594,507
-4.679,508
0.3099,509
3.4842,510
-0.9607,511
-1.9404,512
