9.2422,1
7.3416,2
-12.559,3
-4.5623,4
10.651,5
18.771,6
5.9236,7
-5.5035,8
-8.96,9
9.7411,10
19.463,11
7.4756,12
2.1021,13
-1.6626,14
2.4065,15
3.7991,16
3.5042,17
3.9664,18
6.5751,19
-0.75893,20
-15.168,21
-5.603,22
4.0418,23
10.946,24
0.57366,25
-15.963,26
-12.245,27
5.7901,28
13.487,29
-0.099319,30
-9.4583,31
-14.73,32
1.9115,33
11.385,34
-1.5291,35
-5.5085,36
-10.98,37
-3.9779,38
3.4759,39
-3.4813,40
-5.529,41
-7.4494,42
-7.1586,43
-7.1153,44
-6.6894,45
-6.4922,46
-6.0895,47
-5.7729,48
-5.6733,49
-5.4851,50
-5.6743,51
-5.8059,52
-6.9879,53
-7.2082,54
-8.8914,55
-4.6934,56
-1.1296,57
-7.7241,58
-9.2854,59
-14.108,60
-5.0274,61
9.192,62
-2.6832,63
-10.134,64
-16.75,65
-5.9001,66
11.659,67
4.7541,68
-11.21,69
-18.746,70
-6.1144,71
5.4214,72
8.6899,73
-10.073,74
-19.617,75
-7.6164,76
-2.2757,77
1.4627,78
-2.6438,79
-3.9907,80
-3.7094,81
-4.1614,82
-6.7813,83
0.68827,84
14.995,85
5.3361,86
-4.2718,87
-11.129,88
-0.61682,89
15.85,90
11.997,91
-6.0626,92
-13.599,93
0.049608,94
9.375,95
14.589,96
-2.1804,97
-11.443,98
1.4893,99
5.4425,100
10.921,101
3.8172,102
-3.5164,103
3.4598,104
5.4916,105
7.4176,106
7.1287,107
7.0964,108
6.673,109
6.4795,110
6.0845,111
5.7818,112
5.6952,113
5.514,114
5.71,115
5.8529,116
7.0507,117
7.2806,118
8.9742,119
4.7279,120
1.2452,121
7.8562,122
9.4019,123
14.246,124
5.0141,125
-9.0542,126
2.8938,127
10.302,128
16.899,129
5.9012,130
-11.55,131
-4.508,132
11.454,133
18.877,134
6.1717,135
-5.3101,136
-8.4841,137
10.392,138
19.737,139
7.7255,140
2.4168,141
-1.295,142
2.8478,143
4.1492,144
3.8821,145
4.3246,146
6.9555,147
-0.64944,148
-14.851,149
-5.1002,150
4.4716,151
11.283,152
0.63065,153
-15.763,154
-11.776,155
6.3073,156
13.684,157
-0.024213,158
-9.3148,159
-14.468,160
2.4277,161
11.48,162
-1.467,163
-5.3932,164
-10.877,165
-3.6695,166
3.5444,167
-3.4485,168
-5.4637,169
-7.3935,170
-7.1046,171
-7.0818,172
-6.6601,173
-6.4698,174
-6.0809,175
-5.79,176
-5.7141,177
-5.5386,178
-5.7405,179
-5.893,180
-7.104,181
-7.3416,182
-9.0434,183
-4.7477,184
-1.3451,185
-7.9703,186
-9.4998,187
-14.363,188
-4.9785,189
8.9382,190
-3.0804,191
-10.446,192
-17.022,193
-5.8757,194
11.467,195
4.2895,196
-11.671,197
-18.978,198
-6.1992,199
5.2295,200
8.3085,201
-10.679,202
-19.824,203
-7.8025,204
-2.5249,205
1.1598,206
-3.0183,207
-4.2745,208
-4.0223,209
-4.4561,210
-7.0979,211
0.64225,212
14.737,213
4.8948,214
-4.6416,215
-11.406,216
-0.61564,217
15.703,218
11.581,219
-6.525,220
-13.742,221
0.022411,222
9.2771,223
14.367,224
-2.6541,225
-11.497,226
1.4613,227
5.3596,228
10.845,229
3.5342,230
-3.5604,231
3.4466,232
5.4445,233
7.3763,234
7.0859,235
7.0707,236
6.6502,237
6.4625,238
6.0785,239
5.797,240
5.7296,241
5.5586,242
5.7655,243
5.9264,244
7.1481,245
7.3913,246
9.0991,247
4.753,248
1.43,249
8.0671,250
9.5797,251
14.46,252
4.9213,253
-8.8427,254
3.2441,255
10.568,256
17.12,257
5.8251,258
-11.408,259
-4.0968,260
11.86,261
19.051,262
6.1989,263
-5.1777,264
-8.1611,265
10.935,266
19.88,267
7.8497,268
2.6025,269
-1.0546,270
3.1579,271
4.3691,272
4.1326,273
4.5585,274
7.211,275
-0.66405,276
-14.649,277
-4.7175,278
4.7843,279
11.501,280
0.57442,281
-15.668,282
-11.41,283
6.7181,284
13.776,285
-0.041818,286
-9.2596,287
-14.284,288
2.8617,289
11.495,290
-1.4705,291
-5.34,292
-10.825,293
-3.4099,294
3.566,295
-3.453,296
-5.4329,297
-7.3652,298
-7.0717,299
-7.0626,300
-6.6428,301
-6.4571,302
-6.0768,303
-5.8027,304
-5.742,305
-5.5744,306
-5.7854,307
-5.9534,308
-7.1836,309
-7.4308,310
-9.1427,311
-4.7454,312
-1.5013,313
-8.1482,314
-9.6435,315
-14.539,316
-4.845,317
8.7654,318
-3.3873,319
-10.671,320
-17.197,321
-5.7523,322
11.371,323
3.927,324
-12.026,325
-19.099,326
-6.1741,327
5.151,328
8.0382,329
-11.164,330
-19.909,331
-7.871,332
-2.6535,333
0.97555,334
-3.2705,335
-4.437,336
-4.2169,337
-4.6356,338
-7.2987,339
0.71098,340
14.584,341
4.5643,342
-4.9036,343
-11.572,344
-0.51062,345
15.652,346
11.259,347
-6.89,348
-13.789,349
0.079275,350
9.2594,351
14.216,352
-3.0531,353
-11.477,354
1.492,355
5.3324,356
10.814,357
3.2947,358
-3.5626,359
3.4661,360
5.4276,361
7.3589,362
7.0612,363
7.0569,364
6.6374,365
6.4532,366
6.0755,367
5.8071,368
5.7515,369
5.5864,370
5.8009,371
5.9749,372
7.2117,373
7.4615,374
9.1758,375
4.7267,376
1.5612,377
8.2158,378
9.6938,379
14.602,380
4.7525,381
-8.7032,382
3.5132,383
10.756,384
17.256,385
5.6608,386
-11.351,387
-3.7763,388
12.172,389
19.125,390
6.1289,391
-5.1454,392
-7.9356,393
11.372,394
19.914,395
7.8708,396
2.6823,397
-0.91811,398
3.3605,399
4.4829,400
4.2796,401
4.6919,402
7.3653,403
-0.77877,404
-14.538,405
-4.4312,406
5.0035,407
11.623,408
0.42818,409
-15.654,410
-11.126,411
7.0445,412
13.784,413
-0.13144,414
-9.2733,415
-14.16,416
3.2314,417
11.447,418
-1.5235,419
-5.3344,420
-10.811,421
-3.1869,422
3.5518,423
-3.4846,424
-5.4275,425
-7.3565,426
-7.0536,427
-7.0531,428
-6.6335,429
-6.4504,430
-6.0745,431
-5.8105,432
-5.7586,433
-5.5952,434
-5.8127,435
-5.9919,436
-7.2337,437
-7.4851,438
-9.2003,439
-4.699,440
-1.6119,441
-8.2725,442
-9.7331,443
-14.652,444
-4.6466,445
8.653,446
-3.625,447
-10.828,448
-17.299,449
-5.554,450
11.346,451
3.641,452
-12.302,453
-19.135,454
-6.0673,455
5.1567,456
7.8491,457
-11.561,458
-19.901,459
-7.8533,460
-2.6933,461
0.87792,462
-3.4326,463
-4.5111,464
-4.3251,465
-4.7315,466
-7.415,467
0.8633,468
14.507,469
4.3141,470
-5.0881,471
-11.659,472
-0.33087,473
15.668,474
11.005,475
-7.185,476
-13.765,477
0.19516,478
9.2984,479
14.113,480
-3.399,481
-11.406,482
1.5627,483
5.3442,484
10.814,485
3.0851,486
-3.5352,487
3.5073,488
5.4314,489
7.357,490
7.0483,491
7.0507,492
6.6308,493
6.4484,494
6.0737,495
5.8129,496
5.7638,497
5.6016,498
5.8216,499
6.0052,500
7.2509,501
7.503,502
9.2179,503
4.6844,504
1.6035,505
8.4079,506
9.6243,507
14.929,508
4.1739,509
-8.0623,510
2.8234,511
12.629,512
