1.7354,1
15.421,2
32.449,3
25.946,4
9.9761,5
2.5554,6
14.97,7
26.729,8
30.064,9
12.033,10
2.388,11
15.461,12
20.337,13
26.166,14
15.548,15
6.6926,16
16.02,17
18.284,18
20.904,19
18.511,20
15.595,21
17.289,22
17.949,23
17.516,24
15.723,25
14.274,26
13.806,27
13.963,28
13.112,29
11.765,30
10.285,31
10.082,32
7.9719,33
5.7547,34
7.9037,35
6.7723,36
8.8592,37
-0.1234,38
-12.082,39
-1.3651,40
3.0726,41
8.034,42
-4.1062,43
-23.572,44
-14.038,45
-0.8564,46
4.9859,47
-9.6453,48
-26.408,49
-27.915,50
-9.1269,51
-1.3282,52
-16.579,53
-26.331,54
-32.619,55
-24.149,56
-19.076,57
-25.558,58
-28.881,59
-30.114,60
-37.503,61
-47.854,62
-39.781,63
-33.628,64
-29.173,65
-41.966,66
-61.108,67
-54.089,68
-38.097,69
-31.781,70
-46.752,71
-60.413,72
-64.523,73
-46.527,74
-38.136,75
-53.233,76
-59.964,77
-67.207,78
-57.62,79
-49.496,80
-58.6,81
-60.838,82
-64.134,83
-63.272,84
-61.205,85
-61.65,86
-61.017,87
-60.761,88
-60.639,89
-60.282,90
-58.68,91
-56.814,92
-55.363,93
-54.862,94
-53.648,95
-52.108,96
-47.352,97
-42.96,98
-43.717,99
-40.987,100
-40.913,101
-29.076,102
-13.655,103
-19.903,104
-20.038,105
-21.517,106
-6.5365,107
15.811,108
10.086,109
0.43343,110
-3.1213,111
12.695,112
30.015,113
31.717,114
12.645,115
4.386,116
18.835,117
27.309,118
31.695,119
20.628,120
13.361,121
18.069,122
19.474,123
18.454,124
23.361,125
30.944,126
20.128,127
11.502,128
5.0641,129
16.595,130
34.149,131
24.766,132
6.5938,133
-0.65518,134
14.51,135
28.161,136
31.252,137
11.581,138
2.8308,139
18.618,140
25.769,141
32.659,142
21.769,143
13.163,144
22.653,145
25.201,146
28.535,147
27.374,148
25.043,149
25.375,150
24.924,151
25.31,152
26.246,153
27.044,154
26.506,155
25.965,156
26.462,157
28.339,158
29.498,159
30.258,160
27.953,161
26.608,162
30.758,163
31.491,164
35.045,165
26.986,166
15.849,167
26.247,168
30.531,169
36.433,170
26.004,171
8.1091,172
17.165,173
29.634,174
36.438,175
24.276,176
9.8167,177
9.0554,178
27.808,179
36.292,180
23.169,181
15.405,182
10.351,183
19.742,184
25.208,185
19.18,186
16.519,187
16.287,188
10.259,189
0.83883,190
8.2181,191
13.81,192
18.915,193
7.6514,194
-9.9101,195
-2.6452,196
13.158,197
20.079,198
6.5648,199
-5.7297,200
-9.0971,201
9.3642,202
17.951,203
3.6541,204
-2.1796,205
-8.5746,206
2.3078,207
10.326,208
0.16453,209
-2.7902,210
-6.065,211
-4.1754,212
-1.7332,213
-3.3368,214
-3.9006,215
-4.0013,216
-3.4442,217
-3.1036,218
-2.7957,219
-2.8293,220
-2.8278,221
-3.3219,222
-3.427,223
-3.9006,224
-1.7321,225
-0.29275,226
-4.0213,227
-4.3048,228
-7.495,229
1.1578,230
12.161,231
0.98476,232
-3.7779,233
-9.6126,234
1.6206,235
19.743,236
10.16,237
-2.6218,238
-9.1067,239
3.7727,240
18.548,241
19.158,242
0.19242,243
-8.1253,244
4.9951,245
12.63,246
17.601,247
8.2598,248
2.7152,249
8.0455,250
10.122,251
10.086,252
16.311,253
25.583,254
17.674,255
11.722,256
6.4245,257
17.668,258
34.953,259
27.544,260
11.781,261
4.6719,262
17.482,263
28.963,264
31.941,265
13.449,266
4.5763,267
17.655,268
22.329,269
28.063,270
16.923,271
8.6469,272
17.877,273
19.932,274
22.493,275
19.949,276
17.15,277
18.829,278
19.392,279
18.91,280
17.086,281
15.645,282
15.16,283
15.266,284
14.338,285
12.928,286
11.411,287
11.178,288
8.9587,289
6.7987,290
8.8785,291
7.624,292
9.7398,293
0.22768,294
-11.215,295
-0.41489,296
3.7628,297
8.6611,298
-4.1586,299
-23.088,300
-13.083,301
-0.072002,302
5.3918,303
-9.6765,304
-26.176,305
-27.208,306
-8.1771,307
-1.1811,308
-16.605,309
-26.214,310
-32.355,311
-23.558,312
-18.987,313
-25.522,314
-28.837,315
-30.048,316
-37.784,317
-47.777,318
-39.503,319
-33.502,320
-29.176,321
-42.552,322
-61.235,323
-53.657,324
-37.705,325
-31.891,326
-47.169,327
-60.608,328
-64.314,329
-45.893,330
-38.327,331
-53.489,332
-60.066,333
-67.224,334
-57.094,335
-49.557,336
-58.649,337
-60.763,338
-64.026,339
-62.972,340
-60.914,341
-61.277,342
-60.521,343
-60.178,344
-59.951,345
-59.46,346
-57.69,347
-55.67,348
-54.088,349
-53.442,350
-52.053,351
-50.306,352
-45.266,353
-40.829,354
-41.433,355
-38.463,356
-38.273,357
-25.751,358
-10.78,359
-17.201,360
-17.218,361
-18.741,362
-3.1575,363
18.482,364
11.892,365
1.9167,366
-1.6813,367
14.225,368
30.892,369
31.61,370
11.76,371
3.8623,372
18.124,373
26.116,374
30.014,375
18.319,376
11.344,377
15.948,378
17.215,379
16.069,380
21.236,381
28.442,382
17.517,383
9.1412,384
2.8903,385
14.995,386
32.092,387
22.285,388
4.3329,389
-2.3153,390
13.134,391
26.546,392
29.313,393
9.4022,394
1.6124,395
17.465,396
24.467,397
31.328,398
20.037,399
12.189,400
21.775,401
24.296,402
27.687,403
26.428,404
24.243,405
24.693,406
24.315,407
24.756,408
25.669,409
26.441,410
25.935,411
25.486,412
26.042,413
27.909,414
29.057,415
29.844,416
27.544,417
26.406,418
30.591,419
31.285,420
34.935,421
26.412,422
15.869,423
26.459,424
30.619,425
36.541,426
25.476,427
8.1222,428
17.685,429
30.089,430
36.594,431
24.033,432
9.8367,433
9.5836,434
28.654,435
36.432,436
23.206,437
15.612,438
10.752,439
20.509,440
25.526,441
19.521,442
16.929,443
16.759,444
10.398,445
1.327,446
8.937,447
14.448,448
19.454,449
7.5984,450
-9.5382,451
-1.7285,452
14.066,453
20.497,454
6.66,455
-5.4525,456
-8.4304,457
10.439,458
18.183,459
3.8013,460
-1.9284,461
-8.2738,462
3.0761,463
10.42,464
0.26405,465
-2.5906,466
-5.8905,467
-3.9367,468
-1.6709,469
-3.2876,470
-3.8057,471
-3.9539,472
-3.4996,473
-3.2615,474
-2.9723,475
-3.0096,476
-3.0799,477
-3.7007,478
-3.9179,479
-4.4482,480
-2.246,481
-1.0182,482
-4.8533,483
-5.1792,484
-8.5222,485
0.53365,486
10.898,487
-0.42523,488
-5.0427,489
-10.935,490
0.81269,491
18.284,492
8.2241,493
-4.4579,494
-10.706,495
2.4073,496
16.781,497
16.838,498
-2.4422,499
-10.122,500
2.9696,501
10.325,502
15.02,503
5.2515,504
0.091369,505
5.3518,506
7.3251,507
7.1465,508
13.603,509
22.424,510
14.304,511
8.4687,512
