1.5641,1
17.024,2
36.805,3
32.683,4
19.008,5
13.858,6
28.798,7
43.104,8
48.857,9
33.029,10
25.545,11
40.897,12
48.153,13
56.395,14
48.292,15
41.33,16
51.702,17
55.137,18
59.43,19
59.395,20
58.387,21
60.6,22
61.697,23
62.551,24
62.928,25
63.306,26
63.392,27
63.601,28
63.551,29
63.738,30
63.548,31
63.962,32
62.016,33
59.996,34
62.465,35
61.781,36
64.381,37
56.137,38
43.901,39
52.791,40
55.73,41
60.263,42
48.811,43
29.234,44
36.654,45
47.685,46
52.887,47
38.902,48
22.184,49
19.099,50
35.649,51
42.401,52
27.195,53
17.19,54
9.856,55
16.75,56
20.237,57
12.233,58
7.5537,59
5.1435,60
-3.1581,61
-15.228,62
-10.129,63
-6.5693,64
-3.5829,65
-16.843,66
-37.037,67
-32.501,68
-19.001,69
-13.851,70
-28.946,71
-43.15,72
-48.837,73
-32.887,74
-25.607,75
-40.978,76
-48.195,77
-56.423,78
-48.186,79
-41.373,80
-51.748,81
-55.156,82
-59.451,83
-59.38,84
-58.394,85
-60.613,86
-61.701,87
-62.556,88
-62.93,89
-63.307,90
-63.392,91
-63.601,92
-63.551,93
-63.739,94
-63.548,95
-63.961,96
-61.994,97
-60.001,98
-62.476,99
-61.777,100
-64.396,101
-56.02,102
-43.909,103
-52.844,104
-55.743,105
-60.277,106
-48.656,107
-29.198,108
-36.739,109
-47.744,110
-52.866,111
-38.772,112
-22.113,113
-19.146,114
-35.773,115
-42.344,116
-27.102,117
-17.137,118
-9.8416,119
-16.824,120
-20.197,121
-12.193,122
-7.5281,123
-5.1307,124
3.2568,125
15.244,126
10.085,127
6.5523,128
3.5892,129
16.998,130
37.092,131
32.419,132
18.922,133
13.889,134
29.064,135
43.218,136
48.812,137
32.752,138
25.671,139
41.059,140
48.237,141
56.45,142
48.081,143
41.417,144
51.795,145
55.176,146
59.472,147
59.365,148
58.402,149
60.626,150
61.705,151
62.561,152
62.932,153
63.309,154
63.393,155
63.602,156
63.552,157
63.739,158
63.549,159
63.961,160
61.972,161
60.007,162
62.486,163
61.774,164
64.411,165
55.902,166
43.917,167
52.897,168
55.756,169
60.29,170
48.5,171
29.163,172
36.825,173
47.803,174
52.844,175
38.642,176
22.042,177
19.195,178
35.896,179
42.286,180
27.01,181
17.084,182
9.8281,183
16.898,184
20.157,185
12.154,186
7.5026,187
5.1176,188
-3.3557,189
-15.26,190
-10.042,191
-6.5351,192
-3.5963,193
-17.154,194
-37.145,195
-32.336,196
-18.843,197
-13.928,198
-29.181,199
-43.286,200
-48.786,201
-32.618,202
-25.735,203
-41.138,204
-48.279,205
-56.476,206
-47.976,207
-41.461,208
-51.84,209
-55.196,210
-59.493,211
-59.35,212
-58.411,213
-60.638,214
-61.71,215
-62.566,216
-62.933,217
-63.311,218
-63.393,219
-63.603,220
-63.552,221
-63.739,222
-63.549,223
-63.96,224
-61.949,225
-60.013,226
-62.496,227
-61.77,228
-64.425,229
-55.784,230
-43.927,231
-52.948,232
-55.769,233
-60.302,234
-48.343,235
-29.129,236
-36.911,237
-47.862,238
-52.821,239
-38.512,240
-21.972,241
-19.244,242
-36.019,243
-42.227,244
-26.918,245
-17.031,246
-9.8153,247
-16.971,248
-20.116,249
-12.115,250
-7.4772,251
-5.1044,252
3.455,253
15.274,254
9.9992,255
6.5177,256
3.6042,257
17.309,258
37.196,259
32.253,260
18.764,261
13.969,262
29.299,263
43.354,264
48.758,265
32.485,266
25.801,267
41.217,268
48.322,269
56.501,270
47.871,271
41.507,272
51.886,273
55.216,274
59.513,275
59.335,276
58.419,277
60.651,278
61.714,279
62.57,280
62.935,281
63.313,282
63.394,283
63.604,284
63.552,285
63.739,286
63.55,287
63.959,288
61.927,289
60.019,290
62.506,291
61.767,292
64.438,293
55.666,294
43.939,295
53,296
55.782,297
60.314,298
48.186,299
29.097,300
36.996,301
47.921,302
52.798,303
38.382,304
21.903,305
19.294,306
36.142,307
42.167,308
26.827,309
16.978,310
9.8034,311
17.045,312
20.074,313
12.076,314
7.4518,315
5.0909,316
-3.5547,317
-15.287,318
-9.9567,319
-6.5001,320
-3.613,321
-17.465,322
-37.246,323
-32.17,324
-18.686,325
-14.01,326
-29.415,327
-43.422,328
-48.729,329
-32.351,330
-25.868,331
-41.296,332
-48.365,333
-56.525,334
-47.766,335
-41.553,336
-51.93,337
-55.236,338
-59.534,339
-59.32,340
-58.427,341
-60.663,342
-61.719,343
-62.575,344
-62.937,345
-63.315,346
-63.394,347
-63.604,348
-63.553,349
-63.738,350
-63.55,351
-63.958,352
-61.905,353
-60.026,354
-62.516,355
-61.765,356
-64.451,357
-55.547,358
-43.951,359
-53.05,360
-55.795,361
-60.325,362
-48.029,363
-29.066,364
-37.081,365
-47.979,366
-52.773,367
-38.252,368
-21.834,369
-19.346,370
-36.264,371
-42.106,372
-26.736,373
-16.924,374
-9.7923,375
-17.118,376
-20.032,377
-12.038,378
-7.4266,379
-5.0771,380
3.6547,381
15.299,382
9.9145,383
6.4824,384
3.6225,385
17.622,386
37.295,387
32.086,388
18.608,389
14.053,390
29.532,391
43.489,392
48.699,393
32.219,394
25.936,395
41.373,396
48.408,397
56.548,398
47.661,399
41.601,400
51.974,401
55.257,402
59.554,403
59.305,404
58.436,405
60.676,406
61.723,407
62.58,408
62.938,409
63.317,410
63.395,411
63.605,412
63.553,413
63.738,414
63.551,415
63.958,416
61.882,417
60.033,418
62.525,419
61.762,420
64.463,421
55.429,422
43.965,423
53.1,424
55.809,425
60.334,426
47.871,427
29.037,428
37.167,429
48.038,430
52.747,431
38.122,432
21.765,433
19.398,434
36.385,435
42.044,436
26.645,437
16.871,438
9.782,439
17.191,440
19.989,441
12,442
7.4014,443
5.0631,444
-3.7549,445
-15.31,446
-9.8726,447
-6.4645,448
-3.6329,449
-17.779,450
-37.343,451
-32.003,452
-18.531,453
-14.096,454
-29.648,455
-43.557,456
-48.668,457
-32.087,458
-26.006,459
-41.45,460
-48.452,461
-56.57,462
-47.557,463
-41.649,464
-52.018,465
-55.278,466
-59.573,467
-59.29,468
-58.445,469
-60.688,470
-61.728,471
-62.584,472
-62.94,473
-63.318,474
-63.396,475
-63.606,476
-63.553,477
-63.738,478
-63.552,479
-63.956,480
-61.86,481
-60.04,482
-62.535,483
-61.76,484
-64.474,485
-55.31,486
-43.98,487
-53.15,488
-55.824,489
-60.343,490
-47.713,491
-29.01,492
-37.252,493
-48.096,494
-52.72,495
-37.992,496
-21.697,497
-19.452,498
-36.506,499
-41.98,500
-26.555,501
-16.817,502
-9.7725,503
-17.254,504
-19.932,505
-11.953,506
-7.3715,507
-5.0419,508
3.8624,509
15.35,510
9.8129,511
6.5734,512
