30.165,1
50.67,2
25.451,3
36.043,4
49.279,5
58.135,6
43.889,7
32.075,8
27.675,9
45.948,10
54.733,11
41.355,12
34.52,13
29.418,14
32.293,15
32.295,16
30.361,17
29.183,18
30.135,19
21.04,20
4.9036,21
13.097,22
21.415,23
26.668,24
14.214,25
-4.4143,26
-2.3387,27
14.245,28
20.113,29
4.2574,30
-7.3722,31
-14.701,32
0.037475,33
7.5805,34
-7.3414,35
-13.416,36
-21.073,37
-16.442,38
-10.958,39
-19.149,40
-22.482,41
-26.077,42
-27.91,43
-29.786,44
-30.601,45
-31.551,46
-32.641,47
-34.083,48
-35.569,49
-36.626,50
-37.9,51
-39.12,52
-41.322,53
-42.534,54
-45.266,55
-42.248,56
-39.391,57
-46.065,58
-47.784,59
-53.032,60
-44.696,61
-30.848,62
-42.447,63
-49.654,64
-56.232,65
-45.445,66
-27.784,67
-34.474,68
-50.213,69
-57.372,70
-44.055,71
-31.706,72
-27.752,73
-45.97,74
-54.636,75
-41.254,76
-34.463,77
-29.401,78
-32.324,79
-32.292,80
-30.387,81
-29.213,82
-30.191,83
-20.974,84
-4.9574,85
-13.262,86
-21.558,87
-26.777,88
-14.196,89
4.3431,90
2.114,91
-14.509,92
-20.229,93
-4.3247,94
7.2547,95
14.508,96
-0.37383,97
-7.7208,98
7.2067,99
13.242,100
20.893,101
16.144,102
10.76,103
18.958,104
22.267,105
25.859,106
27.682,107
29.552,108
30.358,109
31.304,110
32.395,111
33.84,112
35.328,113
36.382,114
37.657,115
38.882,116
41.095,117
42.313,118
45.052,119
41.981,120
39.199,121
45.89,122
47.597,123
52.869,124
44.381,125
30.68,126
42.357,127
49.529,128
56.093,129
45.161,130
27.611,131
34.445,132
50.19,133
57.242,134
43.856,135
31.569,136
27.721,137
46.061,138
54.536,139
41.151,140
34.404,141
29.381,142
32.354,143
32.288,144
30.411,145
29.242,146
30.245,147
20.905,148
5.011,149
13.425,150
21.699,151
26.884,152
14.177,153
-4.2727,154
-1.8904,155
14.771,156
20.342,157
4.3908,158
-7.1389,159
-14.316,160
0.70839,161
7.8585,162
-7.0726,163
-13.07,164
-20.713,165
-15.846,166
-10.564,167
-18.768,168
-22.053,169
-25.642,170
-27.455,171
-29.319,172
-30.115,173
-31.057,174
-32.148,175
-33.597,176
-35.086,177
-36.138,178
-37.414,179
-38.645,180
-40.868,181
-42.092,182
-44.838,183
-41.714,184
-39.007,185
-45.714,186
-47.409,187
-52.704,188
-44.065,189
-30.513,190
-42.265,191
-49.402,192
-55.952,193
-44.875,194
-27.438,195
-34.415,196
-50.165,197
-57.108,198
-43.655,199
-31.43,200
-27.688,201
-46.15,202
-54.434,203
-41.048,204
-34.343,205
-29.361,206
-32.382,207
-32.282,208
-30.433,209
-29.269,210
-30.296,211
-20.835,212
-5.0642,213
-13.586,214
-21.838,215
-26.988,216
-14.155,217
4.2029,218
1.6678,219
-15.031,220
-20.452,221
-4.4557,222
7.0247,223
14.124,224
-1.0411,225
-7.9936,226
6.9393,227
12.899,228
20.533,229
15.55,230
10.37,231
18.578,232
21.841,233
25.425,234
27.229,235
29.087,236
29.872,237
30.811,238
31.902,239
33.354,240
34.845,241
35.895,242
37.171,243
38.408,244
40.641,245
41.87,246
44.622,247
41.446,248
38.814,249
45.536,250
47.221,251
52.538,252
43.747,253
30.347,254
42.171,255
49.275,256
55.808,257
44.587,258
27.265,259
34.383,260
50.139,261
56.972,262
43.454,263
31.29,264
27.656,265
46.237,266
54.328,267
40.943,268
34.281,269
29.339,270
32.408,271
32.274,272
30.454,273
29.294,274
30.345,275
20.762,276
5.1171,277
13.745,278
21.975,279
27.089,280
14.132,281
-4.1338,282
-1.4462,283
15.288,284
20.56,285
4.5194,286
-6.9122,287
-13.932,288
1.372,289
8.1261,290
-6.8066,291
-12.729,292
-20.354,293
-15.254,294
-10.177,295
-18.388,296
-21.629,297
-25.21,298
-27.003,299
-28.855,300
-29.63,301
-30.565,302
-31.656,303
-33.112,304
-34.603,305
-35.651,306
-36.927,307
-38.17,308
-40.413,309
-41.649,310
-44.406,311
-41.178,312
-38.622,313
-45.358,314
-47.032,315
-52.371,316
-43.428,317
-30.181,318
-42.075,319
-49.147,320
-55.662,321
-44.298,322
-27.092,323
-34.35,324
-50.11,325
-56.834,326
-43.25,327
-31.149,328
-27.623,329
-46.322,330
-54.219,331
-40.836,332
-34.216,333
-29.316,334
-32.431,335
-32.264,336
-30.472,337
-29.318,338
-30.392,339
-20.687,340
-5.1696,341
-13.902,342
-22.111,343
-27.187,344
-14.106,345
4.0654,346
1.2257,347
-15.543,348
-20.664,349
-4.5818,350
6.8013,351
13.74,352
-1.7009,353
-8.2561,354
6.6746,355
12.562,356
20.175,357
14.96,358
9.9865,359
18.199,360
21.418,361
24.994,362
26.778,363
28.623,364
29.388,365
30.319,366
31.41,367
32.87,368
34.362,369
35.408,370
36.684,371
37.933,372
40.186,373
41.427,374
44.19,375
40.909,376
38.43,377
45.179,378
46.843,379
52.202,380
43.108,381
30.015,382
41.978,383
49.017,384
55.515,385
44.007,386
26.919,387
34.316,388
50.08,389
56.692,390
43.046,391
31.006,392
27.589,393
46.404,394
54.108,395
40.729,396
34.15,397
29.291,398
32.453,399
32.253,400
30.489,401
29.34,402
30.436,403
20.61,404
5.2218,405
14.057,406
22.245,407
27.283,408
14.078,409
-3.9976,410
-1.0063,411
15.797,412
20.766,413
4.643,414
-6.692,415
-13.549,416
2.028,417
8.3834,418
-6.5432,419
-12.396,420
-19.997,421
-14.666,422
-9.7973,423
-18.011,424
-21.208,425
-24.78,426
-26.553,427
-28.391,428
-29.146,429
-30.073,430
-31.165,431
-32.628,432
-34.121,433
-35.164,434
-36.441,435
-37.696,436
-39.958,437
-41.205,438
-43.972,439
-40.64,440
-38.237,441
-44.998,442
-46.654,443
-52.031,444
-42.786,445
-29.85,446
-41.88,447
-48.887,448
-55.365,449
-43.715,450
-26.745,451
-34.281,452
-50.048,453
-56.548,454
-42.84,455
-30.862,456
-27.555,457
-46.484,458
-53.993,459
-40.62,460
-34.082,461
-29.266,462
-32.473,463
-32.239,464
-30.503,465
-29.36,466
-30.478,467
-20.53,468
-5.2737,469
-14.209,470
-22.377,471
-27.376,472
-14.049,473
3.9305,474
0.78797,475
-16.047,476
-20.865,477
-4.703,478
6.5844,479
13.357,480
-2.3532,481
-8.5081,482
6.4125,483
12.231,484
19.819,485
14.374,486
9.6097,487
17.823,488
20.999,489
24.565,490
26.329,491
28.16,492
28.905,493
29.828,494
30.92,495
32.386,496
33.88,497
34.92,498
36.197,499
37.458,500
39.73,501
40.984,502
43.754,503
40.442,504
37.923,505
45.071,506
46.077,507
52.525,508
41.471,509
31.26,510
39.217,511
53.808,512
