30.802,1
50.594,2
23.333,3
32.144,4
43.34,5
50.361,6
34.361,7
20.861,8
14.6,9
30.898,10
37.933,11
23.163,12
14.988,13
8.4377,14
9.696,15
8.2205,16
5.0935,17
2.7912,18
2.6339,19
-7.5563,20
-24.871,21
-18.047,22
-11.049,23
-6.8141,24
-19.914,25
-39.196,26
-38.153,27
-22.665,28
-17.329,29
-33.112,30
-44.67,31
-52.267,32
-38.066,33
-30.584,34
-44.955,35
-50.456,36
-57.705,37
-52.856,38
-47.058,39
-54.724,40
-57.443,41
-60.323,42
-61.318,43
-62.452,44
-62.811,45
-63.23,46
-63.392,47
-63.504,48
-63.639,49
-63.577,50
-63.779,51
-63.545,52
-63.929,53
-63.343,54
-64.432,55
-59.879,56
-55.332,57
-60.15,58
-60.042,59
-63.519,60
-53.451,61
-37.865,62
-47.711,63
-53.141,64
-57.919,65
-45.337,66
-25.858,67
-30.636,68
-44.4,69
-49.667,70
-34.616,71
-20.549,72
-14.733,73
-30.959,74
-37.869,75
-23.085,76
-14.942,77
-8.4176,78
-9.7117,79
-8.1916,80
-5.0834,81
-2.7756,82
-2.6326,83
7.6916,84
24.901,85
17.979,86
11.015,87
6.8225,88
20.058,89
39.263,90
38.081,91
22.565,92
17.382,93
33.216,94
44.731,95
52.264,96
37.93,97
30.647,98
45.023,99
50.489,100
57.736,101
52.779,102
47.086,103
54.761,104
57.458,105
60.336,106
61.324,107
62.457,108
62.813,109
63.232,110
63.393,111
63.504,112
63.639,113
63.577,114
63.78,115
63.544,116
63.93,117
63.342,118
64.434,119
59.825,120
55.346,121
60.171,122
60.042,123
63.536,124
53.309,125
37.863,126
47.78,127
53.167,128
57.922,129
45.185,130
25.808,131
30.719,132
44.481,133
49.63,134
34.499,135
20.482,136
14.758,137
31.095,138
37.804,139
23.007,140
14.896,141
8.3981,142
9.7273,143
8.1627,144
5.0734,145
2.7602,146
2.6309,147
-7.8275,148
-24.929,149
-17.911,150
-10.98,151
-6.8319,152
-20.202,153
-39.33,154
-38.009,155
-22.466,156
-17.436,157
-33.32,158
-44.793,159
-52.26,160
-37.795,161
-30.711,162
-45.091,163
-50.521,164
-57.767,165
-52.701,166
-47.115,167
-54.797,168
-57.472,169
-60.349,170
-61.329,171
-62.462,172
-62.815,173
-63.234,174
-63.393,175
-63.505,176
-63.64,177
-63.577,178
-63.78,179
-63.544,180
-63.93,181
-63.341,182
-64.436,183
-59.771,184
-55.359,185
-60.191,186
-60.042,187
-63.552,188
-53.167,189
-37.863,190
-47.848,191
-53.192,192
-57.925,193
-45.033,194
-25.759,195
-30.803,196
-44.561,197
-49.591,198
-34.382,199
-20.414,200
-14.784,201
-31.23,202
-37.738,203
-22.93,204
-14.85,205
-8.3791,206
-9.7427,207
-8.1338,208
-5.0634,209
-2.7449,210
-2.6287,211
7.9639,212
24.955,213
17.843,214
10.946,215
6.8421,216
20.347,217
39.395,218
37.936,219
22.368,220
17.491,221
33.424,222
44.854,223
52.255,224
37.66,225
30.776,226
45.158,227
50.554,228
57.798,229
52.623,230
47.144,231
54.832,232
57.487,233
60.363,234
61.335,235
62.467,236
62.817,237
63.236,238
63.394,239
63.506,240
63.64,241
63.577,242
63.781,243
63.543,244
63.931,245
63.341,246
64.437,247
59.717,248
55.374,249
60.211,250
60.042,251
63.567,252
53.024,253
37.865,254
47.915,255
53.218,256
57.926,257
44.881,258
25.71,259
30.887,260
44.641,261
49.551,262
34.265,263
20.347,264
14.811,265
31.365,266
37.67,267
22.853,268
14.804,269
8.3605,270
9.7578,271
8.1048,272
5.0534,273
2.7298,274
2.6261,275
-8.1009,276
-24.981,277
-17.776,278
-10.911,279
-6.8532,280
-20.491,281
-39.46,282
-37.863,283
-22.269,284
-17.547,285
-33.527,286
-44.916,287
-52.248,288
-37.526,289
-30.843,290
-45.224,291
-50.587,292
-57.828,293
-52.545,294
-47.174,295
-54.868,296
-57.502,297
-60.376,298
-61.341,299
-62.472,300
-62.819,301
-63.238,302
-63.395,303
-63.506,304
-63.641,305
-63.577,306
-63.781,307
-63.543,308
-63.931,309
-63.34,310
-64.439,311
-59.663,312
-55.389,313
-60.231,314
-60.043,315
-63.582,316
-52.881,317
-37.868,318
-47.982,319
-53.245,320
-57.926,321
-44.728,322
-25.664,323
-30.971,324
-44.72,325
-49.51,326
-34.148,327
-20.28,328
-14.84,329
-31.499,330
-37.602,331
-22.777,332
-14.758,333
-8.3423,334
-9.7727,335
-8.0758,336
-5.0434,337
-2.7148,338
-2.623,339
8.2383,340
25.004,341
17.709,342
10.877,343
6.8652,344
20.636,345
39.523,346
37.789,347
22.171,348
17.604,349
33.63,350
44.977,351
52.24,352
37.392,353
30.91,354
45.29,355
50.62,356
57.857,357
52.467,358
47.205,359
54.902,360
57.517,361
60.389,362
61.346,363
62.477,364
62.821,365
63.24,366
63.396,367
63.507,368
63.641,369
63.577,370
63.782,371
63.543,372
63.932,373
63.34,374
64.439,375
59.609,376
55.404,377
60.25,378
60.045,379
63.596,380
52.738,381
37.873,382
48.048,383
53.271,384
57.926,385
44.575,386
25.618,387
31.056,388
44.799,389
49.468,390
34.032,391
20.213,392
14.869,393
31.633,394
37.532,395
22.701,396
14.711,397
8.3247,398
9.7873,399
8.0468,400
5.0335,401
2.7,402
2.6194,403
-8.3762,404
-25.027,405
-17.642,406
-10.842,407
-6.8781,408
-20.782,409
-39.585,410
-37.714,411
-22.074,412
-17.663,413
-33.732,414
-45.039,415
-52.231,416
-37.259,417
-30.979,418
-45.355,419
-50.654,420
-57.885,421
-52.39,422
-47.236,423
-54.937,424
-57.532,425
-60.402,426
-61.352,427
-62.482,428
-62.823,429
-63.242,430
-63.397,431
-63.508,432
-63.642,433
-63.577,434
-63.782,435
-63.543,436
-63.932,437
-63.34,438
-64.44,439
-59.555,440
-55.42,441
-60.269,442
-60.046,443
-63.609,444
-52.594,445
-37.879,446
-48.114,447
-53.298,448
-57.924,449
-44.421,450
-25.574,451
-31.141,452
-44.878,453
-49.425,454
-33.916,455
-20.146,456
-14.9,457
-31.766,458
-37.462,459
-22.626,460
-14.665,461
-8.3076,462
-9.8017,463
-8.0178,464
-5.0235,465
-2.6854,466
-2.6154,467
8.5145,468
25.048,469
17.576,470
10.808,471
6.892,472
20.927,473
39.647,474
37.639,475
21.977,476
17.722,477
33.834,478
45.101,479
52.221,480
37.126,481
31.048,482
45.419,483
50.688,484
57.913,485
52.312,486
47.269,487
54.971,488
57.548,489
60.414,490
61.358,491
62.487,492
62.825,493
63.243,494
63.398,495
63.508,496
63.642,497
63.577,498
63.782,499
63.543,500
63.932,501
63.34,502
64.44,503
59.576,504
55.308,505
60.55,506
59.642,507
64.313,508
51.41,509
39.526,510
45.502,511
58.584,512
