-16.043,1
-20.726,2
1.569,3
-7.0579,4
-21.438,5
-29.091,6
-14.477,7
-1.4254,8
3.1712,9
-14.425,10
-22.787,11
-7.4448,12
-0.21624,13
7.5997,14
-1.4005,15
-8.8168,16
1.8632,17
5.6479,18
10.151,19
10.175,20
9.156,21
11.297,22
12.46,23
13.777,24
15.07,25
16.389,26
17.042,27
17.824,28
19.033,29
21.138,30
22.81,31
24.68,32
23.911,33
23.581,34
28.328,35
29.849,36
34.424,37
27.943,38
17.636,39
28.71,40
33.852,41
40.586,42
31.355,43
14.013,44
23.649,45
36.985,46
44.626,47
33.16,48
18.981,49
18.478,50
37.672,51
46.988,52
34.157,53
26.477,54
21.56,55
31.046,56
36.916,57
30.888,58
28.125,59
27.73,60
21.626,61
11.784,62
18.988,63
24.582,64
29.481,65
17.968,66
-0.38854,67
6.3379,68
22.012,69
28.757,70
14.601,71
1.3212,72
-2.975,73
14.662,74
22.884,75
7.5443,76
0.38239,77
-7.388,78
1.7794,79
9.0679,80
-1.6045,81
-5.3463,82
-9.8301,83
-9.7893,84
-8.7681,85
-10.897,86
-12.039,87
-13.343,88
-14.616,89
-15.918,90
-16.553,91
-17.324,92
-18.528,93
-20.631,94
-22.297,95
-24.155,96
-23.351,97
-23.048,98
-27.806,99
-29.315,100
-33.905,101
-27.285,102
-17.103,103
-28.231,104
-33.341,105
-40.084,106
-30.689,107
-13.471,108
-23.234,109
-36.549,110
-44.12,111
-32.561,112
-18.458,113
-18.086,114
-37.368,115
-46.52,116
-33.677,117
-26.061,118
-21.205,119
-30.799,120
-36.575,121
-30.57,122
-27.847,123
-27.492,124
-21.331,125
-11.597,126
-18.881,127
-24.468,128
-29.368,129
-17.736,130
0.48927,131
-6.3982,132
-22.088,133
-28.737,134
-14.528,135
-1.3274,136
2.8456,137
-14.926,138
-22.968,139
-7.6344,140
-0.53857,141
7.1847,142
-2.1487,143
-9.3085,144
1.3547,145
5.054,146
9.5173,147
9.4125,148
8.3888,149
10.507,150
11.627,151
12.917,152
14.171,153
15.455,154
16.072,155
16.831,156
18.031,157
20.131,158
21.79,159
23.634,160
22.795,161
22.52,162
27.288,163
28.784,164
33.389,165
26.628,166
16.573,167
27.754,168
32.832,169
39.582,170
30.023,171
12.93,172
22.817,173
36.111,174
43.612,175
31.96,176
17.932,177
17.692,178
37.059,179
46.046,180
33.192,181
25.639,182
20.845,183
30.546,184
36.226,185
30.246,186
27.563,187
27.247,188
21.028,189
11.403,190
18.765,191
24.347,192
29.246,193
17.495,194
-0.59788,195
6.4491,196
22.154,197
28.705,198
14.445,199
1.3237,200
-2.7252,201
15.179,202
23.041,203
7.7151,204
0.68487,205
-6.9898,206
2.5087,207
9.5385,208
-1.1137,209
-4.771,210
-9.2131,211
-9.0442,212
-8.0181,213
-10.125,214
-11.224,215
-12.5,216
-13.734,217
-15,218
-15.598,219
-16.347,220
-17.541,221
-19.637,222
-21.289,223
-23.119,224
-22.245,225
-21.997,226
-26.774,227
-28.258,228
-32.875,229
-25.974,230
-16.046,231
-27.277,232
-32.325,233
-39.08,234
-29.356,235
-12.39,236
-22.4,237
-35.672,238
-43.101,239
-31.357,240
-17.404,241
-17.295,242
-36.746,243
-45.567,244
-32.703,245
-25.214,246
-20.481,247
-30.287,248
-35.871,249
-29.917,250
-27.273,251
-26.995,252
-20.718,253
-11.202,254
-18.641,255
-24.217,256
-29.114,257
-17.244,258
0.71418,259
-6.4906,260
-22.21,261
-28.663,262
-14.352,263
-1.3104,264
2.6136,265
-15.421,266
-23.103,267
-7.7866,268
-0.82133,269
6.8032,270
-2.8591,271
-9.7581,272
0.88149,273
4.4973,274
8.9175,275
8.6844,276
7.6563,277
9.7516,278
10.83,279
12.091,280
13.305,281
14.552,282
15.132,283
15.87,284
17.059,285
19.15,286
20.794,287
22.609,288
21.699,289
21.479,290
26.264,291
27.735,292
32.363,293
25.321,294
15.522,295
26.802,296
31.82,297
38.578,298
28.689,299
11.852,300
21.982,301
35.232,302
42.587,303
30.752,304
16.875,305
16.897,306
36.43,307
45.083,308
32.211,309
24.783,310
20.113,311
30.022,312
35.509,313
29.582,314
26.977,315
26.737,316
20.401,317
10.996,318
18.509,319
24.079,320
28.974,321
16.985,322
-0.83797,323
6.523,324
22.255,325
28.609,326
14.25,327
1.2875,328
-2.5107,329
15.653,330
23.153,331
7.8488,332
0.94804,333
-6.6249,334
3.2001,335
9.9672,336
-0.65813,337
-4.2329,338
-8.6304,339
-8.3332,340
-7.3032,341
-9.3872,342
-10.444,343
-11.691,344
-12.885,345
-14.112,346
-14.674,347
-15.4,348
-16.584,349
-18.67,350
-20.305,351
-22.104,352
-21.159,353
-20.966,354
-25.758,355
-27.216,356
-31.854,357
-24.671,358
-15.002,359
-26.329,360
-31.316,361
-38.076,362
-28.023,363
-11.315,364
-21.564,365
-34.792,366
-42.072,367
-30.146,368
-16.344,369
-16.497,370
-36.11,371
-44.595,372
-31.716,373
-24.349,374
-19.742,375
-29.752,376
-35.141,377
-29.241,378
-26.674,379
-26.472,380
-20.077,381
-10.783,382
-18.369,383
-23.934,384
-28.824,385
-16.717,386
0.96909,387
-6.5464,388
-22.291,389
-28.544,390
-14.138,391
-1.2552,392
2.4165,393
-15.873,394
-23.191,395
-7.902,396
-1.0651,397
6.4548,398
-3.5317,399
-10.166,400
0.44357,401
3.9778,402
8.3519,403
7.9906,404
6.9591,405
9.0317,406
10.068,407
11.301,408
12.473,409
13.68,410
14.224,411
14.939,412
16.117,413
18.196,414
19.822,415
21.605,416
20.625,417
20.459,418
25.256,419
26.701,420
31.348,421
24.023,422
14.486,423
25.857,424
30.815,425
37.576,426
27.357,427
10.781,428
21.146,429
34.351,430
41.556,431
29.538,432
15.812,433
16.096,434
35.787,435
44.103,436
31.218,437
23.91,438
19.366,439
29.476,440
34.768,441
28.895,442
26.367,443
26.201,444
19.747,445
10.564,446
18.221,447
23.781,448
28.666,449
16.44,450
-1.1074,451
6.561,452
22.317,453
28.469,454
14.017,455
1.2138,456
-2.3306,457
16.083,458
23.219,459
7.9463,460
1.1726,461
-6.2928,462
3.8538,463
10.354,464
-0.2378,465
-3.732,466
-8.082,467
-7.6566,468
-6.6239,469
-8.6851,470
-9.7014,471
-10.919,472
-12.069,473
-13.256,474
-13.782,475
-14.486,476
-15.657,477
-17.73,478
-19.345,479
-21.112,480
-20.096,481
-19.957,482
-24.759,483
-26.191,484
-30.845,485
-23.378,486
-13.975,487
-25.387,488
-30.317,489
-37.076,490
-26.692,491
-10.248,492
-20.728,493
-33.911,494
-41.038,495
-28.93,496
-15.278,497
-15.695,498
-35.46,499
-43.607,500
-30.717,501
-23.468,502
-18.988,503
-29.231,504
-34.316,505
-28.681,506
-25.841,507
-26.287,508
-18.864,509
-11.191,510
-16.672,511
-26.335,512
