-15.661,1
-33.89,2
-31.877,3
-35.664,4
-35.998,5
-38.35,6
-39.264,7
-40.954,8
-42.037,9
-43.373,10
-44.435,11
-45.582,12
-46.492,13
-47.657,14
-47.705,15
-46.996,16
-48.167,17
-48.838,18
-49.926,19
-49.254,20
-46.676,21
-47.17,22
-48.106,23
-49.004,24
-47.647,25
-44.616,26
-43.539,27
-44.75,28
-45.399,29
-43.236,30
-40.809,31
-38.509,32
-38.689,33
-38.767,34
-36.527,35
-34.558,36
-32.573,37
-30.649,38
-28.176,39
-26.57,40
-25.019,41
-23.751,42
-20.738,43
-15.814,44
-13.998,45
-13.292,46
-12.45,47
-9.209,48
-4.8494,49
-1.7425,50
-1.4485,51
-0.91703,52
2.5393,53
5.84,54
9.3295,55
10.323,56
10.88,57
14.081,58
16.659,59
19.509,60
21.485,61
22.907,62
25.277,63
27.383,64
29.452,65
31.35,66
33.181,67
34.884,68
36.505,69
38.031,70
39.466,71
40.836,72
42.101,73
43.342,74
44.441,75
45.589,76
46.498,77
47.664,78
47.698,79
46.999,80
48.175,81
48.841,82
49.932,83
49.237,84
46.668,85
47.178,86
48.111,87
49.006,88
47.628,89
44.6,90
43.541,91
44.761,92
45.393,93
43.219,94
40.793,95
38.499,96
38.697,97
38.757,98
36.513,99
34.545,100
32.562,101
30.634,102
28.162,103
26.562,104
25.009,105
23.742,106
20.707,107
15.791,108
13.993,109
13.288,110
12.438,111
9.181,112
4.8238,113
1.7311,114
1.4523,115
0.9022,116
-2.563,117
-5.8611,118
-9.3481,119
-10.32,120
-10.895,121
-14.101,122
-16.675,123
-19.527,124
-21.493,125
-22.92,126
-25.292,127
-27.396,128
-29.465,129
-31.362,130
-33.193,131
-34.894,132
-36.516,133
-38.04,134
-39.475,135
-40.845,136
-42.109,137
-43.35,138
-44.448,139
-45.596,140
-46.504,141
-47.672,142
-47.691,143
-47.001,144
-48.182,145
-48.845,146
-49.939,147
-49.22,148
-46.661,149
-47.186,150
-48.117,151
-49.008,152
-47.609,153
-44.585,154
-43.543,155
-44.771,156
-45.387,157
-43.201,158
-40.778,159
-38.49,160
-38.705,161
-38.746,162
-36.499,163
-34.532,164
-32.55,165
-30.62,166
-28.148,167
-26.553,168
-24.999,169
-23.733,170
-20.675,171
-15.768,172
-13.988,173
-13.284,174
-12.427,175
-9.1529,176
-4.7982,177
-1.7198,178
-1.4561,179
-0.88718,180
2.5867,181
5.8822,182
9.3667,183
10.316,184
10.911,185
14.121,186
16.691,187
19.544,188
21.5,189
22.933,190
25.307,191
27.408,192
29.478,193
31.374,194
33.204,195
34.905,196
36.526,197
38.05,198
39.484,199
40.853,200
42.117,201
43.358,202
44.455,203
45.603,204
46.509,205
47.679,206
47.684,207
47.004,208
48.19,209
48.849,210
49.946,211
49.203,212
46.654,213
47.194,214
48.122,215
49.01,216
47.59,217
44.57,218
43.545,219
44.782,220
45.381,221
43.184,222
40.763,223
38.48,224
38.713,225
38.736,226
36.485,227
34.519,228
32.539,229
30.605,230
28.135,231
26.545,232
24.988,233
23.724,234
20.643,235
15.745,236
13.984,237
13.281,238
12.416,239
9.1248,240
4.7727,241
1.7087,242
1.4599,243
0.87201,244
-2.6104,245
-5.9034,246
-9.385,247
-10.313,248
-10.926,249
-14.14,250
-16.707,251
-19.562,252
-21.508,253
-22.946,254
-25.322,255
-27.421,256
-29.491,257
-31.386,258
-33.216,259
-34.915,260
-36.536,261
-38.059,262
-39.493,263
-40.862,264
-42.124,265
-43.366,266
-44.462,267
-45.611,268
-46.515,269
-47.686,270
-47.677,271
-47.007,272
-48.197,273
-48.853,274
-49.953,275
-49.186,276
-46.647,277
-47.202,278
-48.128,279
-49.011,280
-47.572,281
-44.555,282
-43.547,283
-44.792,284
-45.374,285
-43.167,286
-40.747,287
-38.471,288
-38.721,289
-38.725,290
-36.471,291
-34.507,292
-32.527,293
-30.59,294
-28.121,295
-26.536,296
-24.978,297
-23.715,298
-20.611,299
-15.723,300
-13.979,301
-13.277,302
-12.405,303
-9.0967,304
-4.7472,305
-1.6976,306
-1.4636,307
-0.85668,308
2.634,309
5.9246,310
9.4033,311
10.31,312
10.942,313
14.159,314
16.724,315
19.58,316
21.516,317
22.959,318
25.337,319
27.434,320
29.504,321
31.397,322
33.227,323
34.926,324
36.546,325
38.069,326
39.502,327
40.87,328
42.132,329
43.373,330
44.469,331
45.618,332
46.521,333
47.693,334
47.67,335
47.01,336
48.205,337
48.857,338
49.959,339
49.169,340
46.64,341
47.21,342
48.134,343
49.013,344
47.553,345
44.54,346
43.549,347
44.803,348
45.368,349
43.15,350
40.732,351
38.462,352
38.729,353
38.714,354
36.457,355
34.494,356
32.516,357
30.575,358
28.107,359
26.527,360
24.968,361
23.706,362
20.58,363
15.7,364
13.974,365
13.273,366
12.393,367
9.0685,368
4.7218,369
1.6868,370
1.4673,371
0.84123,372
-2.6576,373
-5.9458,374
-9.4214,375
-10.307,376
-10.958,377
-14.179,378
-16.74,379
-19.598,380
-21.524,381
-22.973,382
-25.352,383
-27.447,384
-29.516,385
-31.409,386
-33.238,387
-34.936,388
-36.556,389
-38.078,390
-39.511,391
-40.879,392
-42.14,393
-43.381,394
-44.476,395
-45.625,396
-46.526,397
-47.7,398
-47.663,399
-47.013,400
-48.212,401
-48.861,402
-49.966,403
-49.151,404
-46.634,405
-47.218,406
-48.139,407
-49.015,408
-47.534,409
-44.525,410
-43.551,411
-44.813,412
-45.361,413
-43.133,414
-40.717,415
-38.453,416
-38.737,417
-38.703,418
-36.444,419
-34.481,420
-32.504,421
-30.56,422
-28.093,423
-26.519,424
-24.958,425
-23.697,426
-20.548,427
-15.678,428
-13.969,429
-13.269,430
-12.381,431
-9.0403,432
-4.6964,433
-1.6761,434
-1.471,435
-0.82562,436
2.6812,437
5.9671,438
9.4394,439
10.304,440
10.974,441
14.198,442
16.757,443
19.615,444
21.531,445
22.986,446
25.367,447
27.46,448
29.529,449
31.421,450
33.25,451
34.947,452
36.566,453
38.087,454
39.52,455
40.887,456
42.148,457
43.389,458
44.483,459
45.632,460
46.532,461
47.707,462
47.656,463
47.017,464
48.219,465
48.865,466
49.972,467
49.133,468
46.627,469
47.226,470
48.145,471
49.016,472
47.514,473
44.51,474
43.554,475
44.824,476
45.354,477
43.116,478
40.701,479
38.444,480
38.745,481
38.692,482
36.43,483
34.468,484
32.493,485
30.545,486
28.08,487
26.51,488
24.948,489
23.688,490
20.516,491
15.656,492
13.965,493
13.265,494
12.37,495
9.012,496
4.6711,497
1.6655,498
1.4747,499
0.80985,500
-2.7047,501
-5.9884,502
-9.4573,503
-10.342,504
-10.936,505
-14.35,506
-16.581,507
-19.972,508
-21.044,509
-23.808,510
-24.083,511
-30.084,512
