-20.311,1
-43.483,2
-40.247,3
-44.571,4
-44.401,5
-46.867,6
-47.466,7
-49.088,8
-49.928,9
-51.111,10
-51.945,11
-52.91,12
-53.572,13
-54.593,14
-54.135,15
-52.719,16
-53.849,17
-54.315,18
-55.354,19
-54.05,20
-50.272,21
-50.666,22
-51.647,23
-52.575,24
-50.5,25
-46.264,26
-44.717,27
-46.241,28
-46.986,29
-43.991,30
-40.713,31
-37.668,32
-37.976,33
-38.126,34
-35.198,35
-32.683,36
-30.187,37
-27.809,38
-24.737,39
-22.862,40
-21.077,41
-19.687,42
-15.981,43
-9.7999,44
-7.8423,45
-7.3633,46
-6.6835,47
-2.8038,48
2.5076,49
6.081,50
5.8836,51
6.0501,52
10.124,53
13.941,54
17.972,55
18.639,56
18.767,57
22.432,58
25.232,59
28.379,60
30.339,61
31.571,62
34.073,63
36.214,64
38.304,65
40.166,66
41.941,67
43.549,68
45.057,69
46.446,70
47.726,71
48.93,72
50.006,73
51.067,74
51.951,75
52.916,76
53.576,77
54.599,78
54.123,79
52.719,80
53.857,81
54.318,82
55.36,83
54.025,84
50.26,85
50.675,86
51.653,87
52.576,88
50.474,89
46.243,90
44.719,91
46.255,92
46.977,93
43.968,94
40.693,95
37.655,96
37.987,97
38.112,98
35.18,99
32.667,100
30.173,101
27.79,102
24.72,103
22.852,104
21.066,105
19.678,106
15.941,107
9.7719,108
7.8388,109
7.3611,110
6.6716,111
2.7694,112
-2.5383,113
-6.0924,114
-5.8749,115
-6.0665,116
-10.152,117
-13.966,118
-17.992,119
-18.631,120
-18.784,121
-22.454,122
-25.249,123
-28.398,124
-30.345,125
-31.584,126
-34.089,127
-36.227,128
-38.317,129
-40.177,130
-41.952,131
-43.559,132
-45.067,133
-46.454,134
-47.734,135
-48.938,136
-50.013,137
-51.073,138
-51.956,139
-52.922,140
-53.581,141
-54.606,142
-54.11,143
-52.72,144
-53.864,145
-54.32,146
-55.367,147
-54,148
-50.249,149
-50.684,150
-51.659,151
-52.577,152
-50.447,153
-46.221,154
-44.721,155
-46.268,156
-46.968,157
-43.945,158
-40.672,159
-37.643,160
-37.998,161
-38.099,162
-35.162,163
-32.65,164
-30.159,165
-27.772,166
-24.703,167
-22.843,168
-21.054,169
-19.668,170
-15.902,171
-9.7442,172
-7.8354,173
-7.3589,174
-6.6594,175
-2.7349,176
2.569,177
6.1037,178
5.8662,179
6.0832,180
10.18,181
13.99,182
18.013,183
18.623,184
18.8,185
22.476,186
25.267,187
28.418,188
30.351,189
31.597,190
34.105,191
36.24,192
38.33,193
40.189,194
41.963,195
43.569,196
45.076,197
46.463,198
47.741,199
48.945,200
50.02,201
51.08,202
51.962,203
52.928,204
53.585,205
54.612,206
54.098,207
52.721,208
53.871,209
54.323,210
55.373,211
53.974,212
50.237,213
50.693,214
51.664,215
52.578,216
50.42,217
46.2,218
44.723,219
46.281,220
46.959,221
43.921,222
40.652,223
37.631,224
38.009,225
38.085,226
35.144,227
32.634,228
30.145,229
27.753,230
24.686,231
22.833,232
21.042,233
19.658,234
15.861,235
9.7167,236
7.832,237
7.3567,238
6.6471,239
2.7004,240
-2.5995,241
-6.1148,242
-5.8576,243
-6.1001,244
-10.208,245
-14.014,246
-18.033,247
-18.614,248
-18.817,249
-22.498,250
-25.284,251
-28.437,252
-30.357,253
-31.61,254
-34.12,255
-36.253,256
-38.343,257
-40.2,258
-41.974,259
-43.579,260
-45.085,261
-46.471,262
-47.749,263
-48.952,264
-50.026,265
-51.086,266
-51.967,267
-52.934,268
-53.589,269
-54.618,270
-54.085,271
-52.722,272
-53.878,273
-54.325,274
-55.379,275
-53.949,276
-50.226,277
-50.702,278
-51.67,279
-52.578,280
-50.394,281
-46.179,282
-44.725,283
-46.294,284
-46.95,285
-43.898,286
-40.631,287
-37.619,288
-38.02,289
-38.071,290
-35.126,291
-32.618,292
-30.13,293
-27.735,294
-24.669,295
-22.823,296
-21.031,297
-19.648,298
-15.821,299
-9.6895,300
-7.8286,301
-7.3545,302
-6.6347,303
-2.6658,304
2.63,305
6.1257,306
5.8489,307
6.1172,308
10.236,309
14.039,310
18.053,311
18.606,312
18.834,313
22.52,314
25.302,315
28.457,316
30.363,317
31.623,318
34.136,319
36.266,320
38.356,321
40.212,322
41.985,323
43.588,324
45.095,325
46.48,326
47.757,327
48.96,328
50.033,329
51.093,330
51.972,331
52.94,332
53.593,333
54.624,334
54.072,335
52.723,336
53.885,337
54.328,338
55.385,339
53.923,340
50.216,341
50.711,342
51.676,343
52.579,344
50.367,345
46.158,346
44.728,347
46.308,348
46.94,349
43.875,350
40.61,351
37.607,352
38.031,353
38.057,354
35.108,355
32.601,356
30.116,357
27.716,358
24.652,359
22.814,360
21.019,361
19.638,362
15.781,363
9.6625,364
7.8252,365
7.3523,366
6.6221,367
2.6312,368
-2.6605,369
-6.1364,370
-5.8403,371
-6.1345,372
-10.264,373
-14.063,374
-18.073,375
-18.598,376
-18.852,377
-22.542,378
-25.32,379
-28.476,380
-30.369,381
-31.637,382
-34.152,383
-36.279,384
-38.369,385
-40.223,386
-41.996,387
-43.598,388
-45.104,389
-46.489,390
-47.765,391
-48.967,392
-50.04,393
-51.099,394
-51.978,395
-52.945,396
-53.597,397
-54.63,398
-54.06,399
-52.725,400
-53.892,401
-54.331,402
-55.391,403
-53.897,404
-50.205,405
-50.719,406
-51.682,407
-52.579,408
-50.34,409
-46.138,410
-44.73,411
-46.321,412
-46.93,413
-43.852,414
-40.59,415
-37.596,416
-38.042,417
-38.043,418
-35.091,419
-32.585,420
-30.102,421
-27.697,422
-24.636,423
-22.804,424
-21.008,425
-19.628,426
-15.74,427
-9.6357,428
-7.8219,429
-7.3501,430
-6.6093,431
-2.5966,432
2.6909,433
6.1469,434
5.8317,435
6.1519,436
10.292,437
14.088,438
18.093,439
18.589,440
18.869,441
22.564,442
25.338,443
28.495,444
30.375,445
31.65,446
34.167,447
36.292,448
38.382,449
40.234,450
42.006,451
43.608,452
45.113,453
46.497,454
47.773,455
48.975,456
50.046,457
51.106,458
51.983,459
52.951,460
53.602,461
54.636,462
54.047,463
52.726,464
53.899,465
54.333,466
55.397,467
53.871,468
50.195,469
50.728,470
51.688,471
52.579,472
50.313,473
46.117,474
44.733,475
46.334,476
46.92,477
43.829,478
40.569,479
37.584,480
38.053,481
38.028,482
35.073,483
32.568,484
30.088,485
27.678,486
24.619,487
22.794,488
20.997,489
19.617,490
15.7,491
9.6092,492
7.8186,493
7.348,494
6.5963,495
2.5619,496
-2.7212,497
-6.1572,498
-5.8232,499
-6.1696,500
-10.319,501
-14.112,502
-18.113,503
-18.634,504
-18.817,505
-22.757,506
-25.106,507
-28.954,508
-29.737,509
-32.712,510
-32.497,511
-39.688,512
