4.1003,1
12.806,2
14.906,3
15.83,4
13.224,5
12.537,6
13.526,7
13.513,8
12.021,9
9.7049,10
8.6456,11
9.1186,12
9.6325,13
8.7538,14
7.1823,15
6.1938,16
5.9172,17
5.1362,18
4.4113,19
4.6454,20
3.205,21
4.0257,22
-9.0869,23
-10.168,24
-0.021668,25
2.565,26
5.5916,27
-14.274,28
-23.272,29
-8.2186,30
1.4458,31
2.0608,32
-17.907,33
-30.898,34
-21.227,35
-2.2714,36
-3.5341,37
-20.674,38
-30.99,39
-31.177,40
-11.023,41
-13.004,42
-25.217,43
-30.963,44
-34.184,45
-34.792,46
-36.248,47
-32.494,48
-31.365,49
-29.576,50
-47.289,51
-57.172,52
-42.695,53
-32.9,54
-31.235,55
-50.109,56
-63.475,57
-54.539,58
-35.444,59
-36.45,60
-53.277,61
-62.797,62
-64.225,63
-43.425,64
-43.006,65
-56.459,66
-61.031,67
-66.293,68
-54.406,69
-51.542,70
-57.712,71
-58.592,72
-60.602,73
-59.973,74
-58.801,75
-56.635,76
-54.518,77
-53.586,78
-53.44,79
-52.361,80
-49.383,81
-46.238,82
-44.506,83
-43.931,84
-42.203,85
-39.174,86
-32.278,87
-28.723,88
-29.293,89
-26.288,90
-25.504,91
-8.7818,92
-0.37072,93
-7.9702,94
-7.9856,95
-9.6761,96
9.9983,97
24.879,98
12.855,99
2.9012,100
1.0868,101
19.178,102
32.925,103
25.158,104
3.4107,105
0.55976,106
16.335,107
24.851,108
25.925,109
6.2191,110
2.3883,111
11.783,112
15.023,113
15.72,114
15.911,115
16.539,116
9.2002,117
5.197,118
1.2393,119
17.463,120
29,121
11.912,122
-2.0512,123
-6.014,124
12.008,125
27.026,126
20.307,127
-1.041,128
-2.5011,129
15.548,130
25.382,131
28.485,132
7.5152,133
3.2247,134
17.595,135
22.318,136
27.694,137
18.635,138
13.55,139
19.195,140
20.387,141
22.467,142
23.12,143
23.102,144
21.078,145
19.826,146
20.266,147
22.133,148
23.343,149
22.72,150
22.068,151
22.956,152
25.627,153
26.662,154
27.552,155
21.861,156
20.02,157
26.301,158
27.344,159
31.557,160
18.679,161
9.7822,162
21.714,163
26.315,164
31.992,165
17.898,166
2.6428,167
13.09,168
26.063,169
30.735,170
16.585,171
4.0562,172
5.6262,173
25.7,174
29.66,175
16.337,176
9.5706,177
5.6737,178
15.901,179
18.495,180
13.231,181
11.053,182
11.003,183
4.419,184
-3.0737,185
4.5117,186
9.2833,187
14,188
0.92196,189
-14.577,190
-4.3724,191
10.138,192
15.238,193
0.99836,194
-11.068,195
-11.721,196
8.1948,197
13.382,198
-0.89753,199
-6.5183,200
-12.154,201
2.3694,202
9.0203,203
-2.5832,204
-5.5505,205
-9.3567,206
-4.1245,207
-0.59433,208
-4.8355,209
-6.0969,210
-6.4093,211
-4.7643,212
-3.7549,213
-3.5951,214
-3.8159,215
-3.2848,216
-2.2453,217
-1.6244,218
-1.2563,219
-1.5658,220
-1.065,221
-1.514,222
-0.24056,223
-1.6182,224
7.3166,225
13.09,226
3.0927,227
0.63863,228
-4.2066,229
9.6487,230
24.373,231
11.199,232
2.28,233
-2.3214,234
13.335,235
30.617,236
25.096,237
6.7623,238
1.8917,239
17.583,240
28.532,241
32.689,242
14.751,243
8.319,244
20.931,245
26.841,246
31.014,247
31.246,248
32.459,249
30.014,250
28.931,251
26.466,252
39.718,253
55.323,254
43.35,255
32.714,256
27.278,257
41.356,258
57.792,259
54.072,260
35.81,261
30.22,262
45.385,263
55.032,264
60.837,265
44.591,266
37.271,267
50.329,268
54.159,269
60.16,270
53.095,271
47.443,272
54.376,273
56.274,274
58.522,275
58.768,276
59.42,277
59.807,278
60.426,279
60.479,280
60.145,281
60.031,282
60.364,283
61.304,284
61.34,285
61.523,286
60.911,287
62.475,288
58.255,289
55.081,290
60.267,291
60.31,292
64.364,293
54.231,294
41.497,295
52.089,296
56.497,297
60.92,298
47.069,299
27.896,300
33.954,301
45.564,302
48.442,303
31.474,304
15.249,305
9.0859,306
23.869,307
26.656,308
9.2021,309
-1.5615,310
-10.684,311
-9.3174,312
-10.515,313
-16.869,314
-21.371,315
-23.55,316
-35.171,317
-48.837,318
-40.268,319
-33.621,320
-29.618,321
-44.246,322
-62.706,323
-55.847,324
-36.925,325
-30.268,326
-45.884,327
-58.059,328
-60.906,329
-40.404,330
-32.054,331
-47.125,332
-52.878,333
-58.854,334
-47.658,335
-38.179,336
-45.437,337
-46.643,338
-48.778,339
-48.306,340
-46.971,341
-44.643,342
-42.565,343
-42.126,344
-43.178,345
-43.845,346
-42.691,347
-41.343,348
-41.494,349
-43.318,350
-44.231,351
-44.365,352
-41.196,353
-39.229,354
-42.909,355
-43.055,356
-46.255,357
-36.295,358
-25.118,359
-35.564,360
-39.4,361
-45.107,362
-33.944,363
-16.183,364
-25.258,365
-37.369,366
-43.664,367
-30.876,368
-16.256,369
-15.536,370
-34.268,371
-41.813,372
-28.143,373
-19.956,374
-14.882,375
-23.976,376
-28.019,377
-22.111,378
-19.269,379
-19.05,380
-12.793,381
-3.6727,382
-11.066,383
-16.422,384
-21.295,385
-9.4665,386
7.8743,387
0.27548,388
-15.414,389
-21.769,390
-7.7384,391
4.6311,392
7.7626,393
-11.061,394
-18.965,395
-4.4304,396
1.3722,397
7.5752,398
-4.0251,399
-11.574,400
-0.97956,401
2.1632,402
5.3241,403
2.8267,404
0.14269,405
1.9759,406
2.7183,407
2.6616,408
1.6035,409
0.92081,410
0.71889,411
0.99776,412
0.88991,413
0.93531,414
0.60862,415
0.80912,416
-1.593,417
-3.1418,418
0.32509,419
0.16597,420
2.8771,421
-6.8492,422
-17.647,423
-5.8814,424
-1.0337,425
4.3454,426
-8.4472,427
-26.859,428
-16.654,429
-3.7183,430
1.9546,431
-12.449,432
-27.943,433
-28.31,434
-8.982,435
-1.6942,436
-15.947,437
-24.408,438
-29.862,439
-20.698,440
-15.85,441
-21.468,442
-23.975,443
-24.6,444
-32.057,445
-41.57,446
-33.224,447
-27.321,448
-22.776,449
-35.717,450
-53.626,451
-46.025,452
-30.475,453
-24.527,454
-38.766,455
-51.093,456
-54.411,457
-36.153,458
-28.647,459
-42.613,460
-48.028,461
-54.578,462
-44.115,463
-37.032,464
-46.442,465
-48.768,466
-52.038,467
-50.522,468
-48.851,469
-51.212,470
-52.465,471
-52.898,472
-52.103,473
-51.703,474
-52.331,475
-53.587,476
-53.577,477
-52.808,478
-52.095,479
-53.16,480
-52.629,481
-51.72,482
-54.217,483
-53.617,484
-57.075,485
-49.203,486
-39.649,487
-50.876,488
-55.352,489
-61.173,490
-49.382,491
-32.293,492
-43.426,493
-56.839,494
-62.677,495
-48.114,496
-32.279,497
-31.339,498
-49.714,499
-55.383,500
-39.363,501
-29.121,502
-21.797,503
-28.908,504
-30.555,505
-20.988,506
-14.791,507
-10.548,508
0.24238,509
14.186,510
10.462,511
10.141,512
