22.175,1
48.854,2
47.092,3
52.313,4
52.525,5
54.078,6
54.085,7
55.814,8
56.329,9
57.233,10
57.76,11
58.336,12
58.818,13
59.275,14
59.705,15
60.115,16
60.565,17
60.956,18
61.453,19
61.743,20
62.391,21
61.762,22
62.064,23
62.689,24
63.675,25
63.554,26
65.387,27
60.391,28
49.161,29
54.651,30
58.311,31
61.182,32
63.706,33
60.667,34
42.93,35
37.513,36
47.834,37
53.758,38
60.262,39
56.203,40
41.396,41
30.07,42
29.908,43
42.877,44
52.45,45
51.526,46
37.415,47
29.614,48
22.306,49
26.248,50
41.42,51
41.31,52
31.173,53
25.071,54
20.384,55
17.553,56
16.309,57
12.828,58
11.794,59
11.921,60
11.295,61
12.042,62
4.1165,63
-13.773,64
-15.773,65
-6.299,66
-1.8097,67
3.7052,68
-4.639,69
-19.619,70
-30.375,71
-27.173,72
-14.528,73
-6.7358,74
-12.822,75
-26.717,76
-33.843,77
-40.905,78
-34.457,79
-19.375,80
-23.882,81
-33.664,82
-40.2,83
-44.23,84
-48.388,85
-38.451,86
-36.715,87
-44.061,88
-47.037,89
-50.393,90
-52.197,91
-53.541,92
-53.653,93
-55.111,94
-55.952,95
-56.802,96
-57.44,97
-58.053,98
-58.582,99
-59.064,100
-59.533,101
-59.941,102
-60.44,103
-60.797,104
-61.385,105
-61.598,106
-62.423,107
-61.581,108
-59.306,109
-61.254,110
-62.082,111
-63.346,112
-63.795,113
-64.141,114
-50.019,115
-49.713,116
-56.282,117
-59.202,118
-62.427,119
-62.982,120
-49.176,121
-35.513,122
-42.032,123
-51.086,124
-57.155,125
-59.385,126
-45.575,127
-33.565,128
-26.687,129
-36.387,130
-48.701,131
-53.083,132
-41.574,133
-31.333,134
-24.747,135
-21.24,136
-32.553,137
-39.377,138
-31.487,139
-24.984,140
-20.723,141
-17.604,142
-15.459,143
-10.223,144
-8.1063,145
-9.8744,146
-9.8434,147
-11.215,148
-7.2445,149
10.521,150
20.837,151
12.333,152
5.0499,153
-1.0334,154
0.62426,155
15.802,156
27.516,157
32.003,158
20.54,159
9.5753,160
9.7451,161
23.36,162
32.112,163
39.042,164
40.616,165
25.219,166
21.763,167
32.075,168
38.918,169
43.441,170
47.999,171
45.705,172
38.335,173
44.464,174
47.563,175
50.667,176
52.391,177
54.037,178
55.081,179
56.024,180
56.711,181
57.334,182
57.892,183
58.416,184
58.915,185
59.386,186
59.824,187
60.283,188
60.691,189
61.204,190
61.561,191
62.178,192
62.352,193
63.18,194
57.236,195
57.971,196
60.424,197
62.298,198
62.845,199
65.244,200
53.828,201
43.685,202
51.827,203
56.405,204
60.369,205
63.182,206
53.903,207
37.153,208
34.821,209
46.178,210
53.308,211
59.378,212
49.105,213
36.214,214
27.09,215
28.417,216
42.865,217
51.046,218
43.108,219
31.79,220
26.007,221
20.242,222
23.907,223
30.507,224
27.115,225
22.013,226
18.815,227
16.639,228
14.211,229
4.592,230
-2.2031,231
2.2156,232
5.058,233
7.6147,234
7.581,235
-6.3812,236
-22.003,237
-21.718,238
-10.61,239
-3.7189,240
-0.61345,241
-14.565,242
-25.895,243
-34.722,244
-32.101,245
-17.108,246
-12.653,247
-23.294,248
-33.184,249
-38.488,250
-44.559,251
-37.8,252
-26.607,253
-34.978,254
-40.602,255
-45.352,256
-48.155,257
-50.487,258
-45.717,259
-47.701,260
-50.776,261
-52.492,262
-54.114,263
-55.175,264
-56.167,265
-56.896,266
-57.562,267
-58.123,268
-58.669,269
-59.193,270
-59.706,271
-60.218,272
-60.656,273
-61.212,274
-61.542,275
-62.26,276
-62.362,277
-63.441,278
-62.938,279
-65.155,280
-57.5,281
-50.936,282
-56.947,283
-59.453,284
-61.984,285
-64.273,286
-58.354,287
-40.718,288
-42.327,289
-51.822,290
-56.405,291
-62.144,292
-54.719,293
-39.859,294
-29.526,295
-34.554,296
-46.986,297
-54.952,298
-49.527,299
-35.757,300
-28.684,301
-22.223,302
-30.323,303
-44.264,304
-40.92,305
-30.931,306
-25.287,307
-20.659,308
-18.367,309
-16.932,310
-14.466,311
-13.746,312
-13.312,313
-12.876,314
-12.652,315
-0.016934,316
15.915,317
13.044,318
4.1849,319
-0.37492,320
-4.4796,321
7.3935,322
21.469,323
30.367,324
23.152,325
11.093,326
5.4175,327
15.267,328
27.765,329
34.489,330
40.692,331
30.634,332
18.942,333
27.431,334
35.576,335
41.246,336
45.223,337
47.392,338
37.525,339
40.186,340
45.527,341
48.348,342
50.968,343
52.564,344
54.01,345
54.983,346
55.846,347
56.512,348
57.14,349
57.713,350
58.26,351
58.789,352
59.251,353
59.785,354
60.162,355
60.816,356
61.047,357
61.965,358
61.766,359
63.497,360
58.722,361
55.425,362
59.358,363
60.97,364
62.568,365
64.387,366
60.601,367
44.251,368
47.358,369
54.777,370
58.382,371
63.022,372
58.406,373
42.309,374
32.408,375
40.635,376
50.432,377
57.783,378
54.126,379
39.343,380
30.54,381
24.642,382
35.118,383
48.661,384
46.093,385
34.337,386
27.75,387
22.121,388
20.439,389
25.263,390
25.181,391
20.965,392
18.5,393
16.354,394
15.558,395
6.493,396
-5.9192,397
-3.5305,398
2.3597,399
4.9505,400
8.2165,401
-2.6209,402
-18.423,403
-27.064,404
-18.555,405
-8.307,406
-2.1675,407
-11.339,408
-24.722,409
-32.593,410
-37.527,411
-25.453,412
-14.374,413
-22.214,414
-32.205,415
-38.335,416
-43.265,417
-44.779,418
-32.272,419
-35.153,420
-41.892,421
-45.566,422
-48.724,423
-50.89,424
-51.868,425
-52.467,426
-53.999,427
-54.864,428
-55.78,429
-56.459,430
-57.14,431
-57.72,432
-58.259,433
-58.792,434
-59.254,435
-59.844,436
-60.242,437
-60.961,438
-61.137,439
-62.243,440
-60.378,441
-59.36,442
-61.278,443
-62.418,444
-63.12,445
-64.738,446
-61.027,447
-46.151,448
-50.215,449
-56.187,450
-59.499,451
-63.207,452
-60.45,453
-43.921,454
-34.604,455
-43.846,456
-52.101,457
-59.043,458
-56.569,459
-41.678,460
-31.506,461
-26.638,462
-38.182,463
-50.501,464
-49.519,465
-36.714,466
-29.462,467
-23.022,468
-22.248,469
-29.994,470
-30.17,471
-24.452,472
-20.876,473
-18.063,474
-16.699,475
-9.0645,476
1.4218,477
-0.34873,478
-5.0289,479
-6.9048,480
-9.714,481
0.39283,482
17.115,483
24.597,484
14.946,485
6.1352,486
-0.021391,487
9.0056,488
22.818,489
31.335,490
35.644,491
23.135,492
12.355,493
19.688,494
30.509,495
36.74,496
42.216,497
42.974,498
30.004,499
33.717,500
40.495,501
44.571,502
47.598,503
50.338,504
49.608,505
49.579,506
51.566,507
53.726,508
53.497,509
56.853,510
53.683,511
61.896,512
