0.14316,1
0.30914,2
0.063772,3
0.38208,4
-1.9854,5
-18.741,6
-29.54,7
-21.394,8
-14.923,9
-9.4317,10
-10.431,11
-25.79,12
-38.547,13
-42.684,14
-30.675,15
-20.247,16
-18.191,17
-32.05,18
-41.745,19
-49.282,20
-49.399,21
-33.137,22
-29.207,23
-39.821,24
-47.603,25
-52.093,26
-57.076,27
-52.879,28
-43.362,29
-50.436,30
-54.049,31
-57.493,32
-59.193,33
-60.816,34
-60.56,35
-61.316,36
-62.135,37
-62.596,38
-62.982,39
-63.195,40
-63.371,41
-63.473,42
-63.552,43
-63.604,44
-63.635,45
-63.669,46
-63.67,47
-63.725,48
-63.647,49
-63.794,50
-62.547,51
-62.855,52
-62.858,53
-63.653,54
-62.79,55
-64.73,56
-55.665,57
-45.914,58
-52.556,59
-55.534,60
-58.238,61
-60.444,62
-53.675,63
-35.011,64
-34.104,65
-44.481,66
-49.521,67
-55.442,68
-47.08,69
-31.976,70
-21.228,71
-24.765,72
-37.846,73
-45.886,74
-39.695,75
-25.665,76
-18.61,77
-11.677,78
-18.386,79
-31.697,80
-28.003,81
-18.461,82
-13.011,83
-8.6116,84
-6.2084,85
-3.5353,86
-0.37297,87
-0.25472,88
-0.23894,89
-0.024413,90
-0.10179,91
12.298,92
28.777,93
26.188,94
16.932,95
12.324,96
7.8931,97
19.672,98
34.08,99
43.287,100
36.16,101
23.654,102
17.471,103
27.122,104
39.816,105
46.605,106
52.372,107
41.542,108
28.671,109
36.388,110
45.338,111
51.073,112
55.101,113
57.044,114
45.151,115
47.167,116
53.221,117
56.137,118
58.72,119
60.293,120
60.79,121
60.828,122
61.947,123
62.391,124
62.879,125
63.107,126
63.321,127
63.437,128
63.52,129
63.602,130
63.597,131
63.703,132
63.599,133
63.817,134
63.496,135
64.096,136
61.846,137
60.065,138
61.617,139
62.164,140
62.574,141
63.369,142
60.6,143
45.063,144
47.687,145
53.453,146
56.149,147
59.347,148
56.53,149
39.203,150
29.354,151
38.567,152
46.274,153
52.656,154
51.043,155
35.636,156
23.871,157
19.498,158
31.461,159
42.7,160
42.688,161
28.715,162
20.309,163
13.029,164
12.569,165
23.649,166
26.204,167
18.013,168
12.457,169
8.3734,170
5.9667,171
1.3838,172
-4.5043,173
-4.3446,174
-2.4995,175
-2.2368,176
-0.58593,177
-7.6195,178
-26.463,179
-33.443,180
-23.28,181
-16.563,182
-10.081,183
-16.646,184
-31.856,185
-42.423,186
-44.173,187
-30.841,188
-20.632,189
-25.188,190
-38.662,191
-45.693,192
-52.344,193
-50.821,194
-34.313,195
-36.034,196
-45.375,197
-51.188,198
-54.644,199
-58.758,200
-53.135,201
-48.993,202
-55.053,203
-56.999,204
-59.609,205
-60.603,206
-61.777,207
-62.271,208
-62.794,209
-63.05,210
-63.275,211
-63.414,212
-63.509,213
-63.581,214
-63.614,215
-63.662,216
-63.652,217
-63.713,218
-63.651,219
-63.775,220
-63.605,221
-63.936,222
-62.683,223
-54.248,224
-56.681,225
-58.812,226
-60.622,227
-61.22,228
-61.911,229
-45.79,230
-38.271,231
-47.331,232
-51.71,233
-56.214,234
-56.889,235
-43.451,236
-27.929,237
-28.759,238
-40.384,239
-47.589,240
-50.854,241
-36.679,242
-25.325,243
-16.511,244
-19.509,245
-34.932,246
-39.74,247
-28.726,248
-19.286,249
-13.512,250
-8.8272,251
-11.772,252
-14.749,253
-10.811,254
-7.4403,255
-4.9396,256
-3.7719,257
0.48205,258
13.622,259
18.208,260
11.562,261
8.7673,262
4.7851,263
8.1344,264
24.214,265
37.792,266
35.181,267
23.474,268
15.752,269
16.353,270
31.81,271
41.152,272
49.086,273
43.136,274
27.405,275
27.404,276
38.852,277
46.984,278
51.575,279
56.707,280
46.45,281
39.525,282
48.506,283
52.497,284
56.499,285
58.6,286
59.88,287
57.63,288
59.542,289
60.801,290
61.756,291
62.364,292
62.798,293
63.084,294
63.284,295
63.422,296
63.509,297
63.583,298
63.613,299
63.666,300
63.665,301
63.704,302
63.588,303
62.4,304
62.981,305
62.911,306
63.648,307
62.922,308
64.347,309
52.101,310
48.109,311
54.467,312
56.699,313
59.222,314
60.425,315
48.37,316
31.884,317
36.071,318
45.631,319
50.739,320
55.144,321
43.188,322
29.017,323
20.174,324
27.818,325
40.246,326
46.179,327
36.091,328
23.69,329
16.85,330
11.244,331
20.391,332
29.916,333
22.97,334
15.382,335
10.685,336
7.2236,337
4.4618,338
-1.2626,339
-4.0943,340
-2.2634,341
-1.9491,342
-0.80595,343
-2.7616,344
-19.085,345
-33.406,346
-27.608,347
-18.433,348
-12.407,349
-11.577,350
-26.865,351
-38.442,352
-46.173,353
-37.724,354
-24.017,355
-21.978,356
-34.271,357
-43.936,358
-49.677,359
-54.454,360
-41.509,361
-34.4,362
-44.293,363
-49.98,364
-54.431,365
-57.662,366
-57.761,367
-51.002,368
-54.982,369
-57.585,370
-59.627,371
-60.858,372
-61.799,373
-62.381,374
-62.814,375
-63.093,376
-63.29,377
-63.428,378
-63.519,379
-63.582,380
-63.636,381
-63.632,382
-63.715,383
-63.614,384
-63.811,385
-63.522,386
-64.007,387
-63.239,388
-64.561,389
-55.201,390
-52.604,391
-57.159,392
-58.897,393
-60.272,394
-62.125,395
-52.142,396
-36.116,397
-41.987,398
-49.294,399
-53.37,400
-57.321,401
-46.863,402
-31.091,403
-22.705,404
-31.719,405
-42.372,406
-48.746,407
-39.447,408
-25.97,409
-18.187,410
-13.414,411
-26.051,412
-37.511,413
-29.689,414
-19.656,415
-13.874,416
-9.0338,417
-7.4318,418
-6.8403,419
-4.4324,420
-3.1681,421
-2.0916,422
-1.5393,423
-0.10797,424
15.191,425
28.96,426
22.685,427
15.273,428
10.29,429
8.9248,430
23.428,431
36.856,432
43.223,433
32.739,434
21.324,435
18.141,436
30.871,437
41.58,438
48.362,439
52.315,440
38.18,441
30.608,442
40.695,443
47.942,444
52.7,445
56.873,446
55.826,447
45.987,448
51.241,449
55.032,450
57.892,451
59.66,452
60.987,453
61.821,454
62.432,455
62.832,456
63.111,457
63.308,458
63.436,459
63.525,460
63.595,461
63.608,462
63.69,463
63.613,464
63.785,465
63.544,466
63.961,467
63.3,468
64.464,469
56.741,470
54.861,471
58.46,472
59.955,473
60.837,474
62.744,475
53.287,476
37.815,477
44.061,478
50.521,479
54.321,480
57.987,481
48.47,482
31.822,483
24.692,484
34.884,485
44.068,486
50.461,487
41.302,488
27.37,489
18.911,490
14.76,491
27.817,492
38.947,493
31.622,494
20.723,495
14.825,496
9.3974,497
8.766,498
10.181,499
7.2548,500
5.091,501
3.4013,502
2.4275,503
0.87974,504
-12.425,505
-25.072,506
-19.012,507
-13.416,508
-8.0924,509
-8.5143,510
-19.768,511
-39.481,512
