-3.3373,1
-3.6725,2
0.35991,3
1.404,4
2.3898,5
1.0669,6
0.5562,7
0.74578,8
0.70385,9
0.51872,10
0.095584,11
-0.3202,12
-0.61899,13
-0.71557,14
-0.68321,15
-0.55451,16
-0.23519,17
0.17717,18
0.65419,19
0.76367,20
0.92038,21
-0.18397,22
-0.10107,23
0.72251,24
1.907,25
1.8674,26
3.2166,27
-1.7936,28
-12.08,29
-6.4888,30
-1.9799,31
1.6479,32
4.4998,33
1.9324,34
-13.929,35
-18.626,36
-8.7807,37
-2.5757,38
3.9839,39
0.99175,40
-11.74,41
-21.338,42
-20.799,43
-8.2681,44
1.4954,45
1.9886,46
-9.3846,47
-15.396,48
-20.997,49
-16.674,50
-2.158,51
-0.77273,52
-8.2894,53
-12.419,54
-15.402,55
-16.808,56
-16.806,57
-18.493,58
-17.704,59
-15.848,60
-14.765,61
-12.603,62
-18.167,63
-32.698,64
-33.31,65
-23.599,66
-18.106,67
-11.609,68
-17.234,69
-28.889,70
-37.043,71
-33.035,72
-20.518,73
-11.97,74
-15.453,75
-25.965,76
-30.727,77
-35.586,78
-28.632,79
-13.76,80
-15.897,81
-22.808,82
-26.975,83
-28.946,84
-31.014,85
-20.554,86
-17.569,87
-23.245,88
-25.23,89
-27.334,90
-27.631,91
-27.077,92
-25.659,93
-26.339,94
-26.921,95
-27.191,96
-26.569,97
-25.168,98
-23.679,99
-22.897,100
-23.011,101
-23.268,102
-22.982,103
-21.751,104
-20.522,105
-19.38,106
-19.394,107
-18.458,108
-16.131,109
-17.08,110
-16.826,111
-17.006,112
-16.58,113
-16.192,114
-3.1335,115
-2.9174,116
-9.5403,117
-12.941,118
-16.165,119
-16.351,120
-3.3126,121
9.0594,122
2.0993,123
-7.8306,124
-14.568,125
-16.75,126
-3.636,127
7.8314,128
13.628,129
3.4918,130
-9.188,131
-13.807,132
-3.0688,133
6.9132,134
13.005,135
15.402,136
3.8717,137
-3.5676,138
2.8588,139
8.4762,140
11.938,141
14.004,142
14.81,143
17.972,144
17.861,145
13.943,146
11.689,147
8.545,148
10.605,149
25.081,150
32.158,151
21.254,152
11.014,153
2.4878,154
1.9161,155
14.217,156
23.254,157
24.863,158
11.35,159
-1.707,160
-3.8945,161
6.8129,162
13.267,163
17.405,164
15.928,165
-1.1733,166
-7.285,167
-0.22723,168
4.1096,169
6.1985,170
7.9451,171
3.2934,172
-5.7716,173
-2.0916,174
-0.50686,175
1.2391,176
1.7777,177
2.2111,178
2.3947,179
3.3296,180
4.8944,181
6.7033,182
8.3732,183
9.7575,184
11.232,185
13.344,186
16.27,187
19.712,188
22.808,189
25.283,190
27.229,191
29.577,192
31.884,193
35.148,194
32.414,195
35.031,196
38.826,197
41.994,198
43.981,199
47.601,200
39.01,201
31.419,202
40.202,203
45.981,204
50.976,205
54.575,206
47.041,207
32.738,208
31.648,209
43.313,210
51.265,211
57.692,212
48.863,213
37.249,214
29.29,215
31.268,216
45.405,217
53.722,218
46.889,219
36.49,220
31.206,221
26.541,222
30.92,223
38.167,224
35.968,225
31.763,226
29.257,227
27.934,228
26.745,229
19.482,230
14.67,231
19.853,232
23.783,233
27.337,234
28.369,235
16.765,236
3.6635,237
5.1401,238
16.745,239
24.499,240
28.214,241
16.006,242
5.8276,243
-1.6357,244
1.8111,245
16.699,246
21.758,247
12.441,248
3.3845,249
-1.2134,250
-5.7834,251
1.7152,252
13.17,253
6.3116,254
1.2816,255
-2.8767,256
-4.9245,257
-6.1106,258
-0.71281,259
-1.4311,260
-3.3762,261
-4.2188,262
-5.0784,263
-5.5815,264
-6.1191,265
-6.2794,266
-6.0885,267
-5.7443,268
-5.742,269
-6.3173,270
-7.3241,271
-8.2339,272
-8.6682,273
-8.7314,274
-8.6078,275
-9.5126,276
-10.44,277
-12.199,278
-12.189,279
-14.133,280
-7.0118,281
-1.1885,282
-7.348,283
-10.7,284
-13.92,285
-16.612,286
-11.771,287
3.693,288
2.0951,289
-6.8492,290
-11.679,291
-17.634,292
-12.053,293
0.24798,294
8.7035,295
3.593,296
-8.3941,297
-16.807,298
-13.626,299
-2.915,300
2.1248,301
6.7714,302
-1.3916,303
-15.086,304
-13.883,305
-6.7183,306
-3.2109,307
-0.51533,308
0.14134,309
-0.041495,310
0.60342,311
-0.2898,312
-1.4433,313
-2.6272,314
-4.1009,315
5.2994,316
17.864,317
14.064,318
4.7936,319
-0.92112,320
-6.4656,321
1.9778,322
12.63,323
19.003,324
11.273,325
-0.98344,326
-7.8669,327
-1.0885,328
8.2913,329
12.711,330
16.691,331
6.201,332
-5.9941,333
-0.20326,334
5.5855,335
9.1977,336
11.134,337
11.216,338
0.52473,339
1.5821,340
5.7749,341
7.7465,342
9.1792,343
9.1341,344
8.5653,345
7.897,346
7.8279,347
7.8034,348
7.4586,349
6.5763,350
5.3443,351
4.3131,352
3.7276,353
3.6774,354
3.5636,355
3.4379,356
2.7056,357
2.5794,358
1.5573,359
2.3365,360
-2.5996,361
-5.98,362
-2.4566,363
-0.86195,364
0.53496,365
1.7856,366
-2.2807,367
-17.47,368
-14.521,369
-6.9963,370
-2.9615,371
1.4621,372
-2.9447,373
-17.848,374
-26.841,375
-18.942,376
-9.2237,377
-1.9644,378
-4.9884,379
-18.309,380
-26.221,381
-31.104,382
-21.033,383
-8.0015,384
-9.4328,385
-19.394,386
-24.918,387
-29.482,388
-30.415,389
-25.404,390
-24.253,391
-26.502,392
-27.291,393
-27.989,394
-27.72,395
-34.954,396
-45.073,397
-41.612,398
-34.732,399
-30.895,400
-26.766,401
-35.417,402
-48.658,403
-55.423,404
-46.7,405
-36.179,406
-29.356,407
-36.269,408
-47.192,409
-53.27,410
-56.688,411
-44.947,412
-33.812,413
-39.386,414
-47.083,415
-51.475,416
-54.808,417
-55.153,418
-42.99,419
-44.224,420
-49.074,421
-51.358,422
-53.259,423
-54.283,424
-54.242,425
-53.984,426
-54.821,427
-55.211,428
-55.599,429
-55.61,430
-55.449,431
-55.27,432
-55.348,433
-55.723,434
-56.044,435
-56.215,436
-55.942,437
-55.959,438
-55.723,439
-56.613,440
-55.12,441
-54.21,442
-55.675,443
-56.443,444
-56.948,445
-58.403,446
-55.333,447
-42.33,448
-45.958,449
-51.498,450
-54.746,451
-58.315,452
-56.097,453
-41.514,454
-33.09,455
-41.13,456
-48.428,457
-54.443,458
-51.972,459
-38.145,460
-28.103,461
-22.471,462
-31.203,463
-40.704,464
-38.458,465
-25.486,466
-17.032,467
-9.0355,468
-5.778,469
-9.9776,470
-7.6957,471
-0.28152,472
5.2834,473
10.207,474
13.869,475
23.076,476
34.637,477
34.749,478
31.637,479
30.686,480
28.821,481
38.411,482
53.754,483
60.25,484
50.588,485
41.077,486
34.044,487
40.916,488
52.345,489
58.728,490
60.691,491
47.115,492
35.032,493
39.703,494
48.081,495
52.401,496
55.7,497
54.428,498
40.677,499
41.634,500
45.629,501
47.409,502
48.392,503
49.233,504
47.128,505
45.225,506
44.821,507
44.396,508
42.679,509
44.193,510
41.411,511
47.024,512
