-6.4709,1
-13.577,2
-10.59,3
-13.196,4
-13.579,5
-15.046,6
-16.134,7
-17.572,8
-18.125,9
-18.584,10
-19.584,11
-21.377,12
-23.296,13
-24.516,14
-25.478,15
-26.586,16
-28.934,17
-30.525,18
-32.962,19
-31.193,20
-25.96,21
-31.802,22
-34.568,23
-38.864,24
-35.853,25
-21.404,26
-28.984,27
-36.076,28
-42.217,29
-38.225,30
-20.163,31
-24.221,32
-36.851,33
-45.673,34
-39.29,35
-24.264,36
-21.367,37
-35.772,38
-48.967,39
-40.399,40
-30.119,41
-23.771,42
-31.869,43
-44.939,44
-37.318,45
-31.482,46
-27.693,47
-28.003,48
-28.772,49
-28.066,50
-28.194,51
-29.163,52
-26.494,53
-10.629,54
-13.673,55
-22.89,56
-29.262,57
-25.629,58
-6.9015,59
-4.4648,60
-17.945,61
-29.188,62
-21.707,63
-6.8918,64
0.94016,65
-8.6709,66
-24.058,67
-13.945,68
-3.3792,69
4.2267,70
2.1563,71
-12.926,72
-5.305,73
2.2487,74
6.9773,75
9.1063,76
1.9793,77
4.8742,78
8.5596,79
10.564,80
12.312,81
13.424,82
13.922,83
13.931,84
14.343,85
15.436,86
16.937,87
18.015,88
18.652,89
19.599,90
21.52,91
23.642,92
25.502,93
26.204,94
24.492,95
27.223,96
30.235,97
32.418,98
33.747,99
22.598,100
25.727,101
32.747,102
36.453,103
38.562,104
20.929,105
19.642,106
31.616,107
39.227,108
40.732,109
24.114,110
17.948,111
30.226,112
44.06,113
42.167,114
28.852,115
20.882,116
26.068,117
45.231,118
41.535,119
31.623,120
26.291,121
25.711,122
34.009,123
32.431,124
29.224,125
27.836,126
27.324,127
18.485,128
16.833,129
23.542,130
27.129,131
28.984,132
11.486,133
3.8802,134
16.243,135
27.254,136
27.509,137
11.677,138
1.3574,139
8.0743,140
25.317,141
22.422,142
8.3964,143
-0.11253,144
-1.6158,145
16.029,146
13.442,147
2.0549,148
-2.7541,149
-7.5212,150
3.1972,151
2.9509,152
-4.1476,153
-6.8413,154
-9.7967,155
-10.027,156
-10.515,157
-10.885,158
-11.133,159
-11.819,160
-12.887,161
-13.789,162
-14.193,163
-14.813,164
-16.317,165
-18.37,166
-20.237,167
-21.282,168
-22.414,169
-23.845,170
-26.455,171
-27.756,172
-30.311,173
-22.382,174
-21.62,175
-29.157,176
-31.362,177
-36.479,178
-23.211,179
-15.971,180
-27.761,181
-34.224,182
-39.315,183
-25.494,184
-14.051,185
-23.942,186
-37.94,187
-41.498,188
-28.75,189
-18.771,190
-20.933,191
-40.069,192
-42.792,193
-31.214,194
-25.274,195
-22.153,196
-32.555,197
-34.479,198
-29.172,199
-26.981,200
-26.303,201
-21.649,202
-17.552,203
-22.85,204
-25.438,205
-29.207,206
-16.257,207
-2.7105,208
-13.378,209
-24.389,210
-29.32,211
-16.149,212
-2.672,213
-5.822,214
-22.918,215
-25.866,216
-11.545,217
-2.4335,218
2.2432,219
-14.13,220
-18.939,221
-5.7422,222
-0.46811,223
6.2035,224
-1.7908,225
-6.1788,226
1.7656,227
4.5201,228
7.7496,229
8.1458,230
8.4011,231
8.7927,232
9.0184,233
9.5293,234
10.464,235
11.4,236
11.838,237
12.298,238
13.529,239
15.458,240
17.412,241
18.541,242
19.636,243
20.773,244
23.466,245
24.691,246
27.78,247
22.241,248
17.618,249
25.669,250
28.138,251
33.829,252
25.523,253
12.668,254
23.187,255
30.564,256
37.231,257
28.093,258
12.591,259
18.742,260
33.11,261
40.673,262
30.332,263
18.724,264
16.942,265
34.06,266
43.178,267
32,268
25.323,269
20.495,270
27.312,271
32.599,272
27.984,273
25.796,274
25.313,275
21.896,276
14.85,277
19.659,278
23.633,279
28,280
19.771,281
2.1305,282
8.5314,283
21.243,284
28.816,285
18.992,286
4.1028,287
2.357,288
18.043,289
27.494,290
14.721,291
4.8582,292
-2.6062,293
7.8387,294
19.25,295
7.2883,296
1.6601,297
-4.6481,298
-1.1715,299
6.1932,300
-0.28092,301
-3.3061,302
-6.0452,303
-7.1438,304
-8.0457,305
-7.9872,306
-7.9362,307
-8.1427,308
-8.9659,309
-9.9465,310
-10.517,311
-10.964,312
-12.032,313
-14.001,314
-15.983,315
-17.5,316
-18.086,317
-18.401,318
-21.376,319
-22.973,320
-26.088,321
-23.01,322
-13.24,323
-21.054,324
-25.632,325
-31.132,326
-27.194,327
-10.005,328
-16.684,329
-27.101,330
-34.761,331
-29.449,332
-12.893,333
-13.124,334
-27.944,335
-39.257,336
-31.066,337
-20.071,338
-14.284,339
-26.241,340
-41.218,341
-32.083,342
-25.555,343
-21.105,344
-22.841,345
-25.975,346
-24.577,347
-23.867,348
-24.799,349
-21.219,350
-8.1706,351
-12.744,352
-20.523,353
-26.561,354
-21.517,355
-3.2971,356
-2.7642,357
-16.912,358
-27.754,359
-19.692,360
-5.9686,361
0.55726,362
-11.006,363
-25.556,364
-14.843,365
-5.5218,366
1.697,367
-1.6923,368
-15.357,369
-7.1712,370
-1.2921,371
2.9693,372
3.9119,373
-1.7141,374
0.97206,375
3.5128,376
5.0396,377
6.2186,378
7.0431,379
7.3672,380
7.4191,381
7.8631,382
8.9577,383
10.336,384
11.251,385
11.828,386
12.624,387
14.579,388
16.367,389
18.426,390
18.037,391
12.849,392
17.501,393
21.308,394
24.75,395
24.867,396
9.4641,397
14.003,398
22.887,399
28.714,400
28.551,401
10.256,402
9.533,403
22.652,404
33.128,405
29.205,406
15.004,407
9.0308,408
20.349,409
36.92,410
30.498,411
21.218,412
15.532,413
19.298,414
31.226,415
27.275,416
23.244,417
21.324,418
20.756,419
14.749,420
15.264,421
20.084,422
23.282,423
23.066,424
4.2701,425
2.6573,426
15.613,427
25.507,428
22.528,429
6.6637,430
-0.41169,431
10.189,432
26.218,433
19.487,434
7.4057,435
-0.35461,436
2.8208,437
20.238,438
13.283,439
4.2823,440
-0.76315,441
-2.8393,442
7.2497,443
4.1309,444
-0.70191,445
-2.9835,446
-4.6115,447
-5.1809,448
-5.3639,449
-5.1046,450
-5.0943,451
-5.51,452
-6.3178,453
-6.9304,454
-7.2728,455
-7.9445,456
-9.5344,457
-11.454,458
-13.144,459
-13.861,460
-12.011,461
-14.492,462
-17.72,463
-19.771,464
-21.417,465
-8.8498,466
-11.329,467
-19.616,468
-23.863,469
-26.55,470
-9.0533,471
-5.646,472
-18.279,473
-27.602,474
-28.498,475
-13.175,476
-5.7112,477
-16.444,478
-32.772,479
-29.857,480
-18.445,481
-11.917,482
-14.598,483
-31.123,484
-28.603,485
-21.795,486
-18.809,487
-17.859,488
-17.091,489
-16.668,490
-19.133,491
-20.688,492
-21.738,493
-4.8835,494
-1.0608,495
-13.278,496
-22.14,497
-23.133,498
-7.2683,499
1.4138,500
-8.4501,501
-24.544,502
-21.174,503
-7.9207,504
0.12006,505
-1.1283,506
-19.71,507
-16.175,508
-5.5481,509
-1.1728,510
2.6899,511
-9.7438,512
