7.2739,1
16.106,2
15.806,3
18.711,4
17.89,5
5.1448,6
-3.3575,7
5.3986,8
12.911,9
19.847,10
21.036,11
9.1386,12
-0.92304,13
-3.4688,14
8.619,15
19.679,16
23.221,17
12.105,18
4.1513,19
-1.871,20
-1.1044,21
14.664,22
19.596,23
10.939,24
4.3236,25
0.66467,26
-3.1637,27
1.4789,28
11.073,29
5.3716,30
2.2225,31
-0.7984,32
-2.1391,33
-3.2071,34
-2.4829,35
-2.6627,36
-2.975,37
-3.0396,38
-3.1616,39
-3.3249,40
-3.6271,41
-3.8923,42
-4.0471,43
-4.1717,44
-4.5443,45
-5.3743,46
-6.5055,47
-7.6548,48
-8.4508,49
-9.15,50
-8.593,51
-9.8948,52
-11.358,53
-13.532,54
-14.039,55
-16.767,56
-9.5319,57
-1.5853,58
-8.6945,59
-12.957,60
-17.014,61
-20.566,62
-16.06,63
-0.58769,64
-0.56393,65
-10.961,66
-17.059,67
-24.193,68
-18.814,69
-7.0959,70
1.0965,71
-3.3084,72
-16.663,73
-26.077,74
-23.057,75
-12.692,76
-8.1531,77
-3.5859,78
-11.137,79
-25.061,80
-24.188,81
-17.791,82
-14.751,83
-12.575,84
-12.205,85
-11.716,86
-10.696,87
-12.228,88
-13.887,89
-15.432,90
-17.366,91
-8.2704,92
4.8493,93
1.2563,94
-8.6742,95
-14.789,96
-20.875,97
-12.456,98
-1.1803,99
5.7666,100
-1.8728,101
-14.732,102
-22.107,103
-15.085,104
-4.7439,105
0.51549,106
4.7385,107
-6.103,108
-19.129,109
-13.433,110
-5.964,111
-1.203,112
1.842,113
2.7424,114
-8.9735,115
-8.071,116
-2.8639,117
-0.2925,118
1.8807,119
2.9232,120
2.8239,121
2.2732,122
2.7751,123
2.7455,124
2.8274,125
2.8153,126
2.9634,127
3.1117,128
3.2054,129
3.2462,130
3.3623,131
3.9662,132
4.7907,133
6.0043,134
6.5901,135
7.7335,136
6.1653,137
5.2651,138
7.9016,139
9.8446,140
11.565,141
13.383,142
11.847,143
-1.2445,144
2.0198,145
8.6566,146
12.729,147
17.226,148
16.325,149
2.2425,150
-5.6582,151
3.5064,152
11.878,153
19.378,154
20.047,155
8.2797,156
-0.64497,157
-3.2022,158
8.9708,159
21.107,160
23.619,161
13.544,162
7.9542,163
3.1953,164
4.3907,165
16.12,166
20.703,167
15.632,168
12.595,169
10.764,170
10.419,171
8.2425,172
4.8295,173
6.6232,174
9.9886,175
12.06,176
15.479,177
11.313,178
-3.6234,179
-8.4594,180
2.1141,181
10.094,182
18.042,183
14.433,184
2.6546,185
-5.384,186
-5.685,187
7.7234,188
18.72,189
16.446,190
5.6686,191
0.27719,192
-4.6874,193
-2.201,194
14.011,195
13.902,196
6.2545,197
1.447,198
-1.1652,199
-4.0784,200
1.9607,201
6.7116,202
1.7928,203
0.2331,204
-1.8643,205
-2.3642,206
-2.8568,207
-2.711,208
-2.6576,209
-2.4388,210
-2.2748,211
-2.1779,212
-2.2463,213
-2.4337,214
-2.6035,215
-2.7132,216
-2.7962,217
-3.2455,218
-4.0181,219
-5.1371,220
-5.9092,221
-6.8977,222
-6.2665,223
0.75494,224
-2.4243,225
-5.8661,226
-9.0403,227
-10.953,228
-12.718,229
0.71602,230
6.6975,231
-2.5373,232
-8.0241,233
-13.684,234
-15.965,235
-5.5294,236
7.1971,237
5.5625,238
-6.107,239
-14.339,240
-19.38,241
-8.9123,242
-0.5043,243
5.8437,244
1.7753,245
-13.783,246
-20.511,247
-13.178,248
-6.8292,249
-3.5377,250
-1.1313,251
-5.5663,252
-10.318,253
-8.9824,254
-7.9902,255
-7.7055,256
-8.6107,257
-6.8722,258
2.8636,259
5.3778,260
-2.149,261
-6.5525,262
-12.156,263
-11.429,264
0.82854,265
11.326,266
7.6087,267
-4.5906,268
-13.6,269
-15.305,270
-3.437,271
3.477,272
9.2372,273
2.5795,274
-13.222,275
-15.18,276
-6.4467,277
-0.24117,278
2.8181,279
6.2009,280
-4.3522,281
-12.041,282
-4.8596,283
-1.6376,284
1.5718,285
2.8664,286
3.1401,287
0.15563,288
1.1356,289
1.7968,290
2.1838,291
2.2017,292
2.0116,293
1.7408,294
1.5122,295
1.3351,296
1.2245,297
1.2795,298
1.5437,299
1.9978,300
2.4044,301
2.7362,302
2.7974,303
2.0127,304
3.2492,305
4.2294,306
5.9238,307
6.1484,308
8.0832,309
-2.2939,310
-5.2031,311
1.7628,312
5.3422,313
9.1354,314
11.62,315
2.1307,316
-11.707,317
-7.1683,318
2.6885,319
8.9143,320
14.693,321
5.9388,322
-5.1746,323
-11.782,324
-3.6676,325
9.2617,326
16.892,327
10.385,328
1.3904,329
-2.9332,330
-6.2918,331
3.5204,332
14.225,333
10.522,334
5.948,335
3.761,336
2.6078,337
2.1126,338
-0.97696,339
-1.6133,340
1.89,341
4.1507,342
7.2112,343
7.6621,344
-4.7389,345
-15.859,346
-9.2458,347
0.82695,348
8.4155,349
11.589,350
0.23546,351
-8.3275,352
-13.711,353
-4.6824,354
9.4788,355
13.482,356
4.4071,357
-2.8292,358
-6.6645,359
-9.5821,360
3.5017,361
11.642,362
4.0983,363
-0.18042,364
-3.3758,365
-5.2823,366
-4.1377,367
3.2683,368
0.6891,369
-1.154,370
-2.5039,371
-2.992,372
-3.002,373
-2.6321,374
-2.2943,375
-2.0381,376
-1.8118,377
-1.5758,378
-1.3666,379
-1.2386,380
-1.1919,381
-1.1245,382
-1.1404,383
-1.1278,384
-1.6887,385
-2.0456,386
-3.1036,387
-2.9226,388
-4.4391,389
3.639,390
5.4173,391
0.12268,392
-2.8945,393
-5.4939,394
-8.2874,395
-0.3433,396
13.296,397
7.2284,398
-0.69481,399
-5.9129,400
-11.044,401
-3.2749,402
9.5999,403
16.12,404
6.9753,405
-4.2089,406
-11.962,407
-5.9058,408
4.2676,409
9.6297,410
12.425,411
-0.40559,412
-12.855,413
-8.4282,414
-1.6946,415
1.4981,416
3.9384,417
3.5039,418
2.0255,419
2.0438,420
1.0611,421
-0.082254,422
-1.6886,423
-2.5913,424
8.8686,425
19.446,426
12.342,427
3.7913,428
-2.8746,429
-6.5633,430
3.9468,431
13.986,432
18.069,433
7.1098,434
-5.1483,435
-10.338,436
-1.19,437
6.6866,438
11.237,439
13.304,440
-0.93855,441
-9.7419,442
-2.5006,443
2.6811,444
5.7332,445
8.1317,446
5.7038,447
-4.7017,448
-1.1873,449
1.6444,450
3.6837,451
4.5839,452
4.7888,453
4.4122,454
4.0335,455
3.7566,456
3.4383,457
2.9812,458
2.385,459
1.7791,460
1.3106,461
0.95798,462
0.79866,463
0.62531,464
0.86273,465
0.89777,466
1.5634,467
1.2096,468
2.3738,469
-4.4127,470
-5.7016,471
-1.4769,472
1.0581,473
2.9339,474
5.4696,475
-2.3216,476
-15.701,477
-9.3584,478
-2.215,479
2.6618,480
7.3455,481
0.13467,482
-13.793,483
-19.412,484
-9.295,485
0.48876,486
8.0515,487
1.8595,488
-8.9747,489
-15.152,490
-17.557,491
-4.4429,492
7.6137,493
3.5201,494
-4.0793,495
-7.4838,496
-10.548,497
-9.3734,498
-6.1705,499
-6.5909,500
-6.3275,501
-5.6711,502
-4.4107,503
-3.5999,504
-13.336,505
-22.752,506
-15.889,507
-8.6636,508
-2.091,509
0.57997,510
-8.0039,511
-21.793,512
