-9.53,1
-23.96,2
-26.213,3
-30.857,4
-30.437,5
-15.163,6
-5.471,7
-15.745,8
-23.628,9
-30.866,10
-31.55,11
-18.08,12
-7.1298,13
-4.688,14
-18.276,15
-30.32,16
-34.153,17
-22.106,18
-14.286,19
-8.3475,20
-10.171,21
-27.05,22
-32.561,23
-23.838,24
-18.296,25
-14.956,26
-13.249,27
-13.88,28
-13.512,29
-13.431,30
-14.715,31
-15.37,32
-17.547,33
-14.292,34
1.8962,35
6.3885,36
-4.99,37
-12.059,38
-19.733,39
-16.694,40
-2.7599,41
7.4273,42
6.0816,43
-8.6072,44
-19.519,45
-19.319,46
-5.5589,47
1.538,48
7.6373,49
2.041,50
-16.349,51
-16.797,52
-6.9034,53
-0.53181,54
2.2816,55
5.5006,56
-4.3286,57
-11.781,58
-4.1076,59
-1.0699,60
2.1014,61
2.7409,62
2.7134,63
0.85075,64
0.9817,65
1.1295,66
1.1026,67
0.74182,68
0.1524,69
-0.38962,70
-0.68285,71
-0.73838,72
-0.67333,73
-0.49174,74
-0.18989,75
0.21209,76
0.44641,77
0.50868,78
0.11173,79
-2.2941,80
-0.89451,81
0.28509,82
1.9846,83
1.7481,84
3.2124,85
-10.194,86
-14.4,87
-5.2317,88
-0.58835,89
3.6655,90
5.8936,91
-5.3041,92
-21.522,93
-16.519,94
-5.2493,95
1.1452,96
6.7701,97
-4.0413,98
-17.35,99
-25.066,100
-16.149,101
-1.9072,102
5.9647,103
-2.211,104
-13.144,105
-18.512,106
-22.197,107
-11.062,108
0.71849,109
-3.5224,110
-10.096,111
-13.095,112
-15.331,113
-15.69,114
-16.959,115
-17.516,116
-15.003,117
-13.285,118
-11.104,119
-10.772,120
-24,121
-36.36,122
-29.115,123
-18.827,124
-11.741,125
-8.3055,126
-21.079,127
-31.731,128
-37.15,129
-25.825,130
-11.956,131
-6.2724,132
-16.404,133
-25.351,134
-30.03,135
-32.562,136
-17.213,137
-7.1283,138
-15.43,139
-21.162,140
-24.335,141
-26.594,142
-24.125,143
-12.261,144
-16.267,145
-19.927,146
-22.182,147
-22.97,148
-22.545,149
-21.434,150
-20.902,151
-21.24,152
-21.519,153
-21.075,154
-19.625,155
-17.638,156
-16.169,157
-15.709,158
-16.064,159
-16.054,160
-15.321,161
-13.68,162
-12.679,163
-11.44,164
-12.096,165
-7.2066,166
-6.1377,167
-8.2283,168
-9.1802,169
-9.0604,170
-10.515,171
-2.5687,172
11.101,173
3.4163,174
-3.0635,175
-7.3033,176
-10.468,177
-3.8247,178
15.159,179
20.616,180
7.7264,181
-1.3479,182
-8.7836,183
-1.5682,184
14.676,185
25.162,186
25.256,187
9.4751,188
-2.2117,189
2.3609,190
16.695,191
23.781,192
30.01,193
26.511,194
14.813,195
14.948,196
21.379,197
24.961,198
27.508,199
28.763,200
34.397,201
39.257,202
34.538,203
29.503,204
26.53,205
24.165,206
35.207,207
52.592,208
53.315,209
38.726,210
29.179,211
22.197,212
33.421,213
47.17,214
55.657,215
51.843,216
34.095,217
24.208,218
32.375,219
44.441,220
49.651,221
54.175,222
46.376,223
28.473,224
32.685,225
38.749,226
42.323,227
43.192,228
43.966,229
34.897,230
31.135,231
32.145,232
30.185,233
28.951,234
26.97,235
25.399,236
22.967,237
19.789,238
16.14,239
12.94,240
10.479,241
8.6917,242
7.0632,243
5.2528,244
3.399,245
1.5427,246
0.43616,247
-0.63297,248
-0.71872,249
-1.666,250
-0.46309,251
-4.5292,252
-12.265,253
-5.7731,254
-1.2571,255
3.1269,256
6.5463,257
6.0387,258
-10.31,259
-9.4077,260
4.9856,261
13.686,262
22.266,263
21.43,264
7.185,265
-3.6009,266
3.6833,267
20.494,268
31.976,269
33.01,270
17.919,271
9.5922,272
4.1082,273
14.084,274
33.422,275
35.438,276
23.869,277
16.725,278
12.412,279
11.438,280
16.497,281
19.112,282
17.961,283
17.86,284
17.67,285
19.096,286
12.861,287
-1.3144,288
1.1611,289
12.644,290
18.651,291
24.992,292
16.736,293
0.89771,294
-9.0325,295
-1.7556,296
13.204,297
22.184,298
15.709,299
0.15697,300
-7.5265,301
-13.224,302
-2.6398,303
14.461,304
10.163,305
-1.1913,306
-8.4578,307
-12.273,308
-14.83,309
-2.2663,310
0.24298,311
-6.5801,312
-9.0909,313
-11.776,314
-12.76,315
-13.085,316
-11.964,317
-11.798,318
-10.972,319
-10.699,320
-10.985,321
-12.011,322
-13.027,323
-13.439,324
-13.206,325
-13.025,326
-13.831,327
-15.413,328
-17.335,329
-18.183,330
-18.908,331
-17.101,332
-14.597,333
-17.417,334
-19.449,335
-21.468,336
-22.484,337
-21.879,338
-6.002,339
-6.7079,340
-15.182,341
-19.478,342
-24.189,343
-24.563,344
-10.379,345
2.2361,346
-5.16,347
-15.786,348
-23.372,349
-25.894,350
-12.482,351
-2.8105,352
3.1368,353
-7.0696,354
-22.38,355
-26.448,356
-15.879,357
-8.6192,358
-4.0598,359
-2.4054,360
-11.784,361
-16.943,362
-12.513,363
-9.8307,364
-8.3555,365
-8.3851,366
-5.9252,367
2.3912,368
1.6058,369
-4.7173,370
-7.6465,371
-12.524,372
-8.3665,373
6.9764,374
15.751,375
5.9691,376
-5.2783,377
-13.999,378
-11.471,379
2.3031,380
9.8432,381
14.291,382
2.0715,383
-13.219,384
-11.423,385
-0.69393,386
5.3142,387
8.8196,388
10.064,389
-6.1252,390
-9.6148,391
-0.9429,392
3.0731,393
5.9538,394
7.3249,395
4.7768,396
-0.12771,397
2.7302,398
3.8488,399
4.8534,400
4.5023,401
3.6926,402
2.6278,403
2.1449,404
2.0987,405
2.1278,406
1.883,407
1.3739,408
0.86002,409
0.49623,410
0.27637,411
0.14481,412
0.013164,413
0.063608,414
0.010834,415
0.09323,416
-0.26203,417
-1.0862,418
-15.005,419
-13.488,420
-6.1856,421
-2.1522,422
1.1707,423
1.7883,424
-13.114,425
-26.161,426
-17.16,427
-7.599,428
-0.95004,429
1.1124,430
-13.06,431
-25.845,432
-30.828,433
-18.458,434
-5.3764,435
-0.88521,436
-12.817,437
-22.303,438
-28.166,439
-30.008,440
-16.774,441
-9.2135,442
-16.248,443
-21.272,444
-24.333,445
-25.938,446
-27.891,447
-32.181,448
-31.429,449
-27.222,450
-25.131,451
-21.942,452
-25.265,453
-42.125,454
-50.887,455
-40.228,456
-30.711,457
-22.753,458
-24.566,459
-38.909,460
-48.13,461
-51.74,462
-38.73,463
-25.021,464
-25.227,465
-36.925,466
-43.424,467
-48.015,468
-48.697,469
-31.949,470
-28.941,471
-37.421,472
-41.557,473
-44.247,474
-46.403,475
-43.532,476
-37.803,477
-41.843,478
-43.443,479
-45.089,480
-45.199,481
-44.83,482
-44.068,483
-44.117,484
-44.826,485
-45.486,486
-45.396,487
-44.396,488
-43.207,489
-42.623,490
-42.943,491
-43.935,492
-44.451,493
-44.028,494
-43.064,495
-42.625,496
-42.439,497
-42.792,498
-31.563,499
-33.361,500
-39.039,501
-42.294,502
-44.973,503
-46.503,504
-32.614,505
-21.134,506
-31.636,507
-42.109,508
-48.852,509
-52.675,510
-37.601,511
-27.209,512
