0.75972,1
1.3082,2
0.68095,3
0.85645,4
-1.3542,5
-16.114,6
-26.373,7
-20.148,8
-14.815,9
-10.053,10
-10.692,11
-24.039,12
-35.69,13
-40.157,14
-30.379,15
-21.326,16
-19.176,17
-30.996,18
-39.796,19
-46.918,20
-47.737,21
-33.996,22
-30.239,23
-39.231,24
-46.209,25
-50.532,26
-55.313,27
-52.197,28
-44.012,29
-49.997,30
-53.294,31
-56.512,32
-58.275,33
-59.95,34
-59.969,35
-60.788,36
-61.654,37
-62.189,38
-62.64,39
-62.921,40
-63.151,41
-63.301,42
-63.418,43
-63.501,44
-63.556,45
-63.608,46
-63.625,47
-63.687,48
-63.627,49
-63.764,50
-62.684,51
-62.909,52
-62.901,53
-63.581,54
-62.85,55
-64.524,56
-56.719,57
-47.833,58
-53.1,59
-55.563,60
-57.92,61
-59.939,62
-54.223,63
-37.741,64
-36.111,65
-44.64,66
-49.008,67
-54.34,68
-47.396,69
-34.088,70
-24.087,71
-26.321,72
-37.337,73
-44.532,74
-39.558,75
-27.307,76
-20.678,77
-14.029,78
-19.182,79
-30.632,80
-27.755,81
-19.466,82
-14.416,83
-10.176,84
-7.6362,85
-4.911,86
-1.7584,87
-1.2636,88
-0.9765,89
-0.57794,90
-0.50926,91
10.392,92
25.367,93
24.111,94
16.572,95
12.647,96
8.6528,97
18.693,98
31.578,99
40.352,100
34.99,101
24.363,102
18.727,103
26.763,104
37.993,105
44.431,106
50.102,107
41.326,108
30.069,109
36.387,110
44.229,111
49.562,112
53.493,113
55.68,114
45.667,115
47.221,116
52.527,117
55.262,118
57.772,119
59.407,120
60.096,121
60.314,122
61.436,123
61.967,124
62.511,125
62.812,126
63.082,127
63.249,128
63.374,129
63.486,130
63.514,131
63.629,132
63.559,133
63.76,134
63.497,135
64.019,136
62.089,137
60.444,138
61.702,139
62.151,140
62.525,141
63.214,142
60.896,143
47.213,144
48.85,145
53.595,146
55.909,147
58.774,148
56.515,149
41.397,150
32.106,151
39.367,152
45.911,153
51.581,154
50.537,155
37.208,156
26.477,157
21.876,158
31.65,159
41.447,160
41.842,161
29.87,162
22.176,163
15.298,164
14.218,165
23.441,166
25.788,167
18.747,168
13.673,169
9.7646,170
7.2706,171
2.9197,172
-2.6671,173
-3.054,174
-1.7916,175
-1.7583,176
-0.44617,177
-6.5796,178
-23.338,179
-30.381,180
-22.361,181
-16.723,182
-11.009,183
-16.42,184
-29.801,185
-39.614,186
-41.983,187
-30.951,188
-21.96,189
-25.517,190
-37.216,191
-43.782,192
-50.12,193
-49.471,194
-35.407,195
-36.528,196
-44.58,197
-49.884,198
-53.275,199
-57.252,200
-52.799,201
-49.213,202
-54.458,203
-56.327,204
-58.798,205
-59.893,206
-61.117,207
-61.732,208
-62.339,209
-62.689,210
-62.986,211
-63.188,212
-63.333,213
-63.445,214
-63.512,215
-63.581,216
-63.596,217
-63.663,218
-63.626,219
-63.736,220
-63.606,221
-63.881,222
-62.836,223
-55.405,224
-57.183,225
-58.921,226
-60.473,227
-61.034,228
-61.716,229
-47.723,230
-40.523,231
-47.82,232
-51.527,233
-55.509,234
-56.334,235
-44.777,236
-30.81,237
-30.668,238
-40.314,239
-46.635,240
-49.802,241
-37.733,242
-27.485,243
-19.176,244
-20.993,245
-34.067,246
-38.574,247
-29.293,248
-20.857,249
-15.376,250
-10.747,251
-12.767,252
-15.119,253
-11.585,254
-8.4157,255
-5.959,256
-4.6498,257
-0.7193,258
11.092,259
15.86,260
10.703,261
8.483,262
5.0891,263
7.8763,264
21.993,265
34.51,266
33.203,267
23.5,268
16.738,269
16.925,270
30.277,271
38.887,272
46.464,273
42.054,274
28.583,275
28.185,276
37.977,277
45.346,278
49.815,279
54.804,280
46.425,281
40.294,282
47.936,283
51.59,284
55.347,285
57.5,286
58.94,287
57.228,288
59,289
60.258,290
61.241,291
61.918,292
62.42,293
62.776,294
63.035,295
63.225,296
63.356,297
63.463,298
63.523,299
63.594,300
63.614,301
63.66,302
63.576,303
62.537,304
63.005,305
62.937,306
63.578,307
62.956,308
64.209,309
53.58,310
49.603,311
54.764,312
56.634,313
58.86,314
60.027,315
49.659,316
34.84,317
37.62,318
45.574,319
50.049,320
54.126,321
44,322
31.368,323
22.953,324
28.812,325
39.42,326
44.871,327
36.466,328
25.486,329
19.013,330
13.484,331
20.812,332
29.076,333
23.27,334
16.535,335
12.107,336
8.6794,337
5.8685,338
0.48015,339
-2.5004,340
-1.3434,341
-1.3161,342
-0.50091,343
-2.2568,344
-16.63,345
-29.886,346
-25.847,347
-18.286,348
-13.067,349
-12.098,350
-25.305,351
-35.875,352
-43.376,353
-36.818,354
-25.064,355
-22.934,356
-33.396,357
-42.117,358
-47.635,359
-52.407,360
-41.712,361
-35.351,362
-43.737,363
-48.87,364
-53.08,365
-56.27,366
-56.782,367
-51.124,368
-54.546,369
-56.959,370
-58.913,371
-60.193,372
-61.198,373
-61.876,374
-62.393,375
-62.755,376
-63.021,377
-63.216,378
-63.354,379
-63.455,380
-63.537,381
-63.561,382
-63.654,383
-63.582,384
-63.764,385
-63.523,386
-63.95,387
-63.288,388
-64.443,389
-56.323,390
-53.681,391
-57.382,392
-58.835,393
-60.062,394
-61.739,395
-53.191,396
-38.832,397
-43.161,398
-49.252,399
-52.819,400
-56.453,401
-47.598,402
-33.595,403
-25.522,404
-32.579,405
-41.676,406
-47.464,407
-39.752,408
-27.851,409
-20.53,410
-15.666,411
-26.042,412
-36.125,413
-29.714,414
-20.914,415
-15.506,416
-10.816,417
-8.9103,418
-7.9907,419
-5.5684,420
-4.1433,421
-2.9357,422
-2.2107,423
-0.80035,424
12.721,425
25.505,426
21.021,427
14.974,428
10.713,429
9.3485,430
21.888,431
34.069,432
40.456,433
32.093,434
22.273,435
19.179,436
29.987,437
39.629,438
46.091,439
50.218,440
38.488,441
31.696,442
40.205,443
46.687,444
51.208,445
55.258,446
54.845,447
46.485,448
50.907,449
54.335,450
57.023,451
58.817,452
60.209,453
61.157,454
61.874,455
62.38,456
62.748,457
63.021,458
63.213,459
63.352,460
63.462,461
63.51,462
63.609,463
63.563,464
63.729,465
63.531,466
63.903,467
63.336,468
64.353,469
57.657,470
55.71,471
58.637,472
59.89,473
60.688,474
62.391,475
54.295,476
40.43,477
45.12,478
50.501,479
53.821,480
57.188,481
49.138,482
34.391,483
27.386,484
35.52,485
43.394,486
49.187,487
41.598,488
29.303,489
21.375,490
17.016,491
27.765,492
37.566,493
31.592,494
22.051,495
16.52,496
11.301,497
10.2,498
11.053,499
8.2608,500
6.0838,501
4.3341,502
3.2165,503
1.6631,504
-10.136,505
-21.899,506
-17.489,507
-13.043,508
-8.4236,509
-8.7805,510
-18.31,511
-36.346,512
