25.429,1
52.447,2
45.608,3
50.65,4
49.72,5
52.451,6
51.003,7
45.652,8
48.59,9
51.445,10
53.554,11
53.728,12
41.58,13
44.936,14
50.928,15
53.916,16
55.72,17
39.172,18
39.457,19
49.624,20
54.444,21
57.241,22
39.647,23
35.941,24
48.383,25
56.38,26
58.738,27
42.039,28
33.531,29
44.772,30
57.361,31
57.668,32
42.387,33
31.982,34
38.705,35
55.798,36
56.003,37
42.071,38
32.541,39
33.142,40
52.144,41
52.873,42
40.068,43
33.28,44
29.921,45
42.647,46
45.028,47
36.238,48
32.116,49
29.15,50
33.178,51
33.415,52
30.94,53
29.317,54
29.231,55
24.128,56
18.746,57
23.82,58
26.116,59
29.589,60
20.097,61
6.0405,62
15.019,63
23.034,64
28.458,65
17.692,66
-0.10249,67
5.8566,68
18.768,69
25.398,70
14.341,71
-3.1708,72
-3.8108,73
11.287,74
19.854,75
7.2742,76
-6.8774,77
-12.485,78
1.4203,79
13.756,80
1.0442,81
-9.8346,82
-17.639,83
-7.6486,84
6.0079,85
-6.1222,86
-14.123,87
-21.308,88
-17.152,89
-3.7391,90
-12.199,91
-18.213,92
-22.911,93
-23.331,94
-14.567,95
-18.444,96
-22.214,97
-24.546,98
-26.378,99
-24.74,100
-25.599,101
-26.499,102
-27.238,103
-28.679,104
-30.203,105
-30.784,106
-30.633,107
-31.049,108
-32.533,109
-34.494,110
-35.598,111
-35.761,112
-36.195,113
-37.715,114
-39.625,115
-40.791,116
-40.981,117
-41.176,118
-42.373,119
-43.959,120
-45.068,121
-45.401,122
-44.779,123
-45.724,124
-47.735,125
-48.576,126
-50.034,127
-42.711,128
-42.713,129
-48.166,130
-49.397,131
-53.076,132
-41.428,133
-38.312,134
-47.381,135
-49.86,136
-55.133,137
-41.849,138
-33.541,139
-45.128,140
-50.901,141
-56.741,142
-44.059,143
-31.348,144
-41.76,145
-52.432,146
-57.723,147
-45.297,148
-31.329,149
-36.998,150
-52.315,151
-57.487,152
-44.819,153
-32.583,154
-32.2,155
-49.45,156
-56.77,157
-43.907,158
-34.627,159
-29.562,160
-44.225,161
-52.891,162
-41.083,163
-34.798,164
-29.497,165
-35.874,166
-41.334,167
-35.549,168
-32.102,169
-29.999,170
-29.12,171
-26.873,172
-27.956,173
-28.625,174
-30.318,175
-25.495,176
-12.48,177
-17.655,178
-24.723,179
-29.749,180
-24.761,181
-4.9157,182
-7.8454,183
-20.361,184
-28.224,185
-21.937,186
-2.7869,187
0.1757,188
-13.475,189
-24.482,190
-15.751,191
0.58973,192
7.8073,193
-3.4789,194
-18.851,195
-9.594,196
3.8472,197
12.485,198
7.4593,199
-10.275,200
-2.0998,201
8.511,202
15.071,203
15.293,204
-0.67842,205
4.0959,206
12.76,207
17.031,208
19.848,209
9.9672,210
12.076,211
17.388,212
19.528,213
22.183,214
19.655,215
20.047,216
21.703,217
22.523,218
24.137,219
25.743,220
26.569,221
26.342,222
26.581,223
27.911,224
29.995,225
31.348,226
31.524,227
31.724,228
33.108,229
35.195,230
36.658,231
36.933,232
36.989,233
38.051,234
39.94,235
41.224,236
41.921,237
40.524,238
40.735,239
43.678,240
44.439,241
46.92,242
40.437,243
37.124,244
43.947,245
45.247,246
50.052,247
41.237,248
33.22,249
42.961,250
46.277,251
52.258,252
42.393,253
29.262,254
39.669,255
47.36,256
53.723,257
44.15,258
28.209,259
34.768,260
47.756,261
55.268,262
46.098,263
30.822,264
31.432,265
46.903,266
56.168,267
45.361,268
33.314,269
28.756,270
43.426,271
55.29,272
43.682,273
35.07,274
28.78,275
37.696,276
48.035,277
39.489,278
33.99,279
29.83,280
31.808,281
34.853,282
32.528,283
30.808,284
30.411,285
28.033,286
19.572,287
22.019,288
26.751,289
30.07,290
27.752,291
9.1794,292
10.968,293
22.584,294
29.797,295
27.006,296
7.3572,297
3.9365,298
17.065,299
27.885,300
22.372,301
4.7769,302
-3.5351,303
6.6857,304
22.635,305
15.646,306
1.2198,307
-7.7011,308
-2.6264,309
15.961,310
9.2177,311
-2.9733,312
-10.116,313
-10.651,314
6.782,315
2.9315,316
-7.6475,317
-12.427,318
-16.173,319
-4.8255,320
-5.8281,321
-12.695,322
-15.048,323
-18.303,324
-14.94,325
-14.536,326
-16.84,327
-17.71,328
-19.368,329
-20.826,330
-21.665,331
-21.299,332
-21.354,333
-22.498,334
-24.537,335
-25.936,336
-26.121,337
-26.322,338
-27.795,339
-30.123,340
-31.806,341
-32.153,342
-32.079,343
-33.132,344
-35.133,345
-36.66,346
-37.278,347
-36.701,348
-37.05,349
-39.772,350
-40.631,351
-43.097,352
-37.28,353
-32.948,354
-40.012,355
-41.568,356
-46.497,357
-38.047,358
-27.79,359
-37.738,360
-41.996,361
-48.218,362
-40.49,363
-25.516,364
-34.794,365
-43.558,366
-50.428,367
-42.765,368
-26.144,369
-31.465,370
-44.711,371
-52.773,372
-44.084,373
-29.137,374
-27.79,375
-42.957,376
-53.766,377
-43.507,378
-32.239,379
-26.664,380
-39.903,381
-53.412,382
-42.566,383
-34.369,384
-28.221,385
-33.782,386
-43.415,387
-37.198,388
-32.565,389
-29.675,390
-29.825,391
-30.509,392
-30.076,393
-29.868,394
-30.439,395
-28.413,396
-16.47,397
-18.886,398
-25.899,399
-30.289,400
-28.291,401
-8.5189,402
-7.9767,403
-21.067,404
-29.956,405
-26.966,406
-8.215,407
-2.4295,408
-14.93,409
-27.82,410
-21.952,411
-5.5508,412
3.5698,413
-4.3807,414
-22.129,415
-15.57,416
-2.0846,417
6.2806,418
3.8752,419
-14.883,420
-9.423,421
2.2235,422
8.1782,423
10.926,424
-3.518,425
-1.5068,426
7.0648,427
10.155,428
13.874,429
6.6782,430
6.2826,431
10.918,432
12.587,433
14.943,434
15.298,435
15.587,436
15.621,437
15.773,438
16.885,439
18.663,440
19.821,441
19.815,442
20.022,443
21.51,444
23.894,445
25.563,446
25.812,447
25.728,448
26.984,449
29.183,450
30.915,451
31.276,452
31.347,453
32.141,454
34.567,455
35.629,456
37.565,457
32.298,458
29.4,459
35.694,460
37.026,461
41.555,462
32.891,463
25.307,464
34.926,465
38.169,466
44.195,467
35.736,468
21.957,469
31.918,470
39.521,471
46.281,472
38.207,473
22.159,474
29.109,475
41.572,476
49.232,477
40.554,478
25.49,479
25.795,480
41.294,481
50.653,482
39.833,483
28.927,484
23.948,485
38.182,486
50.626,487
39.506,488
32.007,489
26.103,490
32.857,491
42.793,492
35.979,493
31.535,494
28.626,495
28.994,496
29.554,497
29.242,498
28.973,499
29.884,500
27.11,501
14.618,502
18.545,503
25.641,504
30.513,505
27.807,506
8.1854,507
9.1647,508
21.956,509
30.819,510
26.411,511
8.455,512
